waveforms.vcd
$date
	Wed Feb  7 10:36:59 2024
$end
$version
	ModelSim Version 2020.1
$end
$timescale
	1ns
$end

$scope module circuito_exp5_tb $end
$var parameter 32 ! clockPeriod $end
$var reg 1 " clock_in $end
$var reg 1 # reset_in $end
$var reg 1 $ iniciar_in $end
$var reg 4 % chaves_in [3:0] $end
$var reg 1 & nivel_in $end
$var wire 1 ' acertou_out $end
$var wire 1 ( errou_out $end
$var wire 1 ) pronto_out $end
$var wire 1 * timeout_out $end
$var wire 1 + leds_out [3] $end
$var wire 1 , leds_out [2] $end
$var wire 1 - leds_out [1] $end
$var wire 1 . leds_out [0] $end
$var wire 1 / db_igual $end
$var wire 1 0 db_contagem [6] $end
$var wire 1 1 db_contagem [5] $end
$var wire 1 2 db_contagem [4] $end
$var wire 1 3 db_contagem [3] $end
$var wire 1 4 db_contagem [2] $end
$var wire 1 5 db_contagem [1] $end
$var wire 1 6 db_contagem [0] $end
$var wire 1 7 db_memoria [6] $end
$var wire 1 8 db_memoria [5] $end
$var wire 1 9 db_memoria [4] $end
$var wire 1 : db_memoria [3] $end
$var wire 1 ; db_memoria [2] $end
$var wire 1 < db_memoria [1] $end
$var wire 1 = db_memoria [0] $end
$var wire 1 > db_estado [6] $end
$var wire 1 ? db_estado [5] $end
$var wire 1 @ db_estado [4] $end
$var wire 1 A db_estado [3] $end
$var wire 1 B db_estado [2] $end
$var wire 1 C db_estado [1] $end
$var wire 1 D db_estado [0] $end
$var wire 1 E db_clock $end
$var wire 1 F db_iniciar $end
$var wire 1 G db_tem_jogada $end
$var wire 1 H db_nivel $end
$var wire 1 I db_meioTempo $end
$var wire 1 J db_fimTempo $end
$var reg 32 K caso [31:0] $end

$scope module DUT $end
$var wire 1 L clock $end
$var wire 1 M reset $end
$var wire 1 N iniciar $end
$var wire 1 O chaves [3] $end
$var wire 1 P chaves [2] $end
$var wire 1 Q chaves [1] $end
$var wire 1 R chaves [0] $end
$var wire 1 S nivel $end
$var wire 1 ' acertou $end
$var wire 1 ( errou $end
$var wire 1 ) pronto $end
$var wire 1 + leds [3] $end
$var wire 1 , leds [2] $end
$var wire 1 - leds [1] $end
$var wire 1 . leds [0] $end
$var wire 1 * timeout $end
$var wire 1 / db_igual $end
$var wire 1 0 db_contagem [6] $end
$var wire 1 1 db_contagem [5] $end
$var wire 1 2 db_contagem [4] $end
$var wire 1 3 db_contagem [3] $end
$var wire 1 4 db_contagem [2] $end
$var wire 1 5 db_contagem [1] $end
$var wire 1 6 db_contagem [0] $end
$var wire 1 7 db_memoria [6] $end
$var wire 1 8 db_memoria [5] $end
$var wire 1 9 db_memoria [4] $end
$var wire 1 : db_memoria [3] $end
$var wire 1 ; db_memoria [2] $end
$var wire 1 < db_memoria [1] $end
$var wire 1 = db_memoria [0] $end
$var wire 1 > db_estado [6] $end
$var wire 1 ? db_estado [5] $end
$var wire 1 @ db_estado [4] $end
$var wire 1 A db_estado [3] $end
$var wire 1 B db_estado [2] $end
$var wire 1 C db_estado [1] $end
$var wire 1 D db_estado [0] $end
$var wire 1 H db_nivel $end
$var wire 1 E db_clock $end
$var wire 1 F db_iniciar $end
$var wire 1 G db_tem_jogada $end
$var wire 1 I db_meioTempo $end
$var wire 1 J db_fimTempo $end
$var wire 1 T contaC $end
$var wire 1 U registraR $end
$var wire 1 V registraN $end
$var wire 1 W zeraC $end
$var wire 1 X zeraR $end
$var wire 1 Y contaTempo $end
$var wire 1 Z fimC $end
$var wire 1 [ igual $end
$var wire 1 \ jogada_feita $end
$var wire 1 ] nivel_reg $end
$var wire 1 ^ meioC $end
$var wire 1 _ fimTempo $end
$var wire 1 ` meioTempo $end
$var wire 1 a s_jogada [3] $end
$var wire 1 b s_jogada [2] $end
$var wire 1 c s_jogada [1] $end
$var wire 1 d s_jogada [0] $end
$var wire 1 e s_db_contagem [3] $end
$var wire 1 f s_db_contagem [2] $end
$var wire 1 g s_db_contagem [1] $end
$var wire 1 h s_db_contagem [0] $end
$var wire 1 i s_db_memoria [3] $end
$var wire 1 j s_db_memoria [2] $end
$var wire 1 k s_db_memoria [1] $end
$var wire 1 l s_db_memoria [0] $end
$var wire 1 m s_db_jogada [3] $end
$var wire 1 n s_db_jogada [2] $end
$var wire 1 o s_db_jogada [1] $end
$var wire 1 p s_db_jogada [0] $end
$var wire 1 q s_db_estado [3] $end
$var wire 1 r s_db_estado [2] $end
$var wire 1 s s_db_estado [1] $end
$var wire 1 t s_db_estado [0] $end

$scope module exp5_fluxo_dados $end
$var wire 1 L clock $end
$var wire 1 O chaves [3] $end
$var wire 1 P chaves [2] $end
$var wire 1 Q chaves [1] $end
$var wire 1 R chaves [0] $end
$var wire 1 S nivel $end
$var wire 1 X zeraR $end
$var wire 1 U registraR $end
$var wire 1 W zeraC $end
$var wire 1 T contaC $end
$var wire 1 V registraN $end
$var wire 1 Y contaTempo $end
$var wire 1 [ igual $end
$var wire 1 \ jogada_feita $end
$var wire 1 ] nivel_reg $end
$var wire 1 Z fimC $end
$var wire 1 ^ meioC $end
$var wire 1 _ fimTempo $end
$var wire 1 ` meioTempo $end
$var wire 1 a jogada [3] $end
$var wire 1 b jogada [2] $end
$var wire 1 c jogada [1] $end
$var wire 1 d jogada [0] $end
$var wire 1 G db_tem_jogada $end
$var wire 1 i db_memoria [3] $end
$var wire 1 j db_memoria [2] $end
$var wire 1 k db_memoria [1] $end
$var wire 1 l db_memoria [0] $end
$var wire 1 e db_contagem [3] $end
$var wire 1 f db_contagem [2] $end
$var wire 1 g db_contagem [1] $end
$var wire 1 h db_contagem [0] $end
$var wire 1 u valor_memoria [3] $end
$var wire 1 v valor_memoria [2] $end
$var wire 1 w valor_memoria [1] $end
$var wire 1 x valor_memoria [0] $end
$var wire 1 y contagem [3] $end
$var wire 1 z contagem [2] $end
$var wire 1 { contagem [1] $end
$var wire 1 | contagem [0] $end
$var wire 1 } tem_jogada $end

$scope module reg_nivel $end
$var parameter 32 ~ SIZE $end
$var wire 1 L clock $end
$var wire 1 X clear $end
$var wire 1 V enable $end
$var wire 1 S D [0] $end
$var wire 1 ] Q [0] $end
$var reg 1 !! IQ [0:0] $end
$upscope $end

$scope module edge_detector $end
$var wire 1 L clock $end
$var wire 1 "! reset $end
$var wire 1 } sinal $end
$var wire 1 \ pulso $end
$var reg 1 #! reg0 $end
$var reg 1 $! reg1 $end
$upscope $end

$scope module contador_m $end
$var parameter 32 %! M $end
$var parameter 32 &! N $end
$var wire 1 L clock $end
$var wire 1 W zera_as $end
$var wire 1 '! zera_s $end
$var wire 1 T conta $end
$var reg 4 (! Q [3:0] $end
$var reg 1 )! fim $end
$var reg 1 *! meio $end
$upscope $end

$scope module sync_rom_16x4 $end
$var wire 1 L clock $end
$var wire 1 y address [3] $end
$var wire 1 z address [2] $end
$var wire 1 { address [1] $end
$var wire 1 | address [0] $end
$var reg 4 +! data_out [3:0] $end
$upscope $end

$scope module comparador_85 $end
$var wire 1 u A [3] $end
$var wire 1 v A [2] $end
$var wire 1 w A [1] $end
$var wire 1 x A [0] $end
$var wire 1 a B [3] $end
$var wire 1 b B [2] $end
$var wire 1 c B [1] $end
$var wire 1 d B [0] $end
$var wire 1 ,! ALBi $end
$var wire 1 -! AGBi $end
$var wire 1 .! AEBi $end
$var wire 1 /! ALBo $end
$var wire 1 0! AGBo $end
$var wire 1 [ AEBo $end
$var wire 1 1! CSL [4] $end
$var wire 1 2! CSL [3] $end
$var wire 1 3! CSL [2] $end
$var wire 1 4! CSL [1] $end
$var wire 1 5! CSL [0] $end
$var wire 1 6! CSG [4] $end
$var wire 1 7! CSG [3] $end
$var wire 1 8! CSG [2] $end
$var wire 1 9! CSG [1] $end
$var wire 1 :! CSG [0] $end
$upscope $end

$scope module registrador_4 $end
$var parameter 32 ;! SIZE $end
$var wire 1 L clock $end
$var wire 1 X clear $end
$var wire 1 U enable $end
$var wire 1 O D [3] $end
$var wire 1 P D [2] $end
$var wire 1 Q D [1] $end
$var wire 1 R D [0] $end
$var wire 1 a Q [3] $end
$var wire 1 b Q [2] $end
$var wire 1 c Q [1] $end
$var wire 1 d Q [0] $end
$var reg 4 <! IQ [3:0] $end
$upscope $end

$scope module contador_timer $end
$var parameter 32 =! M $end
$var parameter 32 >! N $end
$var wire 1 L clock $end
$var wire 1 \ zera_as $end
$var wire 1 ?! zera_s $end
$var wire 1 Y conta $end
$var reg 13 @! Q [12:0] $end
$var reg 1 A! fim $end
$var reg 1 B! meio $end
$upscope $end
$upscope $end

$scope module exp5_unidade_controle $end
$var parameter 4 C! inicial $end
$var parameter 4 D! inicializa_elementos $end
$var parameter 4 E! espera_jogada $end
$var parameter 4 F! registra $end
$var parameter 4 G! compara $end
$var parameter 4 H! proximo $end
$var parameter 4 I! fim_acertos $end
$var parameter 4 J! fim_erro $end
$var parameter 4 K! Etimeout $end
$var wire 1 L clock $end
$var wire 1 M reset $end
$var wire 1 N iniciar $end
$var wire 1 Z fim $end
$var wire 1 ^ meio $end
$var wire 1 \ jogada $end
$var wire 1 [ igual $end
$var wire 1 ] nivel $end
$var wire 1 _ fimTempo $end
$var wire 1 ` meioTempo $end
$var reg 1 L! zeraC $end
$var reg 1 M! contaC $end
$var reg 1 N! zeraR $end
$var reg 1 O! registraR $end
$var reg 1 P! registraN $end
$var reg 1 Q! acertou $end
$var reg 1 R! errou $end
$var reg 1 S! pronto $end
$var reg 1 T! contaTempo $end
$var reg 1 U! timeout $end
$var wire 1 q db_estado [3] $end
$var wire 1 r db_estado [2] $end
$var wire 1 s db_estado [1] $end
$var wire 1 t db_estado [0] $end
$var reg 4 V! Eatual [3:0] $end
$var reg 4 W! Eprox [3:0] $end
$upscope $end

$scope module HEX0 $end
$var wire 1 e hexa [3] $end
$var wire 1 f hexa [2] $end
$var wire 1 g hexa [1] $end
$var wire 1 h hexa [0] $end
$var reg 7 X! display [6:0] $end
$upscope $end

$scope module HEX1 $end
$var wire 1 i hexa [3] $end
$var wire 1 j hexa [2] $end
$var wire 1 k hexa [1] $end
$var wire 1 l hexa [0] $end
$var reg 7 Y! display [6:0] $end
$upscope $end

$scope module HEX3 $end
$var wire 1 q hexa [3] $end
$var wire 1 r hexa [2] $end
$var wire 1 s hexa [1] $end
$var wire 1 t hexa [0] $end
$var reg 7 Z! display [6:0] $end
$upscope $end
$upscope $end
$upscope $end
$enddefinitions $end
#0
$dumpvars
1"
0#
0$
b0 %
0&
b0 K
b0 !!
0#!
x$!
b0 (!
0)!
0*!
bx +!
b0 <!
bx @!
xA!
xB!
1L!
0M!
1N!
0O!
0P!
0Q!
0R!
0S!
0T!
0U!
b0 V!
b0 W!
b1000000 X!
bx Y!
b1000000 Z!
b10100 !
b1 ~
b10000 %!
b100 &!
b100 ;!
b101110111000 =!
b1101 >!
b0 C!
b1 D!
b100 E!
b101 F!
b110 G!
b111 H!
b1100 I!
b1110 J!
b1111 K!
0'
0(
0)
0*
0.
0-
0,
0+
x/
06
05
04
03
02
01
10
x=
x<
x;
x:
x9
x8
x7
0D
0C
0B
0A
0@
0?
1>
1E
0F
0G
0H
xI
xJ
0T
0U
0V
1W
1X
0Y
0Z
x[
0\
0]
0^
x_
x`
0d
0c
0b
0a
0h
0g
0f
0e
xl
xk
xj
xi
zp
zo
zn
zm
0t
0s
0r
0q
xx
xw
xv
xu
0|
0{
0z
0y
0}
x5!
x4!
x3!
x2!
x1!
x:!
x9!
x8!
x7!
x6!
0R
0Q
0P
0O
0S
0N
0M
1L
0,!
0-!
1.!
0'!
0"!
x/!
x0!
z?!
$end
#10
0"
0L
0E
#20
b1 K
1"
1L
1E
b1 +!
1x
0w
0v
0u
05!
14!
13!
12!
11!
0:!
09!
08!
07!
06!
10!
0/!
0[
1l
0k
0j
0i
0/
b1111001 Y!
1=
0<
0;
1:
19
18
17
0$!
#30
0"
0L
0E
1#
1M
#40
1"
1L
1E
#50
0#
0"
0M
0L
0E
#60
1"
1L
1E
#70
0"
0L
0E
#80
1"
1L
1E
#90
0"
0L
0E
#100
1"
1L
1E
#110
0"
0L
0E
#120
1"
1L
1E
#130
0"
0L
0E
#140
1"
1L
1E
#150
0"
0L
0E
#160
1"
1L
1E
#170
0"
0L
0E
#180
1"
1L
1E
#190
0"
0L
0E
#200
1"
1L
1E
#210
0"
0L
0E
#220
1"
1L
1E
#230
0"
0L
0E
#240
1"
1L
1E
#250
b10 K
1$
1&
0"
1S
1N
0L
0E
1F
b1 W!
#260
1"
1L
1E
b1 V!
1t
b1111001 Z!
b100 W!
0N!
1P!
1D
1A
1@
1?
1V
0X
#270
0"
0L
0E
#280
1"
1L
1E
b1 !!
b100 V!
0t
1r
1]
1H
b11001 Z!
bx1xx W!
0L!
0P!
1T!
0?
0>
0V
1Y
0W
#290
0"
0L
0E
#300
1"
1L
1E
bx1xx V!
xt
xs
xq
b1111111 Z!
b0 W!
xO!
xM!
xS!
xQ!
xR!
xT!
xU!
1C
1B
1?
1>
xU
xT
x)
x'
x(
xY
x*
#310
0"
0L
0E
#320
1"
1L
1E
b0 V!
0t
0s
0r
0q
b1000000 Z!
b1 W!
1L!
1N!
0O!
0M!
0S!
0Q!
0R!
0T!
0U!
0D
0C
0B
0A
0@
0?
0U
0T
0)
0'
0(
0Y
0*
1W
1X
b0 !!
0]
0H
#330
0"
0L
0E
#340
1"
1L
1E
b1 V!
1t
b1111001 Z!
b100 W!
0N!
1P!
1D
1A
1@
1?
1V
0X
#350
0$
0"
0N
0L
0E
0F
#360
1"
1L
1E
b1 !!
b100 V!
0t
1r
1]
1H
b11001 Z!
bx1xx W!
0L!
0P!
1T!
0?
0>
0V
1Y
0W
#370
0"
0L
0E
#380
1"
1L
1E
bx1xx V!
xt
xs
xq
b1111111 Z!
b0 W!
xO!
xM!
xS!
xQ!
xR!
xT!
xU!
1C
1B
1?
1>
xU
xT
x)
x'
x(
xY
x*
#390
0"
0L
0E
#400
1"
1L
1E
b0 V!
0t
0s
0r
0q
b1000000 Z!
1L!
1N!
0O!
0M!
0S!
0Q!
0R!
0T!
0U!
0D
0C
0B
0A
0@
0?
0U
0T
0)
0'
0(
0Y
0*
1W
1X
b0 !!
0]
0H
#410
0"
0L
0E
#420
1"
1L
1E
#430
0"
0L
0E
#440
1"
1L
1E
#450
0"
0L
0E
#460
1"
1L
1E
#470
0"
0L
0E
#480
1"
1L
1E
#490
0"
0L
0E
#500
1"
1L
1E
#510
0"
0L
0E
#520
1"
1L
1E
#530
0"
0L
0E
#540
1"
1L
1E
#550
b11 K
b1 %
0"
1R
1}
1G
0L
0E
#560
1"
1L
1E
1#!
1\
b0 @!
0A!
0B!
0_
0`
0I
0J
#570
0"
0L
0E
#580
1"
1L
1E
1$!
0\
#590
0"
0L
0E
#600
1"
1L
1E
#610
b0 %
0"
0R
0}
0G
0L
0E
#620
1"
1L
1E
0#!
#630
0"
0L
0E
#640
1"
1L
1E
0$!
#650
0"
0L
0E
#660
1"
1L
1E
#670
0"
0L
0E
#680
1"
1L
1E
#690
0"
0L
0E
#700
1"
1L
1E
#710
0"
0L
0E
#720
1"
1L
1E
#730
0"
0L
0E
#740
1"
1L
1E
#750
0"
0L
0E
#760
1"
1L
1E
#770
0"
0L
0E
#780
1"
1L
1E
#790
0"
0L
0E
#800
1"
1L
1E
#810
b100 K
b10 %
0"
1Q
1}
1G
0L
0E
#820
1"
1L
1E
1#!
1\
#830
0"
0L
0E
#840
1"
1L
1E
1$!
0\
#850
0"
0L
0E
#860
1"
1L
1E
#870
b0 %
0"
0Q
0}
0G
0L
0E
#880
1"
1L
1E
0#!
#890
0"
0L
0E
#900
1"
1L
1E
0$!
#910
0"
0L
0E
#920
1"
1L
1E
#930
0"
0L
0E
#940
1"
1L
1E
#950
0"
0L
0E
#960
1"
1L
1E
#970
0"
0L
0E
#980
1"
1L
1E
#990
0"
0L
0E
#1000
1"
1L
1E
#1010
0"
0L
0E
#1020
1"
1L
1E
#1030
0"
0L
0E
#1040
1"
1L
1E
#1050
0"
0L
0E
#1060
1"
1L
1E
#1070
b101 K
b100 %
0"
1P
1}
1G
0L
0E
#1080
1"
1L
1E
1#!
1\
#1090
0"
0L
0E
#1100
1"
1L
1E
1$!
0\
#1110
0"
0L
0E
#1120
1"
1L
1E
#1130
b0 %
0"
0P
0}
0G
0L
0E
#1140
1"
1L
1E
0#!
#1150
0"
0L
0E
#1160
1"
1L
1E
0$!
#1170
0"
0L
0E
#1180
1"
1L
1E
#1190
0"
0L
0E
#1200
1"
1L
1E
#1210
0"
0L
0E
#1220
1"
1L
1E
#1230
0"
0L
0E
#1240
1"
1L
1E
#1250
0"
0L
0E
#1260
1"
1L
1E
#1270
0"
0L
0E
#1280
1"
1L
1E
#1290
0"
0L
0E
#1300
1"
1L
1E
#1310
0"
0L
0E
#1320
1"
1L
1E
#1330
b110 K
b1000 %
0"
1O
1}
1G
0L
0E
#1340
1"
1L
1E
1#!
1\
#1350
0"
0L
0E
#1360
1"
1L
1E
1$!
0\
#1370
0"
0L
0E
#1380
1"
1L
1E
#1390
b0 %
0"
0O
0}
0G
0L
0E
#1400
1"
1L
1E
0#!
#1410
0"
0L
0E
#1420
1"
1L
1E
0$!
#1430
0"
0L
0E
#1440
1"
1L
1E
#1450
0"
0L
0E
#1460
1"
1L
1E
#1470
0"
0L
0E
#1480
1"
1L
1E
#1490
0"
0L
0E
#1500
1"
1L
1E
#1510
0"
0L
0E
#1520
1"
1L
1E
#1530
0"
0L
0E
#1540
1"
1L
1E
#1550
0"
0L
0E
#1560
1"
1L
1E
#1570
0"
0L
0E
#1580
1"
1L
1E
#1590
b111 K
b100 %
0"
1P
1}
1G
0L
0E
#1600
1"
1L
1E
1#!
1\
#1610
0"
0L
0E
#1620
1"
1L
1E
1$!
0\
#1630
0"
0L
0E
#1640
1"
1L
1E
#1650
b0 %
0"
0P
0}
0G
0L
0E
#1660
1"
1L
1E
0#!
#1670
0"
0L
0E
#1680
1"
1L
1E
0$!
#1690
0"
0L
0E
#1700
1"
1L
1E
#1710
0"
0L
0E
#1720
1"
1L
1E
#1730
0"
0L
0E
#1740
1"
1L
1E
#1750
0"
0L
0E
#1760
1"
1L
1E
#1770
0"
0L
0E
#1780
1"
1L
1E
#1790
0"
0L
0E
#1800
1"
1L
1E
#1810
0"
0L
0E
#1820
1"
1L
1E
#1830
0"
0L
0E
#1840
1"
1L
1E
#1850
b1000 K
b10 %
0"
1Q
1}
1G
0L
0E
#1860
1"
1L
1E
1#!
1\
#1870
0"
0L
0E
#1880
1"
1L
1E
1$!
0\
#1890
0"
0L
0E
#1900
1"
1L
1E
#1910
b0 %
0"
0Q
0}
0G
0L
0E
#1920
1"
1L
1E
0#!
#1930
0"
0L
0E
#1940
1"
1L
1E
0$!
#1950
0"
0L
0E
#1960
1"
1L
1E
#1970
0"
0L
0E
#1980
1"
1L
1E
#1990
0"
0L
0E
#2000
1"
1L
1E
#2010
0"
0L
0E
#2020
1"
1L
1E
#2030
0"
0L
0E
#2040
1"
1L
1E
#2050
0"
0L
0E
#2060
1"
1L
1E
#2070
0"
0L
0E
#2080
1"
1L
1E
#2090
0"
0L
0E
#2100
1"
1L
1E
#2110
b1001 K
b1 %
0"
1R
1}
1G
0L
0E
#2120
1"
1L
1E
1#!
1\
#2130
0"
0L
0E
#2140
1"
1L
1E
1$!
0\
#2150
0"
0L
0E
#2160
1"
1L
1E
#2170
b0 %
0"
0R
0}
0G
0L
0E
#2180
1"
1L
1E
0#!
#2190
0"
0L
0E
#2200
1"
1L
1E
0$!
#2210
0"
0L
0E
#2220
1"
1L
1E
#2230
0"
0L
0E
#2240
1"
1L
1E
#2250
0"
0L
0E
#2260
1"
1L
1E
#2270
0"
0L
0E
#2280
1"
1L
1E
#2290
0"
0L
0E
#2300
1"
1L
1E
#2310
0"
0L
0E
#2320
1"
1L
1E
#2330
0"
0L
0E
#2340
1"
1L
1E
#2350
0"
0L
0E
#2360
1"
1L
1E
#2370
b1010 K
b1 %
0"
1R
1}
1G
0L
0E
#2380
1"
1L
1E
1#!
1\
#2390
0"
0L
0E
#2400
1"
1L
1E
1$!
0\
#2410
0"
0L
0E
#2420
1"
1L
1E
#2430
b0 %
0"
0R
0}
0G
0L
0E
#2440
1"
1L
1E
0#!
#2450
0"
0L
0E
#2460
1"
1L
1E
0$!
#2470
0"
0L
0E
#2480
1"
1L
1E
#2490
0"
0L
0E
#2500
1"
1L
1E
#2510
0"
0L
0E
#2520
1"
1L
1E
#2530
0"
0L
0E
#2540
1"
1L
1E
#2550
0"
0L
0E
#2560
1"
1L
1E
#2570
0"
0L
0E
#2580
1"
1L
1E
#2590
0"
0L
0E
#2600
1"
1L
1E
#2610
0"
0L
0E
#2620
1"
1L
1E
#2630
b1011 K
b1000 %
0"
1O
1}
1G
0L
0E
#2640
1"
1L
1E
1#!
1\
#2650
0"
0L
0E
#2660
1"
1L
1E
1$!
0\
#2670
0"
0L
0E
#2680
1"
1L
1E
#2690
b0 %
0"
0O
0}
0G
0L
0E
#2700
1"
1L
1E
0#!
#2710
0"
0L
0E
#2720
1"
1L
1E
0$!
#2730
0"
0L
0E
#2740
1"
1L
1E
#2750
0"
0L
0E
#2760
1"
1L
1E
#2770
0"
0L
0E
#2780
1"
1L
1E
#2790
0"
0L
0E
#2800
1"
1L
1E
#2810
0"
0L
0E
#2820
1"
1L
1E
#2830
0"
0L
0E
#2840
1"
1L
1E
#2850
0"
0L
0E
#2860
1"
1L
1E
#2870
0"
0L
0E
#2880
1"
1L
1E
#2890
b1101 K
1$
0"
1N
0L
0E
1F
b1 W!
#2900
1"
1L
1E
b1 V!
1t
b1111001 Z!
b100 W!
0N!
1P!
1D
1A
1@
1?
1V
0X
#2910
0"
0L
0E
#2920
1"
1L
1E
b1 !!
b100 V!
0t
1r
1]
1H
b11001 Z!
0L!
0P!
1T!
0?
0>
0V
1Y
0W
#2930
0"
0L
0E
#2940
1"
1L
1E
b1 @!
#2950
0"
0L
0E
#2960
1"
1L
1E
b10 @!
#2970
0"
0L
0E
#2980
1"
1L
1E
b11 @!
#2990
0$
0"
0N
0L
0E
0F
#3000
1"
1L
1E
b100 @!
#3010
0"
0L
0E
#3020
1"
1L
1E
b101 @!
#3030
0"
0L
0E
#3040
1"
1L
1E
b110 @!
#3050
0"
0L
0E
#3060
1"
1L
1E
b111 @!
#3070
0"
0L
0E
#3080
1"
1L
1E
b1000 @!
#3090
0"
0L
0E
#3100
1"
1L
1E
b1001 @!
#3110
0"
0L
0E
#3120
1"
1L
1E
b1010 @!
#3130
0"
0L
0E
#3140
1"
1L
1E
b1011 @!
#3150
0"
0L
0E
#3160
1"
1L
1E
b1100 @!
#3170
0"
0L
0E
#3180
1"
1L
1E
b1101 @!
#3190
b1110 K
b1 %
0"
1R
1}
1G
0L
0E
#3200
1"
1L
1E
1#!
b1110 @!
1\
b101 W!
b0 @!
#3210
0"
0L
0E
#3220
1"
1L
1E
1$!
b101 V!
0\
1t
b10010 Z!
b110 W!
1O!
0T!
0D
1C
0A
1U
0Y
#3230
0"
0L
0E
#3240
1"
1L
1E
b1 <!
b110 V!
1d
1.
15!
1:!
19!
18!
17!
16!
00!
0t
1s
1[
1/
b10 Z!
b111 W!
0O!
0@
0U
#3250
b0 %
0"
0R
0}
0G
0L
0E
#3260
1"
1L
1E
0#!
b111 V!
1t
b1111000 Z!
b100 W!
1M!
0C
1A
1@
1?
1>
1T
#3270
0"
0L
0E
#3280
1"
1L
1E
0$!
b1 (!
b100 V!
1|
1h
0t
0s
b11001 Z!
b1111001 X!
0M!
1T!
16
13
12
11
1D
0?
0>
0T
1Y
#3290
0"
0L
0E
#3300
1"
1L
1E
b10 +!
0x
1w
05!
0:!
09!
08!
07!
06!
10!
0[
0l
1k
0/
b100100 Y!
0=
1;
0:
09
07
b1 @!
#3310
0"
0L
0E
#3320
1"
1L
1E
b10 @!
#3330
0"
0L
0E
#3340
1"
1L
1E
b11 @!
#3350
0"
0L
0E
#3360
1"
1L
1E
b100 @!
#3370
0"
0L
0E
#3380
1"
1L
1E
b101 @!
#3390
0"
0L
0E
#3400
1"
1L
1E
b110 @!
#3410
0"
0L
0E
#3420
1"
1L
1E
b111 @!
#3430
0"
0L
0E
#3440
1"
1L
1E
b1000 @!
#3450
b1111 K
b10 %
0"
1Q
1}
1G
0L
0E
#3460
1"
1L
1E
1#!
b1001 @!
1\
b101 W!
b0 @!
#3470
0"
0L
0E
#3480
1"
1L
1E
1$!
b101 V!
0\
1t
b10010 Z!
b110 W!
1O!
0T!
0D
1C
0A
1U
0Y
#3490
0"
0L
0E
#3500
1"
1L
1E
b10 <!
b110 V!
0d
1c
0.
1-
15!
1:!
19!
18!
17!
16!
00!
0t
1s
1[
1/
b10 Z!
b111 W!
0O!
0@
0U
#3510
b0 %
0"
0Q
0}
0G
0L
0E
#3520
1"
1L
1E
0#!
b111 V!
1t
b1111000 Z!
b100 W!
1M!
0C
1A
1@
1?
1>
1T
#3530
0"
0L
0E
#3540
1"
1L
1E
0$!
b10 (!
b100 V!
0|
1{
0h
1g
0t
0s
b11001 Z!
b100100 X!
0M!
1T!
06
14
03
02
00
1D
0?
0>
0T
1Y
#3550
0"
0L
0E
#3560
1"
1L
1E
b100 +!
0w
1v
04!
09!
08!
07!
06!
10!
0[
0k
1j
0/
b11001 Y!
1=
0;
1:
19
08
b1 @!
#3570
0"
0L
0E
#3580
1"
1L
1E
b10 @!
#3590
0"
0L
0E
#3600
1"
1L
1E
b11 @!
#3610
0"
0L
0E
#3620
1"
1L
1E
b100 @!
#3630
0"
0L
0E
#3640
1"
1L
1E
b101 @!
#3650
0"
0L
0E
#3660
1"
1L
1E
b110 @!
#3670
0"
0L
0E
#3680
1"
1L
1E
b111 @!
#3690
0"
0L
0E
#3700
1"
1L
1E
b1000 @!
#3710
b10000 K
b100 %
0"
1P
1}
1G
0L
0E
#3720
1"
1L
1E
1#!
b1001 @!
1\
b101 W!
b0 @!
#3730
0"
0L
0E
#3740
1"
1L
1E
1$!
b101 V!
0\
1t
b10010 Z!
b110 W!
1O!
0T!
0D
1C
0A
1U
0Y
#3750
0"
0L
0E
#3760
1"
1L
1E
b100 <!
b110 V!
0c
1b
0-
1,
14!
19!
18!
17!
16!
00!
0t
1s
1[
1/
b10 Z!
b111 W!
0O!
0@
0U
#3770
b0 %
0"
0P
0}
0G
0L
0E
#3780
1"
1L
1E
0#!
b111 V!
1t
b1111000 Z!
b100 W!
1M!
0C
1A
1@
1?
1>
1T
#3790
0"
0L
0E
#3800
1"
1L
1E
0$!
b11 (!
b100 V!
1|
1h
0t
0s
b11001 Z!
b110000 X!
0M!
1T!
04
12
1D
0?
0>
0T
1Y
#3810
0"
0L
0E
#3820
1"
1L
1E
b1000 +!
0v
1u
03!
08!
07!
06!
10!
0[
0j
1i
0/
b0 Y!
0=
0:
09
b1 @!
#3830
0"
0L
0E
#3840
1"
1L
1E
b10 @!
#3850
0"
0L
0E
#3860
1"
1L
1E
b11 @!
#3870
0"
0L
0E
#3880
1"
1L
1E
b100 @!
#3890
0"
0L
0E
#3900
1"
1L
1E
b101 @!
#3910
0"
0L
0E
#3920
1"
1L
1E
b110 @!
#3930
0"
0L
0E
#3940
1"
1L
1E
b111 @!
#3950
0"
0L
0E
#3960
1"
1L
1E
b1000 @!
#3970
b10001 K
b1000 %
0"
1O
1}
1G
0L
0E
#3980
1"
1L
1E
1#!
b1001 @!
1\
b101 W!
b0 @!
#3990
0"
0L
0E
#4000
1"
1L
1E
1$!
b101 V!
0\
1t
b10010 Z!
b110 W!
1O!
0T!
0D
1C
0A
1U
0Y
#4010
0"
0L
0E
#4020
1"
1L
1E
b1000 <!
b110 V!
0b
1a
0,
1+
13!
18!
17!
16!
00!
0t
1s
1[
1/
b10 Z!
b111 W!
0O!
0@
0U
#4030
b0 %
0"
0O
0}
0G
0L
0E
#4040
1"
1L
1E
0#!
b111 V!
1t
b1111000 Z!
b100 W!
1M!
0C
1A
1@
1?
1>
1T
#4050
0"
0L
0E
#4060
1"
1L
1E
0$!
b100 (!
b100 V!
0|
0{
1z
0h
0g
1f
0t
0s
b11001 Z!
b11001 X!
0M!
1T!
16
13
01
1D
0?
0>
0T
1Y
#4070
0"
0L
0E
#4080
1"
1L
1E
b100 +!
1v
0u
03!
02!
01!
08!
1/!
0[
1j
0i
0/
b11001 Y!
1=
1:
19
b1 @!
#4090
0"
0L
0E
#4100
1"
1L
1E
b10 @!
#4110
0"
0L
0E
#4120
1"
1L
1E
b11 @!
#4130
0"
0L
0E
#4140
1"
1L
1E
b100 @!
#4150
0"
0L
0E
#4160
1"
1L
1E
b101 @!
#4170
0"
0L
0E
#4180
1"
1L
1E
b110 @!
#4190
0"
0L
0E
#4200
1"
1L
1E
b111 @!
#4210
0"
0L
0E
#4220
1"
1L
1E
b1000 @!
#4230
b10010 K
b100 %
0"
1P
1}
1G
0L
0E
#4240
1"
1L
1E
1#!
b1001 @!
1\
b101 W!
b0 @!
#4250
0"
0L
0E
#4260
1"
1L
1E
1$!
b101 V!
0\
1t
b10010 Z!
b110 W!
1O!
0T!
0D
1C
0A
1U
0Y
#4270
0"
0L
0E
#4280
1"
1L
1E
b100 <!
b110 V!
1b
0a
1,
0+
13!
12!
11!
18!
0/!
0t
1s
1[
1/
b10 Z!
b111 W!
0O!
0@
0U
#4290
b0 %
0"
0P
0}
0G
0L
0E
#4300
1"
1L
1E
0#!
b111 V!
1t
b1111000 Z!
b100 W!
1M!
0C
1A
1@
1?
1>
1T
#4310
0"
0L
0E
#4320
1"
1L
1E
0$!
b101 (!
b100 V!
1|
1h
0t
0s
b11001 Z!
b10010 X!
0M!
1T!
06
15
03
1D
0?
0>
0T
1Y
#4330
0"
0L
0E
