waveforms_debounce.vcd
$date
	Tue Apr  2 22:50:13 2024
$end
$version
	ModelSim Version 2020.1
$end
$timescale
	100us
$end

$scope module debounce_tb $end

$scope module UUT $end
$var parameter 32 ! DEBOUNCE_TIME $end
$var parameter 2 " WAIT_PRESS $end
$var parameter 2 # COUNT_PRESSED $end
$var parameter 2 $ WAIT_UNPRESS $end
$var parameter 2 % COUNT_UNPRESS $end
$var wire 1 & clk $end
$var wire 1 ' rst $end
$var wire 1 ( real_button $end
$var wire 1 ) debounced_button $end
$var reg 2 * Eprox [1:0] $end
$var reg 2 + Eatual [1:0] $end
$var wire 1 , timer_done $end
$var wire 1 - timer_count $end
$var wire 1 . timer_reset $end

$scope module timer $end
$var parameter 32 / M $end
$var wire 1 & clock $end
$var wire 1 0 zera_as $end
$var wire 1 . zera_s $end
$var wire 1 1 conta $end
$var wire 1 2 load $end
$var wire 1 3 data [6] $end
$var wire 1 4 data [5] $end
$var wire 1 5 data [4] $end
$var wire 1 6 data [3] $end
$var wire 1 7 data [2] $end
$var wire 1 8 data [1] $end
$var wire 1 9 data [0] $end
$var reg 7 : Q [6:0] $end
$var reg 1 ; fim $end
$var reg 1 < meio $end
$upscope $end
$upscope $end
$upscope $end
$enddefinitions $end
#0
$dumpvars
bx *
bx +
bx :
x;
x<
b0 "
b1 #
b10 $
b11 %
b1100100 /
b1100100 !
x)
x,
x-
x.
0(
0'
1&
02
11
00
z9
z8
z7
z6
z5
z4
z3
$end
#1
0&
1'
b0 +
0)
1.
0-
b0 *
#2
1&
b0 :
0;
0<
0,
#3
0'
1(
0&
b1 *
#4
1&
b1 +
0.
1-
#5
0&
#6
1&
b1 :
#7
0(
0&
b0 *
#8
1&
b0 +
b10 :
1.
0-
#9
1(
0&
b1 *
#10
1&
b1 +
b0 :
0.
1-
#11
0(
0&
b0 *
#12
1&
b0 +
b1 :
1.
0-
#13
1(
0&
b1 *
#14
1&
b1 +
b0 :
0.
1-
#15
0&
#16
1&
b1 :
#17
0&
#18
1&
b10 :
#19
0&
#20
1&
b11 :
#21
0&
#22
1&
b100 :
#23
0(
0&
b0 *
#24
1&
b0 +
b101 :
1.
0-
#25
1(
0&
b1 *
#26
1&
b1 +
b0 :
0.
1-
#27
0&
#28
1&
b1 :
#29
0&
#30
1&
b10 :
#31
0&
#32
1&
b11 :
#33
0&
#34
1&
b100 :
#35
0&
#36
1&
b101 :
#37
0&
#38
1&
b110 :
#39
0&
#40
1&
b111 :
#41
0&
#42
1&
b1000 :
#43
0&
#44
1&
b1001 :
#45
0&
#46
1&
b1010 :
#47
0&
#48
1&
b1011 :
#49
0&
#50
1&
b1100 :
#51
0&
#52
1&
b1101 :
#53
0&
#54
1&
b1110 :
#55
0&
#56
1&
b1111 :
#57
0&
#58
1&
b10000 :
#59
0&
#60
1&
b10001 :
#61
0&
#62
1&
b10010 :
#63
0&
#64
1&
b10011 :
#65
0&
#66
1&
b10100 :
#67
0&
#68
1&
b10101 :
#69
0&
#70
1&
b10110 :
#71
0&
#72
1&
b10111 :
#73
0&
#74
1&
b11000 :
#75
0&
#76
1&
b11001 :
#77
0&
#78
1&
b11010 :
#79
0&
#80
1&
b11011 :
#81
0&
#82
1&
b11100 :
#83
0&
#84
1&
b11101 :
#85
0&
#86
1&
b11110 :
#87
0&
#88
1&
b11111 :
#89
0&
#90
1&
b100000 :
#91
0&
#92
1&
b100001 :
#93
0&
#94
1&
b100010 :
#95
0&
#96
1&
b100011 :
#97
0&
#98
1&
b100100 :
#99
0&
#100
1&
b100101 :
#101
0&
#102
1&
b100110 :
#103
0&
#104
1&
b100111 :
#105
0&
#106
1&
b101000 :
#107
0&
#108
1&
b101001 :
#109
0&
#110
1&
b101010 :
#111
0&
#112
1&
b101011 :
#113
0&
#114
1&
b101100 :
#115
0&
#116
1&
b101101 :
#117
0&
#118
1&
b101110 :
#119
0&
#120
1&
b101111 :
#121
0&
#122
1&
b110000 :
#123
0&
#124
1&
b110001 :
1<
#125
0&
#126
1&
b110010 :
0<
#127
0&
#128
1&
b110011 :
#129
0&
#130
1&
b110100 :
#131
0&
#132
1&
b110101 :
#133
0&
#134
1&
b110110 :
#135
0&
#136
1&
b110111 :
#137
0&
#138
1&
b111000 :
#139
0&
#140
1&
b111001 :
#141
0&
#142
1&
b111010 :
#143
0&
#144
1&
b111011 :
#145
0&
#146
1&
b111100 :
#147
0&
#148
1&
b111101 :
#149
0&
#150
1&
b111110 :
#151
0&
#152
1&
b111111 :
#153
0&
#154
1&
b1000000 :
#155
0&
#156
1&
b1000001 :
#157
0&
#158
1&
b1000010 :
#159
0&
#160
1&
b1000011 :
#161
0&
#162
1&
b1000100 :
#163
0&
#164
1&
b1000101 :
#165
0&
#166
1&
b1000110 :
#167
0&
#168
1&
b1000111 :
#169
0&
#170
1&
b1001000 :
#171
0&
#172
1&
b1001001 :
#173
0&
#174
1&
b1001010 :
#175
0&
#176
1&
b1001011 :
#177
0&
#178
1&
b1001100 :
#179
0&
#180
1&
b1001101 :
#181
0&
#182
1&
b1001110 :
#183
0&
#184
1&
b1001111 :
#185
0&
#186
1&
b1010000 :
#187
0&
#188
1&
b1010001 :
#189
0&
#190
1&
b1010010 :
#191
0&
#192
1&
b1010011 :
#193
0&
#194
1&
b1010100 :
#195
0&
#196
1&
b1010101 :
#197
0&
#198
1&
b1010110 :
#199
0&
#200
1&
b1010111 :
#201
0&
#202
1&
b1011000 :
#203
0&
#204
1&
b1011001 :
#205
0&
#206
1&
b1011010 :
#207
0&
#208
1&
b1011011 :
#209
0&
#210
1&
b1011100 :
#211
0&
#212
1&
b1011101 :
#213
0&
#214
1&
b1011110 :
#215
0&
#216
1&
b1011111 :
#217
0&
#218
1&
b1100000 :
#219
0&
#220
1&
b1100001 :
#221
0&
#222
1&
b1100010 :
#223
0&
#224
1&
b1100011 :
1;
1,
b10 *
#225
0&
#226
1&
b10 +
b0 :
1)
1.
0-
0;
0,
