waveforms.vcd
$date
	Sun Feb  4 17:35:24 2024
$end
$version
	ModelSim Version 2020.1
$end
$timescale
	1ns
$end

$scope module circuito_exp5_tb $end
$var parameter 32 ! clockPeriod $end
$var reg 1 " clock_in $end
$var reg 1 # reset_in $end
$var reg 1 $ iniciar_in $end
$var reg 4 % chaves_in [3:0] $end
$var reg 1 & nivel_in $end
$var wire 1 ' acertou_out $end
$var wire 1 ( errou_out $end
$var wire 1 ) pronto_out $end
$var wire 1 * leds_out [3] $end
$var wire 1 + leds_out [2] $end
$var wire 1 , leds_out [1] $end
$var wire 1 - leds_out [0] $end
$var wire 1 . db_igual_out $end
$var wire 1 / db_contagem_out [6] $end
$var wire 1 0 db_contagem_out [5] $end
$var wire 1 1 db_contagem_out [4] $end
$var wire 1 2 db_contagem_out [3] $end
$var wire 1 3 db_contagem_out [2] $end
$var wire 1 4 db_contagem_out [1] $end
$var wire 1 5 db_contagem_out [0] $end
$var wire 1 6 db_memoria_out [6] $end
$var wire 1 7 db_memoria_out [5] $end
$var wire 1 8 db_memoria_out [4] $end
$var wire 1 9 db_memoria_out [3] $end
$var wire 1 : db_memoria_out [2] $end
$var wire 1 ; db_memoria_out [1] $end
$var wire 1 < db_memoria_out [0] $end
$var wire 1 = db_estado_out [6] $end
$var wire 1 > db_estado_out [5] $end
$var wire 1 ? db_estado_out [4] $end
$var wire 1 @ db_estado_out [3] $end
$var wire 1 A db_estado_out [2] $end
$var wire 1 B db_estado_out [1] $end
$var wire 1 C db_estado_out [0] $end
$var wire 1 D db_clock_out $end
$var wire 1 E db_iniciar_out $end
$var wire 1 F db_tem_jogada_out $end
$var reg 32 G caso [31:0] $end

$scope module DUT $end
$var wire 1 H clock $end
$var wire 1 I reset $end
$var wire 1 J iniciar $end
$var wire 1 K chaves [3] $end
$var wire 1 L chaves [2] $end
$var wire 1 M chaves [1] $end
$var wire 1 N chaves [0] $end
$var wire 1 O nivel $end
$var wire 1 ' acertou $end
$var wire 1 ( errou $end
$var wire 1 ) pronto $end
$var wire 1 * leds [3] $end
$var wire 1 + leds [2] $end
$var wire 1 , leds [1] $end
$var wire 1 - leds [0] $end
$var wire 1 . db_igual $end
$var wire 1 / db_contagem [6] $end
$var wire 1 0 db_contagem [5] $end
$var wire 1 1 db_contagem [4] $end
$var wire 1 2 db_contagem [3] $end
$var wire 1 3 db_contagem [2] $end
$var wire 1 4 db_contagem [1] $end
$var wire 1 5 db_contagem [0] $end
$var wire 1 6 db_memoria [6] $end
$var wire 1 7 db_memoria [5] $end
$var wire 1 8 db_memoria [4] $end
$var wire 1 9 db_memoria [3] $end
$var wire 1 : db_memoria [2] $end
$var wire 1 ; db_memoria [1] $end
$var wire 1 < db_memoria [0] $end
$var wire 1 = db_estado [6] $end
$var wire 1 > db_estado [5] $end
$var wire 1 ? db_estado [4] $end
$var wire 1 @ db_estado [3] $end
$var wire 1 A db_estado [2] $end
$var wire 1 B db_estado [1] $end
$var wire 1 C db_estado [0] $end
$var wire 1 D db_clock $end
$var wire 1 E db_iniciar $end
$var wire 1 F db_tem_jogada $end
$var wire 1 P contaC $end
$var wire 1 Q registraR $end
$var wire 1 R registraN $end
$var wire 1 S zeraC $end
$var wire 1 T zeraR $end
$var wire 1 U fimC $end
$var wire 1 V igual $end
$var wire 1 W jogada_feita $end
$var wire 1 X nivel_reg $end
$var wire 1 Y meioC $end
$var wire 1 Z s_jogada [3] $end
$var wire 1 [ s_jogada [2] $end
$var wire 1 \ s_jogada [1] $end
$var wire 1 ] s_jogada [0] $end
$var wire 1 ^ s_db_contagem [3] $end
$var wire 1 _ s_db_contagem [2] $end
$var wire 1 ` s_db_contagem [1] $end
$var wire 1 a s_db_contagem [0] $end
$var wire 1 b s_db_memoria [3] $end
$var wire 1 c s_db_memoria [2] $end
$var wire 1 d s_db_memoria [1] $end
$var wire 1 e s_db_memoria [0] $end
$var wire 1 f s_db_jogada [3] $end
$var wire 1 g s_db_jogada [2] $end
$var wire 1 h s_db_jogada [1] $end
$var wire 1 i s_db_jogada [0] $end
$var wire 1 j s_db_estado [3] $end
$var wire 1 k s_db_estado [2] $end
$var wire 1 l s_db_estado [1] $end
$var wire 1 m s_db_estado [0] $end

$scope module exp5_fluxo_dados $end
$var wire 1 H clock $end
$var wire 1 K chaves [3] $end
$var wire 1 L chaves [2] $end
$var wire 1 M chaves [1] $end
$var wire 1 N chaves [0] $end
$var wire 1 O nivel $end
$var wire 1 T zeraR $end
$var wire 1 Q registraR $end
$var wire 1 S zeraC $end
$var wire 1 P contaC $end
$var wire 1 R registraN $end
$var wire 1 V igual $end
$var wire 1 W jogada_feita $end
$var wire 1 X nivel_reg $end
$var wire 1 U fimC $end
$var wire 1 Y meioC $end
$var wire 1 Z jogada [3] $end
$var wire 1 [ jogada [2] $end
$var wire 1 \ jogada [1] $end
$var wire 1 ] jogada [0] $end
$var wire 1 F db_tem_jogada $end
$var wire 1 b db_memoria [3] $end
$var wire 1 c db_memoria [2] $end
$var wire 1 d db_memoria [1] $end
$var wire 1 e db_memoria [0] $end
$var wire 1 ^ db_contagem [3] $end
$var wire 1 _ db_contagem [2] $end
$var wire 1 ` db_contagem [1] $end
$var wire 1 a db_contagem [0] $end
$var wire 1 n valor_memoria [3] $end
$var wire 1 o valor_memoria [2] $end
$var wire 1 p valor_memoria [1] $end
$var wire 1 q valor_memoria [0] $end
$var wire 1 r contagem [3] $end
$var wire 1 s contagem [2] $end
$var wire 1 t contagem [1] $end
$var wire 1 u contagem [0] $end
$var wire 1 v tem_jogada $end

$scope module reg_nivel $end
$var parameter 32 w SIZE $end
$var wire 1 H clock $end
$var wire 1 T clear $end
$var wire 1 R enable $end
$var wire 1 O D [0] $end
$var wire 1 X Q [0] $end
$var reg 1 x IQ [0:0] $end
$upscope $end

$scope module edge_detector $end
$var wire 1 H clock $end
$var wire 1 y reset $end
$var wire 1 v sinal $end
$var wire 1 W pulso $end
$var reg 1 z reg0 $end
$var reg 1 { reg1 $end
$upscope $end

$scope module contador_m $end
$var parameter 32 | M $end
$var parameter 32 } N $end
$var wire 1 H clock $end
$var wire 1 S zera_as $end
$var wire 1 ~ zera_s $end
$var wire 1 P conta $end
$var reg 4 !! Q [3:0] $end
$var reg 1 "! fim $end
$var reg 1 #! meio $end
$upscope $end

$scope module sync_rom_16x4 $end
$var wire 1 H clock $end
$var wire 1 r address [3] $end
$var wire 1 s address [2] $end
$var wire 1 t address [1] $end
$var wire 1 u address [0] $end
$var reg 4 $! data_out [3:0] $end
$upscope $end

$scope module comparador_85 $end
$var wire 1 n A [3] $end
$var wire 1 o A [2] $end
$var wire 1 p A [1] $end
$var wire 1 q A [0] $end
$var wire 1 Z B [3] $end
$var wire 1 [ B [2] $end
$var wire 1 \ B [1] $end
$var wire 1 ] B [0] $end
$var wire 1 %! ALBi $end
$var wire 1 &! AGBi $end
$var wire 1 '! AEBi $end
$var wire 1 (! ALBo $end
$var wire 1 )! AGBo $end
$var wire 1 V AEBo $end
$var wire 1 *! CSL [4] $end
$var wire 1 +! CSL [3] $end
$var wire 1 ,! CSL [2] $end
$var wire 1 -! CSL [1] $end
$var wire 1 .! CSL [0] $end
$var wire 1 /! CSG [4] $end
$var wire 1 0! CSG [3] $end
$var wire 1 1! CSG [2] $end
$var wire 1 2! CSG [1] $end
$var wire 1 3! CSG [0] $end
$upscope $end

$scope module registrador_4 $end
$var parameter 32 4! SIZE $end
$var wire 1 H clock $end
$var wire 1 T clear $end
$var wire 1 Q enable $end
$var wire 1 K D [3] $end
$var wire 1 L D [2] $end
$var wire 1 M D [1] $end
$var wire 1 N D [0] $end
$var wire 1 Z Q [3] $end
$var wire 1 [ Q [2] $end
$var wire 1 \ Q [1] $end
$var wire 1 ] Q [0] $end
$var reg 4 5! IQ [3:0] $end
$upscope $end
$upscope $end

$scope module exp5_unidade_controle $end
$var parameter 4 6! inicial $end
$var parameter 4 7! inicializa_elementos $end
$var parameter 4 8! espera_jogada $end
$var parameter 4 9! registra $end
$var parameter 4 :! compara $end
$var parameter 4 ;! proximo $end
$var parameter 4 <! fim_acertos $end
$var parameter 4 =! fim_erro $end
$var wire 1 H clock $end
$var wire 1 I reset $end
$var wire 1 J iniciar $end
$var wire 1 U fim $end
$var wire 1 Y meio $end
$var wire 1 W jogada $end
$var wire 1 V igual $end
$var wire 1 X nivel $end
$var reg 1 >! zeraC $end
$var reg 1 ?! contaC $end
$var reg 1 @! zeraR $end
$var reg 1 A! registraR $end
$var reg 1 B! registraN $end
$var reg 1 C! acertou $end
$var reg 1 D! errou $end
$var reg 1 E! pronto $end
$var wire 1 j db_estado [3] $end
$var wire 1 k db_estado [2] $end
$var wire 1 l db_estado [1] $end
$var wire 1 m db_estado [0] $end
$var reg 4 F! Eatual [3:0] $end
$var reg 4 G! Eprox [3:0] $end
$upscope $end

$scope module HEX0 $end
$var wire 1 ^ hexa [3] $end
$var wire 1 _ hexa [2] $end
$var wire 1 ` hexa [1] $end
$var wire 1 a hexa [0] $end
$var reg 7 H! display [6:0] $end
$upscope $end

$scope module HEX1 $end
$var wire 1 b hexa [3] $end
$var wire 1 c hexa [2] $end
$var wire 1 d hexa [1] $end
$var wire 1 e hexa [0] $end
$var reg 7 I! display [6:0] $end
$upscope $end

$scope module HEX3 $end
$var wire 1 j hexa [3] $end
$var wire 1 k hexa [2] $end
$var wire 1 l hexa [1] $end
$var wire 1 m hexa [0] $end
$var reg 7 J! display [6:0] $end
$upscope $end
$upscope $end
$upscope $end
$enddefinitions $end
#0
$dumpvars
1"
0#
0$
b0 %
1&
b0 G
b0 x
0z
x{
b0 !!
0"!
0#!
bx $!
b0 5!
1>!
0?!
1@!
0A!
1B!
0C!
0D!
0E!
b0 F!
b0 G!
b1000000 H!
bx I!
b1000000 J!
b10100 !
b1 w
b10000 |
b100 }
b100 4!
b0 6!
b1 7!
b100 8!
b101 9!
b110 :!
b111 ;!
b1100 <!
b1110 =!
0'
0(
0)
0-
0,
0+
0*
x.
05
04
03
02
01
00
1/
x<
x;
x:
x9
x8
x7
x6
0C
0B
0A
0@
0?
0>
1=
1D
0E
0F
0P
0Q
1R
1S
1T
0U
xV
0W
0X
0Y
0]
0\
0[
0Z
0a
0`
0_
0^
xe
xd
xc
xb
zi
zh
zg
zf
0m
0l
0k
0j
xq
xp
xo
xn
0u
0t
0s
0r
0v
x.!
x-!
x,!
x+!
x*!
x3!
x2!
x1!
x0!
x/!
0N
0M
0L
0K
1O
0J
0I
1H
0%!
0&!
1'!
0~
0y
x(!
x)!
$end
#10
0"
0H
0D
#20
b1 G
1"
1H
1D
b1 $!
1q
0p
0o
0n
0.!
1-!
1,!
1+!
1*!
03!
02!
01!
00!
0/!
1)!
0(!
0V
1e
0d
0c
0b
0.
b1111001 I!
1<
0;
0:
19
18
17
16
0{
#30
0"
0H
0D
1#
1I
#40
1"
1H
1D
#50
0#
0"
0I
0H
0D
#60
1"
1H
1D
#70
0"
0H
0D
#80
1"
1H
1D
#90
0"
0H
0D
#100
1"
1H
1D
#110
0"
0H
0D
#120
1"
1H
1D
#130
0"
0H
0D
#140
1"
1H
1D
#150
0"
0H
0D
#160
1"
1H
1D
#170
0"
0H
0D
#180
1"
1H
1D
#190
0"
0H
0D
#200
1"
1H
1D
#210
0"
0H
0D
#220
1"
1H
1D
#230
0"
0H
0D
#240
1"
1H
1D
#250
b10 G
1$
0&
0"
0O
1J
0H
0D
1E
b1 G!
#260
1"
1H
1D
b1 F!
1m
b1111001 J!
b100 G!
0@!
1C
1@
1?
1>
0T
#270
0"
0H
0D
#280
1"
1H
1D
b100 F!
0m
1k
b11001 J!
0>!
0B!
0>
0=
0R
0S
#290
0"
0H
0D
#300
1"
1H
1D
#310
0"
0H
0D
#320
1"
1H
1D
#330
0"
0H
0D
#340
1"
1H
1D
#350
0$
0"
0J
0H
0D
0E
#360
1"
1H
1D
#370
0"
0H
0D
#380
1"
1H
1D
#390
0"
0H
0D
#400
1"
1H
1D
#410
0"
0H
0D
#420
1"
1H
1D
#430
0"
0H
0D
#440
1"
1H
1D
#450
0"
0H
0D
#460
1"
1H
1D
#470
0"
0H
0D
#480
1"
1H
1D
#490
0"
0H
0D
#500
1"
1H
1D
#510
0"
0H
0D
#520
1"
1H
1D
#530
0"
0H
0D
#540
1"
1H
1D
#550
b11 G
0"
0H
0D
b1 %
1N
1v
1F
#560
1"
1H
1D
1z
1W
b101 G!
#570
0"
0H
0D
#580
1"
1H
1D
1{
b101 F!
0W
1m
b10010 J!
b110 G!
1A!
0C
1B
0@
1Q
#590
0"
0H
0D
#600
1"
1H
1D
b1 5!
b110 F!
1]
1-
1.!
13!
12!
11!
10!
1/!
0)!
0m
1l
1V
1.
b10 J!
b111 G!
0A!
0?
0Q
#610
b0 %
0"
0N
0v
0F
0H
0D
#620
1"
1H
1D
0z
b111 F!
1m
b1111000 J!
b100 G!
1?!
0B
1@
1?
1>
1=
1P
#630
0"
0H
0D
#640
1"
1H
1D
0{
b1 !!
b100 F!
1u
1a
0m
0l
b11001 J!
b1111001 H!
0?!
15
12
11
10
1C
0>
0=
0P
#650
0"
0H
0D
#660
1"
1H
1D
b10 $!
0q
1p
0.!
03!
02!
01!
00!
0/!
1)!
0V
0e
1d
0.
b100100 I!
0<
1:
09
08
06
#670
0"
0H
0D
#680
1"
1H
1D
#690
0"
0H
0D
#700
1"
1H
1D
#710
0"
0H
0D
#720
1"
1H
1D
#730
0"
0H
0D
#740
1"
1H
1D
#750
0"
0H
0D
#760
1"
1H
1D
#770
0"
0H
0D
#780
1"
1H
1D
#790
0"
0H
0D
#800
1"
1H
1D
#810
b100 G
0"
0H
0D
b10 %
1M
1v
1F
#820
1"
1H
1D
1z
1W
b101 G!
#830
0"
0H
0D
#840
1"
1H
1D
1{
b101 F!
0W
1m
b10010 J!
b110 G!
1A!
0C
1B
0@
1Q
#850
0"
0H
0D
#860
1"
1H
1D
b10 5!
b110 F!
0]
1\
0-
1,
1.!
13!
12!
11!
10!
1/!
0)!
0m
1l
1V
1.
b10 J!
b111 G!
0A!
0?
0Q
#870
b0 %
0"
0M
0v
0F
0H
0D
#880
1"
1H
1D
0z
b111 F!
1m
b1111000 J!
b100 G!
1?!
0B
1@
1?
1>
1=
1P
#890
0"
0H
0D
#900
1"
1H
1D
0{
b10 !!
b100 F!
0u
1t
0a
1`
0m
0l
b11001 J!
b100100 H!
0?!
05
13
02
01
0/
1C
0>
0=
0P
#910
0"
0H
0D
#920
1"
1H
1D
b100 $!
0p
1o
0-!
02!
01!
00!
0/!
1)!
0V
0d
1c
0.
b11001 I!
1<
0:
19
18
07
#930
0"
0H
0D
#940
1"
1H
1D
#950
0"
0H
0D
#960
1"
1H
1D
#970
0"
0H
0D
#980
1"
1H
1D
#990
0"
0H
0D
#1000
1"
1H
1D
#1010
0"
0H
0D
#1020
1"
1H
1D
#1030
0"
0H
0D
#1040
1"
1H
1D
#1050
0"
0H
0D
#1060
1"
1H
1D
#1070
b101 G
0"
0H
0D
b100 %
1L
1v
1F
#1080
1"
1H
1D
1z
1W
b101 G!
#1090
0"
0H
0D
#1100
1"
1H
1D
1{
b101 F!
0W
1m
b10010 J!
b110 G!
1A!
0C
1B
0@
1Q
#1110
0"
0H
0D
#1120
1"
1H
1D
b100 5!
b110 F!
0\
1[
0,
1+
1-!
12!
11!
10!
1/!
0)!
0m
1l
1V
1.
b10 J!
b111 G!
0A!
0?
0Q
#1130
b0 %
0"
0L
0v
0F
0H
0D
#1140
1"
1H
1D
0z
b111 F!
1m
b1111000 J!
b100 G!
1?!
0B
1@
1?
1>
1=
1P
#1150
0"
0H
0D
#1160
1"
1H
1D
0{
b11 !!
b100 F!
1u
1a
0m
0l
b11001 J!
b110000 H!
0?!
03
11
1C
0>
0=
0P
#1170
0"
0H
0D
#1180
1"
1H
1D
b1000 $!
0o
1n
0,!
01!
00!
0/!
1)!
0V
0c
1b
0.
b0 I!
0<
09
08
#1190
0"
0H
0D
#1200
1"
1H
1D
#1210
0"
0H
0D
#1220
1"
1H
1D
#1230
0"
0H
0D
#1240
1"
1H
1D
#1250
0"
0H
0D
#1260
1"
1H
1D
#1270
0"
0H
0D
#1280
1"
1H
1D
#1290
0"
0H
0D
#1300
1"
1H
1D
#1310
0"
0H
0D
#1320
1"
1H
1D
#1330
b110 G
0"
0H
0D
b1000 %
1K
1v
1F
#1340
1"
1H
1D
1z
1W
b101 G!
#1350
0"
0H
0D
#1360
1"
1H
1D
1{
b101 F!
0W
1m
b10010 J!
b110 G!
1A!
0C
1B
0@
1Q
#1370
0"
0H
0D
#1380
1"
1H
1D
b1000 5!
b110 F!
0[
1Z
0+
1*
1,!
11!
10!
1/!
0)!
0m
1l
1V
1.
b10 J!
b111 G!
0A!
0?
0Q
#1390
b0 %
0"
0K
0v
0F
0H
0D
#1400
1"
1H
1D
0z
b111 F!
1m
b1111000 J!
b100 G!
1?!
0B
1@
1?
1>
1=
1P
#1410
0"
0H
0D
#1420
1"
1H
1D
0{
b100 !!
b100 F!
0u
0t
1s
0a
0`
1_
0m
0l
b11001 J!
b11001 H!
0?!
15
12
00
1C
0>
0=
0P
#1430
0"
0H
0D
#1440
1"
1H
1D
b100 $!
1o
0n
0,!
0+!
0*!
01!
1(!
0V
1c
0b
0.
b11001 I!
1<
19
18
#1450
0"
0H
0D
#1460
1"
1H
1D
#1470
0"
0H
0D
#1480
1"
1H
1D
#1490
0"
0H
0D
#1500
1"
1H
1D
#1510
0"
0H
0D
#1520
1"
1H
1D
#1530
0"
0H
0D
#1540
1"
1H
1D
#1550
0"
0H
0D
#1560
1"
1H
1D
#1570
0"
0H
0D
#1580
1"
1H
1D
#1590
b111 G
0"
0H
0D
b1 %
1N
1v
1F
#1600
1"
1H
1D
1z
1W
b101 G!
#1610
0"
0H
0D
#1620
1"
1H
1D
1{
b101 F!
0W
1m
b10010 J!
b110 G!
1A!
0C
1B
0@
1Q
#1630
0"
0H
0D
#1640
1"
1H
1D
b1 5!
b110 F!
1]
0Z
1-
0*
0.!
0-!
1,!
1+!
1*!
03!
00!
0/!
1)!
0(!
0m
1l
b10 J!
b1110 G!
0A!
0?
0Q
#1650
b0 %
0"
0N
0v
0F
0H
0D
#1660
1"
1H
1D
0z
b1110 F!
1j
b110 J!
1E!
1D!
1A
1)
1(
#1670
0"
0H
0D
#1680
1"
1H
1D
0{
#1690
0"
0H
0D
#1700
1"
1H
1D
#1710
0"
0H
0D
#1720
1"
1H
1D
#1730
0"
0H
0D
#1740
1"
1H
1D
#1750
0"
0H
0D
#1760
1"
1H
1D
#1770
0"
0H
0D
#1780
1"
1H
1D
#1790
0"
0H
0D
#1800
1"
1H
1D
#1810
0"
0H
0D
#1820
1"
1H
1D
#1830
0"
0H
0D
#1840
1"
1H
1D
#1850
b1000 G
0"
0H
0D
1#
1I
b0 F!
0l
0k
0j
b1000000 J!
b0 G!
1>!
1@!
0E!
0D!
1B!
0B
0A
1=
0)
0(
1R
1S
1T
b0 5!
b0 !!
0s
0]
0-
1.!
1-!
0,!
13!
0_
b1000000 H!
05
02
01
1/
#1860
1"
1H
1D
b1 $!
1q
0o
0.!
1,!
03!
02!
1e
0c
b1111001 I!
17
16
#1870
0#
0"
0I
0H
0D
#1880
1"
1H
1D
#1890
0"
0H
0D
#1900
1"
1H
1D
#1910
0"
0H
0D
#1920
1"
1H
1D
#1930
0"
0H
0D
#1940
1"
1H
1D
#1950
0"
0H
0D
#1960
1"
1H
1D
#1970
0"
0H
0D
#1980
1"
1H
1D
#1990
0"
0H
0D
#2000
1"
1H
1D
#2010
0"
0H
0D
#2020
1"
1H
1D
#2030
0"
0H
0D
#2040
1"
1H
1D
#2050
0"
0H
0D
#2060
1"
1H
1D
#2070
b1001 G
1$
0"
1J
0H
0D
1E
b1 G!
#2080
1"
1H
1D
b1 F!
1m
b1111001 J!
b100 G!
0@!
1C
1@
1?
1>
0T
#2090
0"
0H
0D
#2100
1"
1H
1D
b100 F!
0m
1k
b11001 J!
0>!
0B!
0>
0=
0R
0S
#2110
0"
0H
0D
#2120
1"
1H
1D
#2130
0"
0H
0D
#2140
1"
1H
1D
#2150
0"
0H
0D
#2160
1"
1H
1D
#2170
0$
0"
0J
0H
0D
0E
#2180
1"
1H
1D
#2190
0"
0H
0D
#2200
1"
1H
1D
#2210
0"
0H
0D
#2220
1"
1H
1D
#2230
0"
0H
0D
#2240
1"
1H
1D
#2250
0"
0H
0D
#2260
1"
1H
1D
#2270
0"
0H
0D
#2280
1"
1H
1D
#2290
0"
0H
0D
#2300
1"
1H
1D
#2310
0"
0H
0D
#2320
1"
1H
1D
#2330
0"
0H
0D
#2340
1"
1H
1D
#2350
0"
0H
0D
#2360
1"
1H
1D
#2370
b1010 G
0"
0H
0D
b1 %
1N
1v
1F
#2380
1"
1H
1D
1z
1W
b101 G!
#2390
0"
0H
0D
#2400
1"
1H
1D
1{
b101 F!
0W
1m
b10010 J!
b110 G!
1A!
0C
1B
0@
1Q
#2410
0"
0H
0D
#2420
1"
1H
1D
b1 5!
b110 F!
1]
1-
1.!
13!
12!
11!
10!
1/!
0)!
0m
1l
1V
1.
b10 J!
b111 G!
0A!
0?
0Q
#2430
b0 %
0"
0N
0v
0F
0H
0D
#2440
1"
1H
1D
0z
b111 F!
1m
b1111000 J!
b100 G!
1?!
0B
1@
1?
1>
1=
1P
#2450
0"
0H
0D
#2460
1"
1H
1D
0{
b1 !!
b100 F!
1u
1a
0m
0l
b11001 J!
b1111001 H!
0?!
15
12
11
10
1C
0>
0=
0P
#2470
0"
0H
0D
#2480
1"
1H
1D
b10 $!
0q
1p
0.!
03!
02!
01!
00!
0/!
1)!
0V
0e
1d
0.
b100100 I!
0<
1:
09
08
06
#2490
0"
0H
0D
#2500
1"
1H
1D
#2510
0"
0H
0D
#2520
1"
1H
1D
#2530
0"
0H
0D
#2540
1"
1H
1D
#2550
0"
0H
0D
#2560
1"
1H
1D
#2570
0"
0H
0D
#2580
1"
1H
1D
#2590
0"
0H
0D
#2600
1"
1H
1D
#2610
0"
0H
0D
#2620
1"
1H
1D
#2630
b1011 G
0"
0H
0D
b10 %
1M
1v
1F
#2640
1"
1H
1D
1z
1W
b101 G!
#2650
0"
0H
0D
#2660
1"
1H
1D
1{
b101 F!
0W
1m
b10010 J!
b110 G!
1A!
0C
1B
0@
1Q
#2670
0"
0H
0D
#2680
1"
1H
1D
b10 5!
b110 F!
0]
1\
0-
1,
1.!
13!
12!
11!
10!
1/!
0)!
0m
1l
1V
1.
b10 J!
b111 G!
0A!
0?
0Q
#2690
b0 %
0"
0M
0v
0F
0H
0D
#2700
1"
1H
1D
0z
b111 F!
1m
b1111000 J!
b100 G!
1?!
0B
1@
1?
1>
1=
1P
#2710
0"
0H
0D
#2720
1"
1H
1D
0{
b10 !!
b100 F!
0u
1t
0a
1`
0m
0l
b11001 J!
b100100 H!
0?!
05
13
02
01
0/
1C
0>
0=
0P
#2730
0"
0H
0D
#2740
1"
1H
1D
b100 $!
0p
1o
0-!
02!
01!
00!
0/!
1)!
0V
0d
1c
0.
b11001 I!
1<
0:
19
18
07
#2750
0"
0H
0D
#2760
1"
1H
1D
#2770
0"
0H
0D
#2780
1"
1H
1D
#2790
0"
0H
0D
#2800
1"
1H
1D
#2810
0"
0H
0D
#2820
1"
1H
1D
#2830
0"
0H
0D
#2840
1"
1H
1D
#2850
0"
0H
0D
#2860
1"
1H
1D
#2870
0"
0H
0D
#2880
1"
1H
1D
#2890
b1100 G
0"
0H
0D
b100 %
1L
1v
1F
#2900
1"
1H
1D
1z
1W
b101 G!
#2910
0"
0H
0D
#2920
1"
1H
1D
1{
b101 F!
0W
1m
b10010 J!
b110 G!
1A!
0C
1B
0@
1Q
#2930
0"
0H
0D
#2940
1"
1H
1D
b100 5!
b110 F!
0\
1[
0,
1+
1-!
12!
11!
10!
1/!
0)!
0m
1l
1V
1.
b10 J!
b111 G!
0A!
0?
0Q
#2950
b0 %
0"
0L
0v
0F
0H
0D
#2960
1"
1H
1D
0z
b111 F!
1m
b1111000 J!
b100 G!
1?!
0B
1@
1?
1>
1=
1P
#2970
0"
0H
0D
#2980
1"
1H
1D
0{
b11 !!
b100 F!
1u
1a
0m
0l
b11001 J!
b110000 H!
0?!
03
11
1C
0>
0=
0P
#2990
0"
0H
0D
#3000
1"
1H
1D
b1000 $!
0o
1n
0,!
01!
00!
0/!
1)!
0V
0c
1b
0.
b0 I!
0<
09
08
#3010
0"
0H
0D
#3020
1"
1H
1D
#3030
0"
0H
0D
#3040
1"
1H
1D
#3050
0"
0H
0D
#3060
1"
1H
1D
#3070
0"
0H
0D
#3080
1"
1H
1D
#3090
0"
0H
0D
#3100
1"
1H
1D
#3110
0"
0H
0D
#3120
1"
1H
1D
#3130
0"
0H
0D
#3140
1"
1H
1D
#3150
b1101 G
0"
0H
0D
b1000 %
1K
1v
1F
#3160
1"
1H
1D
1z
1W
b101 G!
#3170
0"
0H
0D
#3180
1"
1H
1D
1{
b101 F!
0W
1m
b10010 J!
b110 G!
1A!
0C
1B
0@
1Q
#3190
0"
0H
0D
#3200
1"
1H
1D
b1000 5!
b110 F!
0[
1Z
0+
1*
1,!
11!
10!
1/!
0)!
0m
1l
1V
1.
b10 J!
b111 G!
0A!
0?
0Q
#3210
b0 %
0"
0K
0v
0F
0H
0D
#3220
1"
1H
1D
0z
b111 F!
1m
b1111000 J!
b100 G!
1?!
0B
1@
1?
1>
1=
1P
#3230
0"
0H
0D
#3240
1"
1H
1D
0{
b100 !!
b100 F!
0u
0t
1s
0a
0`
1_
0m
0l
b11001 J!
b11001 H!
0?!
15
12
00
1C
0>
0=
0P
#3250
0"
0H
0D
#3260
1"
1H
1D
b100 $!
1o
0n
0,!
0+!
0*!
01!
1(!
0V
1c
0b
0.
b11001 I!
1<
19
18
#3270
0"
0H
0D
#3280
1"
1H
1D
#3290
0"
0H
0D
#3300
1"
1H
1D
#3310
0"
0H
0D
#3320
1"
1H
1D
#3330
0"
0H
0D
#3340
1"
1H
1D
#3350
0"
0H
0D
#3360
1"
1H
1D
#3370
0"
0H
0D
#3380
1"
1H
1D
#3390
0"
0H
0D
#3400
1"
1H
1D
#3410
b1110 G
0"
0H
0D
b100 %
1L
1v
1F
#3420
1"
1H
1D
1z
1W
b101 G!
#3430
0"
0H
0D
#3440
1"
1H
1D
1{
b101 F!
0W
1m
b10010 J!
b110 G!
1A!
0C
1B
0@
1Q
#3450
0"
0H
0D
#3460
1"
1H
1D
b100 5!
b110 F!
1[
0Z
1+
0*
1,!
1+!
1*!
11!
0(!
0m
1l
1V
1.
b10 J!
b111 G!
0A!
0?
0Q
#3470
b0 %
0"
0L
0v
0F
0H
0D
#3480
1"
1H
1D
0z
b111 F!
1m
b1111000 J!
b100 G!
1?!
0B
1@
1?
1>
1=
1P
#3490
0"
0H
0D
#3500
1"
1H
1D
0{
b101 !!
b100 F!
1u
1a
0m
0l
b11001 J!
b10010 H!
0?!
05
14
02
1C
0>
0=
0P
#3510
0"
0H
0D
#3520
1"
1H
1D
b10 $!
1p
0o
0-!
0,!
0+!
0*!
02!
1(!
0V
1d
0c
0.
b100100 I!
0<
1:
09
08
17
#3530
0"
0H
0D
#3540
1"
1H
1D
#3550
0"
0H
0D
#3560
1"
1H
1D
#3570
0"
0H
0D
#3580
1"
1H
1D
#3590
0"
0H
0D
#3600
1"
1H
1D
#3610
0"
0H
0D
#3620
1"
1H
1D
#3630
0"
0H
0D
#3640
1"
1H
1D
#3650
0"
0H
0D
#3660
1"
1H
1D
#3670
b1111 G
0"
0H
0D
b10 %
1M
1v
1F
#3680
1"
1H
1D
1z
1W
b101 G!
#3690
0"
0H
0D
#3700
1"
1H
1D
1{
b101 F!
0W
1m
b10010 J!
b110 G!
1A!
0C
1B
0@
1Q
#3710
0"
0H
0D
#3720
1"
1H
1D
b10 5!
b110 F!
1\
0[
1,
0+
1-!
1,!
1+!
1*!
12!
0(!
0m
1l
1V
1.
b10 J!
b111 G!
0A!
0?
0Q
#3730
b0 %
0"
0M
0v
0F
0H
0D
#3740
1"
1H
1D
0z
b111 F!
1m
b1111000 J!
b100 G!
1?!
0B
1@
1?
1>
1=
1P
#3750
0"
0H
0D
#3760
1"
1H
1D
0{
b110 !!
b100 F!
0u
1t
0a
1`
0m
0l
b11001 J!
b10 H!
0?!
01
1C
0>
0=
0P
#3770
0"
0H
0D
#3780
1"
1H
1D
b1 $!
1q
0p
0.!
0-!
0,!
0+!
0*!
03!
1(!
0V
1e
0d
0.
b1111001 I!
1<
0:
19
18
16
#3790
0"
0H
0D
#3800
1"
1H
1D
#3810
0"
0H
0D
#3820
1"
1H
1D
#3830
0"
0H
0D
#3840
1"
1H
1D
#3850
0"
0H
0D
#3860
1"
1H
1D
#3870
0"
0H
0D
#3880
1"
1H
1D
#3890
0"
0H
0D
#3900
1"
1H
1D
#3910
0"
0H
0D
#3920
1"
1H
1D
#3930
b10000 G
0"
0H
0D
b1 %
1N
1v
1F
#3940
1"
1H
1D
1z
1W
b101 G!
#3950
0"
0H
0D
#3960
1"
1H
1D
1{
b101 F!
0W
1m
b10010 J!
b110 G!
1A!
0C
1B
0@
1Q
#3970
0"
0H
0D
#3980
1"
1H
1D
b1 5!
b110 F!
1]
0\
1-
0,
1.!
1-!
1,!
1+!
1*!
13!
0(!
0m
1l
1V
1.
b10 J!
b111 G!
0A!
0?
0Q
#3990
b0 %
0"
0N
0v
0F
0H
0D
#4000
1"
1H
1D
0z
b111 F!
1m
b1111000 J!
b100 G!
1?!
0B
1@
1?
1>
1=
1P
#4010
0"
0H
0D
#4020
1"
1H
1D
0{
b111 !!
b100 F!
1u
1a
0m
0l
b11001 J!
b1111000 H!
0?!
1#!
04
12
11
10
1/
1C
0>
0=
0P
1Y
