waveforms.vcd
$date
	Tue Feb 13 14:29:44 2024
$end
$version
	ModelSim Version 2020.1
$end
$timescale
	1ns
$end

$scope module circuito_exp6_tb $end
$var parameter 32 ! clockPeriod $end
$var reg 1 " clock_in $end
$var reg 1 # reset_in $end
$var reg 1 $ iniciar_in $end
$var reg 4 % botoes_in [3:0] $end
$var reg 1 & nivel_jogadas_in $end
$var reg 1 ' nivel_tempo_in $end
$var wire 1 ( ganhou_out $end
$var wire 1 ) perdeu_out $end
$var wire 1 * pronto_out $end
$var wire 1 + vez_jogador_out $end
$var wire 1 , timeout_out $end
$var wire 1 - leds_out [3] $end
$var wire 1 . leds_out [2] $end
$var wire 1 / leds_out [1] $end
$var wire 1 0 leds_out [0] $end
$var wire 1 1 db_igual $end
$var wire 1 2 db_contagem [6] $end
$var wire 1 3 db_contagem [5] $end
$var wire 1 4 db_contagem [4] $end
$var wire 1 5 db_contagem [3] $end
$var wire 1 6 db_contagem [2] $end
$var wire 1 7 db_contagem [1] $end
$var wire 1 8 db_contagem [0] $end
$var wire 1 9 db_memoria [6] $end
$var wire 1 : db_memoria [5] $end
$var wire 1 ; db_memoria [4] $end
$var wire 1 < db_memoria [3] $end
$var wire 1 = db_memoria [2] $end
$var wire 1 > db_memoria [1] $end
$var wire 1 ? db_memoria [0] $end
$var wire 1 @ db_estado [6] $end
$var wire 1 A db_estado [5] $end
$var wire 1 B db_estado [4] $end
$var wire 1 C db_estado [3] $end
$var wire 1 D db_estado [2] $end
$var wire 1 E db_estado [1] $end
$var wire 1 F db_estado [0] $end
$var wire 1 G db_jogada [6] $end
$var wire 1 H db_jogada [5] $end
$var wire 1 I db_jogada [4] $end
$var wire 1 J db_jogada [3] $end
$var wire 1 K db_jogada [2] $end
$var wire 1 L db_jogada [1] $end
$var wire 1 M db_jogada [0] $end
$var wire 1 N db_nivel_jogadas $end
$var wire 1 O db_nivel_tempo $end
$var wire 1 P db_clock $end
$var wire 1 Q db_iniciar $end
$var wire 1 R db_tem_jogada $end
$var integer 32 S caso $end
$var integer 32 T cenario $end

$scope task press_botoes $end
$var reg 4 U valor [3:0] $end
$upscope $end

$scope function wait_time $end
$upscope $end

$scope task acerta_valores $end
$var reg 4 V quantidade [3:0] $end

$scope begin corpo_task $end
$var integer 32 W i $end
$upscope $end
$upscope $end

$scope module DUT $end
$var wire 1 X clock $end
$var wire 1 Y reset $end
$var wire 1 Z iniciar $end
$var wire 1 [ botoes [3] $end
$var wire 1 \ botoes [2] $end
$var wire 1 ] botoes [1] $end
$var wire 1 ^ botoes [0] $end
$var wire 1 _ nivel_jogadas $end
$var wire 1 ` nivel_tempo $end
$var wire 1 ( ganhou $end
$var wire 1 ) perdeu $end
$var wire 1 * pronto $end
$var wire 1 , timeout $end
$var wire 1 + vez_jogador $end
$var wire 1 - leds [3] $end
$var wire 1 . leds [2] $end
$var wire 1 / leds [1] $end
$var wire 1 0 leds [0] $end
$var wire 1 1 db_igual $end
$var wire 1 2 db_contagem [6] $end
$var wire 1 3 db_contagem [5] $end
$var wire 1 4 db_contagem [4] $end
$var wire 1 5 db_contagem [3] $end
$var wire 1 6 db_contagem [2] $end
$var wire 1 7 db_contagem [1] $end
$var wire 1 8 db_contagem [0] $end
$var wire 1 9 db_memoria [6] $end
$var wire 1 : db_memoria [5] $end
$var wire 1 ; db_memoria [4] $end
$var wire 1 < db_memoria [3] $end
$var wire 1 = db_memoria [2] $end
$var wire 1 > db_memoria [1] $end
$var wire 1 ? db_memoria [0] $end
$var wire 1 @ db_estado [6] $end
$var wire 1 A db_estado [5] $end
$var wire 1 B db_estado [4] $end
$var wire 1 C db_estado [3] $end
$var wire 1 D db_estado [2] $end
$var wire 1 E db_estado [1] $end
$var wire 1 F db_estado [0] $end
$var wire 1 G db_jogada [6] $end
$var wire 1 H db_jogada [5] $end
$var wire 1 I db_jogada [4] $end
$var wire 1 J db_jogada [3] $end
$var wire 1 K db_jogada [2] $end
$var wire 1 L db_jogada [1] $end
$var wire 1 M db_jogada [0] $end
$var wire 1 N db_nivel_jogadas $end
$var wire 1 O db_nivel_tempo $end
$var wire 1 P db_clock $end
$var wire 1 Q db_iniciar $end
$var wire 1 R db_tem_jogada $end
$var wire 1 a contaC $end
$var wire 1 b contaTempo $end
$var wire 1 c contaTM $end
$var wire 1 d contaCR $end
$var wire 1 e registraR $end
$var wire 1 f registraN $end
$var wire 1 g zeraC $end
$var wire 1 h zeraR $end
$var wire 1 i zeraCR $end
$var wire 1 j zeraTM $end
$var wire 1 k zeraTempo $end
$var wire 1 l ativa_leds $end
$var wire 1 m fimC $end
$var wire 1 n fimCR $end
$var wire 1 o fimTM $end
$var wire 1 p meioTM $end
$var wire 1 q fimTempo $end
$var wire 1 r meioCR $end
$var wire 1 s meioTempo $end
$var wire 1 t enderecoIgualRodada $end
$var wire 1 u jogada_feita $end
$var wire 1 v jogada_correta $end
$var wire 1 w nivel_jogadas_reg $end
$var wire 1 x nivel_tempo_reg $end
$var wire 1 y s_db_contagem [3] $end
$var wire 1 z s_db_contagem [2] $end
$var wire 1 { s_db_contagem [1] $end
$var wire 1 | s_db_contagem [0] $end
$var wire 1 } s_db_jogada [3] $end
$var wire 1 ~ s_db_jogada [2] $end
$var wire 1 !! s_db_jogada [1] $end
$var wire 1 "! s_db_jogada [0] $end
$var wire 1 #! s_db_memoria [3] $end
$var wire 1 $! s_db_memoria [2] $end
$var wire 1 %! s_db_memoria [1] $end
$var wire 1 &! s_db_memoria [0] $end
$var wire 1 '! s_db_estado [3] $end
$var wire 1 (! s_db_estado [2] $end
$var wire 1 )! s_db_estado [1] $end
$var wire 1 *! s_db_estado [0] $end

$scope module fluxo_dados $end
$var wire 1 X clock $end
$var wire 1 [ botoes [3] $end
$var wire 1 \ botoes [2] $end
$var wire 1 ] botoes [1] $end
$var wire 1 ^ botoes [0] $end
$var wire 1 _ nivel_jogadas $end
$var wire 1 ` nivel_tempo $end
$var wire 1 h zeraR $end
$var wire 1 e registraR $end
$var wire 1 g zeraC $end
$var wire 1 a contaC $end
$var wire 1 f registraN $end
$var wire 1 b contaTempo $end
$var wire 1 i zeraCR $end
$var wire 1 k zeraTempo $end
$var wire 1 d contaCR $end
$var wire 1 j zeraTM $end
$var wire 1 c contaTM $end
$var wire 1 l ativa_leds $end
$var wire 1 v jogada_correta $end
$var wire 1 u jogada_feita $end
$var wire 1 w nivel_jogadas_reg $end
$var wire 1 x nivel_tempo_reg $end
$var wire 1 m fimC $end
$var wire 1 r meioCR $end
$var wire 1 q fimTempo $end
$var wire 1 s meioTempo $end
$var wire 1 t enderecoIgualRodada $end
$var wire 1 n fimCR $end
$var wire 1 o fimTM $end
$var wire 1 p meioTM $end
$var wire 1 - leds [3] $end
$var wire 1 . leds [2] $end
$var wire 1 / leds [1] $end
$var wire 1 0 leds [0] $end
$var wire 1 R db_tem_jogada $end
$var wire 1 y db_contagem [3] $end
$var wire 1 z db_contagem [2] $end
$var wire 1 { db_contagem [1] $end
$var wire 1 | db_contagem [0] $end
$var wire 1 } db_jogada [3] $end
$var wire 1 ~ db_jogada [2] $end
$var wire 1 !! db_jogada [1] $end
$var wire 1 "! db_jogada [0] $end
$var wire 1 #! db_memoria [3] $end
$var wire 1 $! db_memoria [2] $end
$var wire 1 %! db_memoria [1] $end
$var wire 1 &! db_memoria [0] $end
$var wire 1 +! tem_jogada $end
$var wire 1 ,! s_memoria [3] $end
$var wire 1 -! s_memoria [2] $end
$var wire 1 .! s_memoria [1] $end
$var wire 1 /! s_memoria [0] $end
$var wire 1 0! s_endereco [3] $end
$var wire 1 1! s_endereco [2] $end
$var wire 1 2! s_endereco [1] $end
$var wire 1 3! s_endereco [0] $end
$var wire 1 4! s_rodada [3] $end
$var wire 1 5! s_rodada [2] $end
$var wire 1 6! s_rodada [1] $end
$var wire 1 7! s_rodada [0] $end
$var wire 1 8! s_jogada [3] $end
$var wire 1 9! s_jogada [2] $end
$var wire 1 :! s_jogada [1] $end
$var wire 1 ;! s_jogada [0] $end

$scope module RegNvlJog $end
$var parameter 32 <! SIZE $end
$var wire 1 X clock $end
$var wire 1 h clear $end
$var wire 1 f enable $end
$var wire 1 _ D [0] $end
$var wire 1 w Q [0] $end
$var reg 1 =! IQ [0:0] $end
$upscope $end

$scope module RegNvlTime $end
$var parameter 32 >! SIZE $end
$var wire 1 X clock $end
$var wire 1 h clear $end
$var wire 1 f enable $end
$var wire 1 ` D [0] $end
$var wire 1 x Q [0] $end
$var reg 1 ?! IQ [0:0] $end
$upscope $end

$scope module EdgeDetector $end
$var wire 1 X clock $end
$var wire 1 @! reset $end
$var wire 1 +! sinal $end
$var wire 1 u pulso $end
$var reg 1 A! reg0 $end
$var reg 1 B! reg1 $end
$upscope $end

$scope module ContEnd $end
$var wire 1 X clock $end
$var wire 1 C! clr $end
$var wire 1 D! ld $end
$var wire 1 E! ent $end
$var wire 1 a enp $end
$var wire 1 F! D [3] $end
$var wire 1 G! D [2] $end
$var wire 1 H! D [1] $end
$var wire 1 I! D [0] $end
$var reg 4 J! Q [3:0] $end
$var reg 1 K! rco $end
$upscope $end

$scope module ContRod $end
$var parameter 32 L! M $end
$var parameter 32 M! N $end
$var wire 1 X clock $end
$var wire 1 N! zera_as $end
$var wire 1 i zera_s $end
$var wire 1 d conta $end
$var reg 4 O! Q [3:0] $end
$var reg 1 P! fim $end
$var reg 1 Q! meio $end
$upscope $end

$scope module ContMostra $end
$var parameter 32 R! M $end
$var parameter 32 S! N $end
$var wire 1 X clock $end
$var wire 1 T! zera_as $end
$var wire 1 j zera_s $end
$var wire 1 c conta $end
$var reg 10 U! Q [9:0] $end
$var reg 1 V! fim $end
$var reg 1 W! meio $end
$upscope $end

$scope module TimerTimeout $end
$var parameter 32 X! M $end
$var parameter 32 Y! N $end
$var wire 1 X clock $end
$var wire 1 u zera_as $end
$var wire 1 k zera_s $end
$var wire 1 b conta $end
$var reg 12 Z! Q [11:0] $end
$var reg 1 [! fim $end
$var reg 1 \! meio $end
$upscope $end

$scope module MemJog $end
$var wire 1 X clock $end
$var wire 1 0! address [3] $end
$var wire 1 1! address [2] $end
$var wire 1 2! address [1] $end
$var wire 1 3! address [0] $end
$var reg 4 ]! data_out [3:0] $end
$upscope $end

$scope module CompJog $end
$var wire 1 ,! A [3] $end
$var wire 1 -! A [2] $end
$var wire 1 .! A [1] $end
$var wire 1 /! A [0] $end
$var wire 1 8! B [3] $end
$var wire 1 9! B [2] $end
$var wire 1 :! B [1] $end
$var wire 1 ;! B [0] $end
$var wire 1 ^! ALBi $end
$var wire 1 _! AGBi $end
$var wire 1 `! AEBi $end
$var wire 1 a! ALBo $end
$var wire 1 b! AGBo $end
$var wire 1 v AEBo $end
$var wire 1 c! CSL [4] $end
$var wire 1 d! CSL [3] $end
$var wire 1 e! CSL [2] $end
$var wire 1 f! CSL [1] $end
$var wire 1 g! CSL [0] $end
$var wire 1 h! CSG [4] $end
$var wire 1 i! CSG [3] $end
$var wire 1 j! CSG [2] $end
$var wire 1 k! CSG [1] $end
$var wire 1 l! CSG [0] $end
$upscope $end

$scope module CompEnd $end
$var wire 1 4! A [3] $end
$var wire 1 5! A [2] $end
$var wire 1 6! A [1] $end
$var wire 1 7! A [0] $end
$var wire 1 0! B [3] $end
$var wire 1 1! B [2] $end
$var wire 1 2! B [1] $end
$var wire 1 3! B [0] $end
$var wire 1 m! ALBi $end
$var wire 1 n! AGBi $end
$var wire 1 o! AEBi $end
$var wire 1 p! ALBo $end
$var wire 1 q! AGBo $end
$var wire 1 t AEBo $end
$var wire 1 r! CSL [4] $end
$var wire 1 s! CSL [3] $end
$var wire 1 t! CSL [2] $end
$var wire 1 u! CSL [1] $end
$var wire 1 v! CSL [0] $end
$var wire 1 w! CSG [4] $end
$var wire 1 x! CSG [3] $end
$var wire 1 y! CSG [2] $end
$var wire 1 z! CSG [1] $end
$var wire 1 {! CSG [0] $end
$upscope $end

$scope module RegChv $end
$var parameter 32 |! SIZE $end
$var wire 1 X clock $end
$var wire 1 h clear $end
$var wire 1 e enable $end
$var wire 1 [ D [3] $end
$var wire 1 \ D [2] $end
$var wire 1 ] D [1] $end
$var wire 1 ^ D [0] $end
$var wire 1 8! Q [3] $end
$var wire 1 9! Q [2] $end
$var wire 1 :! Q [1] $end
$var wire 1 ;! Q [0] $end
$var reg 4 }! IQ [3:0] $end
$upscope $end
$upscope $end

$scope module unidade_controle $end
$var parameter 4 ~! inicial $end
$var parameter 4 !" inicializa_elementos $end
$var parameter 4 "" inicio_rodada $end
$var parameter 4 #" mostra $end
$var parameter 4 $" espera_mostra $end
$var parameter 4 %" apaga_mostra $end
$var parameter 4 &" mostra_proximo $end
$var parameter 4 '" inicio_jogada $end
$var parameter 4 (" espera_jogada $end
$var parameter 4 )" registra $end
$var parameter 4 *" compara $end
$var parameter 4 +" acertou $end
$var parameter 4 ," proxima_jogada $end
$var parameter 4 -" proxima_rodada $end
$var parameter 4 ." errou $end
$var parameter 4 /" estado_timeout $end
$var wire 1 X clock $end
$var wire 1 Y reset $end
$var wire 1 Z iniciar $end
$var wire 1 m fimC $end
$var wire 1 o fimTM $end
$var wire 1 p meioTM $end
$var wire 1 n fimCR $end
$var wire 1 r meioCR $end
$var wire 1 u jogada_feita $end
$var wire 1 v jogada_correta $end
$var wire 1 t enderecoIgualRodada $end
$var wire 1 x nivel_tempo $end
$var wire 1 w nivel_jogadas $end
$var wire 1 q fimTempo $end
$var wire 1 s meioTempo $end
$var wire 1 g zeraC $end
$var wire 1 a contaC $end
$var wire 1 j zeraTM $end
$var wire 1 c contaTM $end
$var wire 1 d contaCR $end
$var wire 1 i zeraCR $end
$var wire 1 b contaTempo $end
$var wire 1 k zeraTempo $end
$var wire 1 e registraR $end
$var wire 1 h zeraR $end
$var wire 1 f registraN $end
$var wire 1 l ativa_leds $end
$var wire 1 ( ganhou $end
$var wire 1 ) perdeu $end
$var wire 1 * pronto $end
$var wire 1 , timeout $end
$var wire 1 + vez_jogador $end
$var wire 1 '! db_estado [3] $end
$var wire 1 (! db_estado [2] $end
$var wire 1 )! db_estado [1] $end
$var wire 1 *! db_estado [0] $end
$var reg 4 0" Eatual [3:0] $end
$var reg 4 1" Eprox [3:0] $end
$upscope $end

$scope module display_contagem $end
$var wire 1 y hexa [3] $end
$var wire 1 z hexa [2] $end
$var wire 1 { hexa [1] $end
$var wire 1 | hexa [0] $end
$var reg 7 2" display [6:0] $end
$upscope $end

$scope module display_memoria $end
$var wire 1 #! hexa [3] $end
$var wire 1 $! hexa [2] $end
$var wire 1 %! hexa [1] $end
$var wire 1 &! hexa [0] $end
$var reg 7 3" display [6:0] $end
$upscope $end

$scope module display_estado $end
$var wire 1 '! hexa [3] $end
$var wire 1 (! hexa [2] $end
$var wire 1 )! hexa [1] $end
$var wire 1 *! hexa [0] $end
$var reg 7 4" display [6:0] $end
$upscope $end

$scope module display_jogada $end
$var wire 1 } hexa [3] $end
$var wire 1 ~ hexa [2] $end
$var wire 1 !! hexa [1] $end
$var wire 1 "! hexa [0] $end
$var reg 7 5" display [6:0] $end
$upscope $end
$upscope $end
$upscope $end
$enddefinitions $end
#0
$dumpvars
1"
0#
0$
b0 %
0&
0'
b0 =!
b0 ?!
0A!
xB!
bx J!
0K!
bx O!
xP!
xQ!
bx U!
xV!
xW!
bx Z!
x[!
x\!
bx ]!
b0 }!
b0 0"
b0 1"
bx 2"
bx 3"
b1000000 4"
b1000000 5"
bx U
bx V
b10100 !
b1 <!
b1 >!
b10000 L!
b100 M!
b1111101000 R!
b1010 S!
b101110111000 X!
b1100 Y!
b100 |!
b0 ~!
b1 !"
b10 ""
b11 #"
b100 $"
b1101 %"
b101 &"
b110 '"
b111 ("
b1000 )"
b1001 *"
b1010 +"
b1011 ,"
b1100 -"
b1110 ."
b1111 /"
b0 S
b0 T
bx W
0(
0)
0*
0+
0,
00
0/
0.
0-
x1
x8
x7
x6
x5
x4
x3
x2
x?
x>
x=
x<
x;
x:
x9
0F
0E
0D
0C
0B
0A
1@
0M
0L
0K
0J
0I
0H
1G
0N
0O
1P
0Q
0R
0a
0b
0c
0d
0e
0f
0g
1h
0i
0j
0k
0l
0m
xn
xo
xp
xq
xr
xs
xt
0u
xv
0w
0x
x|
x{
xz
xy
0"!
0!!
0~
0}
x&!
x%!
x$!
x#!
0*!
0)!
0(!
0'!
0+!
x/!
x.!
x-!
x,!
x3!
x2!
x1!
x0!
x7!
x6!
x5!
x4!
0;!
0:!
09!
08!
xg!
xf!
xe!
xd!
xc!
xl!
xk!
xj!
xi!
xh!
xv!
xu!
xt!
xs!
xr!
x{!
xz!
xy!
xx!
xw!
0`
0_
0^
0]
0\
0[
0Z
0Y
1X
0m!
0n!
1o!
0^!
0_!
1`!
0T!
1E!
1C!
0@!
zD!
zI!
zH!
zG!
zF!
zN!
xa!
xb!
xp!
xq!
$end
#10
0"
0X
0P
#20
b1 T
1"
1X
1P
0B!
#30
0"
0X
0P
1#
1Y
#40
1"
1X
1P
#50
0#
b1 S
1$
0"
0Y
1Z
0X
0P
1Q
b1 1"
#60
1"
1X
1P
b1 0"
1f
1k
1i
1*!
0h
b1111001 4"
b10 1"
1F
1C
1B
1A
#70
0"
0X
0P
#80
1"
1X
1P
b0 O!
b0 Z!
b10 0"
07!
06!
05!
04!
0f
0k
1g
0i
0C!
0*!
1)!
b100100 4"
b11 1"
0[!
0\!
0P!
0Q!
0F
1D
0C
0B
0@
0q
0s
0n
0r
#90
0"
0X
0P
#100
1"
1X
1P
b0 J!
b11 0"
03!
02!
01!
00!
1j
0g
1C!
1v!
1u!
1t!
1s!
1r!
1{!
1z!
1y!
1x!
1w!
0q!
0p!
1t
0|
0{
0z
0y
1*!
b110000 4"
b1000000 2"
b100 1"
08
07
06
05
04
03
12
0D
1B
#110
0"
0X
0P
#120
1"
1X
1P
b1 ]!
1/!
0.!
0-!
0,!
0g!
1f!
1e!
1d!
1c!
0l!
0k!
0j!
0i!
0h!
1b!
0a!
0v
1&!
0%!
0$!
0#!
01
b1111001 3"
1?
0>
0=
1<
1;
1:
19
b0 U!
b100 0"
1l
1c
0j
10
0*!
0)!
1(!
b11001 4"
b1x0 1"
0V!
0W!
1F
1C
0A
0o
0p
b100 1"
#130
0$
0"
0Z
0X
0P
0Q
#140
1"
1X
1P
b1 U!
#150
0"
0X
0P
#160
1"
1X
1P
b10 U!
#170
0"
0X
0P
#180
1"
1X
1P
b11 U!
#190
0"
0X
0P
#200
1"
1X
1P
b100 U!
#210
0"
0X
0P
#220
1"
1X
1P
b101 U!
#230
0"
0X
0P
#240
1"
1X
1P
b110 U!
#250
0"
0X
0P
#260
1"
1X
1P
b111 U!
#270
0"
0X
0P
#280
1"
1X
1P
b1000 U!
#290
0"
0X
0P
#300
1"
1X
1P
b1001 U!
#310
0"
0X
0P
#320
1"
1X
1P
b1010 U!
#330
0"
0X
0P
#340
1"
1X
1P
b1011 U!
#350
0"
0X
0P
#360
1"
1X
1P
b1100 U!
#370
0"
0X
0P
#380
1"
1X
1P
b1101 U!
#390
0"
0X
0P
#400
1"
1X
1P
b1110 U!
#410
0"
0X
0P
#420
1"
1X
1P
b1111 U!
#430
0"
0X
0P
#440
1"
1X
1P
b10000 U!
#450
0"
0X
0P
#460
1"
1X
1P
b10001 U!
#470
0"
0X
0P
#480
1"
1X
1P
b10010 U!
#490
0"
0X
0P
#500
1"
1X
1P
b10011 U!
#510
0"
0X
0P
#520
1"
1X
1P
b10100 U!
#530
0"
0X
0P
#540
1"
1X
1P
b10101 U!
#550
0"
0X
0P
#560
1"
1X
1P
b10110 U!
#570
0"
0X
0P
#580
1"
1X
1P
b10111 U!
#590
0"
0X
0P
#600
1"
1X
1P
b11000 U!
#610
0"
0X
0P
#620
1"
1X
1P
b11001 U!
#630
0"
0X
0P
#640
1"
1X
1P
b11010 U!
#650
0"
0X
0P
#660
1"
1X
1P
b11011 U!
#670
0"
0X
0P
#680
1"
1X
1P
b11100 U!
#690
0"
0X
0P
#700
1"
1X
1P
b11101 U!
#710
0"
0X
0P
#720
1"
1X
1P
b11110 U!
#730
0"
0X
0P
#740
1"
1X
1P
b11111 U!
#750
0"
0X
0P
#760
1"
1X
1P
b100000 U!
#770
0"
0X
0P
#780
1"
1X
1P
b100001 U!
#790
0"
0X
0P
#800
1"
1X
1P
b100010 U!
#810
0"
0X
0P
#820
1"
1X
1P
b100011 U!
#830
0"
0X
0P
#840
1"
1X
1P
b100100 U!
#850
0"
0X
0P
#860
1"
1X
1P
b100101 U!
#870
0"
0X
0P
#880
1"
1X
1P
b100110 U!
#890
0"
0X
0P
#900
1"
1X
1P
b100111 U!
#910
0"
0X
0P
#920
1"
1X
1P
b101000 U!
#930
0"
0X
0P
#940
1"
1X
1P
b101001 U!
#950
0"
0X
0P
#960
1"
1X
1P
b101010 U!
#970
0"
0X
0P
#980
1"
1X
1P
b101011 U!
#990
0"
0X
0P
#1000
1"
1X
1P
b101100 U!
#1010
0"
0X
0P
#1020
1"
1X
1P
b101101 U!
#1030
0"
0X
0P
#1040
1"
1X
1P
b101110 U!
#1050
0"
0X
0P
#1060
1"
1X
1P
b101111 U!
#1070
0"
0X
0P
#1080
1"
1X
1P
b110000 U!
#1090
0"
0X
0P
#1100
1"
1X
1P
b110001 U!
#1110
0"
0X
0P
#1120
1"
1X
1P
b110010 U!
#1130
0"
0X
0P
#1140
1"
1X
1P
b110011 U!
#1150
0"
0X
0P
#1160
1"
1X
1P
b110100 U!
#1170
0"
0X
0P
#1180
1"
1X
1P
b110101 U!
#1190
0"
0X
0P
#1200
1"
1X
1P
b110110 U!
#1210
0"
0X
0P
#1220
1"
1X
1P
b110111 U!
#1230
0"
0X
0P
#1240
1"
1X
1P
b111000 U!
#1250
0"
0X
0P
#1260
1"
1X
1P
b111001 U!
#1270
0"
0X
0P
#1280
1"
1X
1P
b111010 U!
#1290
0"
0X
0P
#1300
1"
1X
1P
b111011 U!
#1310
0"
0X
0P
#1320
1"
1X
1P
b111100 U!
#1330
0"
0X
0P
#1340
1"
1X
1P
b111101 U!
#1350
0"
0X
0P
#1360
1"
1X
1P
b111110 U!
#1370
0"
0X
0P
#1380
1"
1X
1P
b111111 U!
#1390
0"
0X
0P
#1400
1"
1X
1P
b1000000 U!
#1410
0"
0X
0P
#1420
1"
1X
1P
b1000001 U!
#1430
0"
0X
0P
#1440
1"
1X
1P
b1000010 U!
#1450
0"
0X
0P
#1460
1"
1X
1P
b1000011 U!
#1470
0"
0X
0P
#1480
1"
1X
1P
b1000100 U!
#1490
0"
0X
0P
#1500
1"
1X
1P
b1000101 U!
#1510
0"
0X
0P
#1520
1"
1X
1P
b1000110 U!
#1530
0"
0X
0P
#1540
1"
1X
1P
b1000111 U!
#1550
0"
0X
0P
#1560
1"
1X
1P
b1001000 U!
#1570
0"
0X
0P
#1580
1"
1X
1P
b1001001 U!
#1590
0"
0X
0P
#1600
1"
1X
1P
b1001010 U!
#1610
0"
0X
0P
#1620
1"
1X
1P
b1001011 U!
#1630
0"
0X
0P
#1640
1"
1X
1P
b1001100 U!
#1650
0"
0X
0P
#1660
1"
1X
1P
b1001101 U!
#1670
0"
0X
0P
#1680
1"
1X
1P
b1001110 U!
#1690
0"
0X
0P
#1700
1"
1X
1P
b1001111 U!
#1710
0"
0X
0P
#1720
1"
1X
1P
b1010000 U!
#1730
0"
0X
0P
#1740
1"
1X
1P
b1010001 U!
#1750
0"
0X
0P
#1760
1"
1X
1P
b1010010 U!
#1770
0"
0X
0P
#1780
1"
1X
1P
b1010011 U!
#1790
0"
0X
0P
#1800
1"
1X
1P
b1010100 U!
#1810
0"
0X
0P
#1820
1"
1X
1P
b1010101 U!
#1830
0"
0X
0P
#1840
1"
1X
1P
b1010110 U!
#1850
0"
0X
0P
#1860
1"
1X
1P
b1010111 U!
#1870
0"
0X
0P
#1880
1"
1X
1P
b1011000 U!
#1890
0"
0X
0P
#1900
1"
1X
1P
b1011001 U!
#1910
0"
0X
0P
#1920
1"
1X
1P
b1011010 U!
#1930
0"
0X
0P
#1940
1"
1X
1P
b1011011 U!
#1950
0"
0X
0P
#1960
1"
1X
1P
b1011100 U!
#1970
0"
0X
0P
#1980
1"
1X
1P
b1011101 U!
#1990
0"
0X
0P
#2000
1"
1X
1P
b1011110 U!
#2010
0"
0X
0P
#2020
1"
1X
1P
b1011111 U!
#2030
0"
0X
0P
#2040
1"
1X
1P
b1100000 U!
#2050
0"
0X
0P
#2060
1"
1X
1P
b1100001 U!
#2070
0"
0X
0P
#2080
1"
1X
1P
b1100010 U!
#2090
0"
0X
0P
#2100
1"
1X
1P
b1100011 U!
#2110
0"
0X
0P
#2120
1"
1X
1P
b1100100 U!
#2130
0"
0X
0P
#2140
1"
1X
1P
b1100101 U!
#2150
0"
0X
0P
#2160
1"
1X
1P
b1100110 U!
#2170
0"
0X
0P
#2180
1"
1X
1P
b1100111 U!
#2190
0"
0X
0P
#2200
1"
1X
1P
b1101000 U!
#2210
0"
0X
0P
#2220
1"
1X
1P
b1101001 U!
#2230
0"
0X
0P
#2240
1"
1X
1P
b1101010 U!
#2250
0"
0X
0P
#2260
1"
1X
1P
b1101011 U!
#2270
0"
0X
0P
#2280
1"
1X
1P
b1101100 U!
#2290
0"
0X
0P
#2300
1"
1X
1P
b1101101 U!
#2310
0"
0X
0P
#2320
1"
1X
1P
b1101110 U!
#2330
0"
0X
0P
#2340
1"
1X
1P
b1101111 U!
#2350
0"
0X
0P
#2360
1"
1X
1P
b1110000 U!
#2370
0"
0X
0P
#2380
1"
1X
1P
b1110001 U!
#2390
0"
0X
0P
#2400
1"
1X
1P
b1110010 U!
#2410
0"
0X
0P
#2420
1"
1X
1P
b1110011 U!
#2430
0"
0X
0P
#2440
1"
1X
1P
b1110100 U!
#2450
0"
0X
0P
#2460
1"
1X
1P
b1110101 U!
#2470
0"
0X
0P
#2480
1"
1X
1P
b1110110 U!
#2490
0"
0X
0P
#2500
1"
1X
1P
b1110111 U!
#2510
0"
0X
0P
#2520
1"
1X
1P
b1111000 U!
#2530
0"
0X
0P
#2540
1"
1X
1P
b1111001 U!
#2550
0"
0X
0P
#2560
1"
1X
1P
b1111010 U!
#2570
0"
0X
0P
#2580
1"
1X
1P
b1111011 U!
#2590
0"
0X
0P
#2600
1"
1X
1P
b1111100 U!
#2610
0"
0X
0P
#2620
1"
1X
1P
b1111101 U!
#2630
0"
0X
0P
#2640
1"
1X
1P
b1111110 U!
#2650
0"
0X
0P
#2660
1"
1X
1P
b1111111 U!
#2670
0"
0X
0P
#2680
1"
1X
1P
b10000000 U!
#2690
0"
0X
0P
#2700
1"
1X
1P
b10000001 U!
#2710
0"
0X
0P
#2720
1"
1X
1P
b10000010 U!
#2730
0"
0X
0P
#2740
1"
1X
1P
b10000011 U!
#2750
0"
0X
0P
#2760
1"
1X
1P
b10000100 U!
#2770
0"
0X
0P
#2780
1"
1X
1P
b10000101 U!
#2790
0"
0X
0P
#2800
1"
1X
1P
b10000110 U!
#2810
0"
0X
0P
#2820
1"
1X
1P
b10000111 U!
#2830
0"
0X
0P
#2840
1"
1X
1P
b10001000 U!
#2850
0"
0X
0P
#2860
1"
1X
1P
b10001001 U!
#2870
0"
0X
0P
#2880
1"
1X
1P
b10001010 U!
#2890
0"
0X
0P
#2900
1"
1X
1P
b10001011 U!
#2910
0"
0X
0P
#2920
1"
1X
1P
b10001100 U!
#2930
0"
0X
0P
#2940
1"
1X
1P
b10001101 U!
#2950
0"
0X
0P
#2960
1"
1X
1P
b10001110 U!
#2970
0"
0X
0P
#2980
1"
1X
1P
b10001111 U!
#2990
0"
0X
0P
#3000
1"
1X
1P
b10010000 U!
#3010
0"
0X
0P
#3020
1"
1X
1P
b10010001 U!
#3030
0"
0X
0P
#3040
1"
1X
1P
b10010010 U!
#3050
0"
0X
0P
#3060
1"
1X
1P
b10010011 U!
#3070
0"
0X
0P
#3080
1"
1X
1P
b10010100 U!
#3090
0"
0X
0P
#3100
1"
1X
1P
b10010101 U!
#3110
0"
0X
0P
#3120
1"
1X
1P
b10010110 U!
#3130
0"
0X
0P
#3140
1"
1X
1P
b10010111 U!
#3150
0"
0X
0P
#3160
1"
1X
1P
b10011000 U!
#3170
0"
0X
0P
#3180
1"
1X
1P
b10011001 U!
#3190
0"
0X
0P
#3200
1"
1X
1P
b10011010 U!
#3210
0"
0X
0P
#3220
1"
1X
1P
b10011011 U!
#3230
0"
0X
0P
#3240
1"
1X
1P
b10011100 U!
#3250
0"
0X
0P
#3260
1"
1X
1P
b10011101 U!
#3270
0"
0X
0P
#3280
1"
1X
1P
b10011110 U!
#3290
0"
0X
0P
#3300
1"
1X
1P
b10011111 U!
#3310
0"
0X
0P
#3320
1"
1X
1P
b10100000 U!
#3330
0"
0X
0P
#3340
1"
1X
1P
b10100001 U!
#3350
0"
0X
0P
#3360
1"
1X
1P
b10100010 U!
#3370
0"
0X
0P
#3380
1"
1X
1P
b10100011 U!
#3390
0"
0X
0P
#3400
1"
1X
1P
b10100100 U!
#3410
0"
0X
0P
#3420
1"
1X
1P
b10100101 U!
#3430
0"
0X
0P
#3440
1"
1X
1P
b10100110 U!
#3450
0"
0X
0P
#3460
1"
1X
1P
b10100111 U!
#3470
0"
0X
0P
#3480
1"
1X
1P
b10101000 U!
#3490
0"
0X
0P
#3500
1"
1X
1P
b10101001 U!
#3510
0"
0X
0P
#3520
1"
1X
1P
b10101010 U!
#3530
0"
0X
0P
#3540
1"
1X
1P
b10101011 U!
#3550
0"
0X
0P
#3560
1"
1X
1P
b10101100 U!
#3570
0"
0X
0P
#3580
1"
1X
1P
b10101101 U!
#3590
0"
0X
0P
#3600
1"
1X
1P
b10101110 U!
#3610
0"
0X
0P
#3620
1"
1X
1P
b10101111 U!
