waveforms.vcd
$date
	Tue Feb 13 13:12:13 2024
$end
$version
	ModelSim Version 2020.1
$end
$timescale
	1ns
$end

$scope module circuito_exp6_tb $end
$var parameter 32 ! clockPeriod $end
$var reg 1 " clock_in $end
$var reg 1 # reset_in $end
$var reg 1 $ iniciar_in $end
$var reg 4 % chaves_in [3:0] $end
$var reg 1 & nivel_jogadas_in $end
$var reg 1 ' nivel_tempo_in $end
$var wire 1 ( acertou_out $end
$var wire 1 ) errou_out $end
$var wire 1 * pronto_out $end
$var wire 1 + vez_jogador_out $end
$var wire 1 , timeout_out $end
$var wire 1 - leds_out [3] $end
$var wire 1 . leds_out [2] $end
$var wire 1 / leds_out [1] $end
$var wire 1 0 leds_out [0] $end
$var wire 1 1 db_igual $end
$var wire 1 2 db_contagem [6] $end
$var wire 1 3 db_contagem [5] $end
$var wire 1 4 db_contagem [4] $end
$var wire 1 5 db_contagem [3] $end
$var wire 1 6 db_contagem [2] $end
$var wire 1 7 db_contagem [1] $end
$var wire 1 8 db_contagem [0] $end
$var wire 1 9 db_memoria [6] $end
$var wire 1 : db_memoria [5] $end
$var wire 1 ; db_memoria [4] $end
$var wire 1 < db_memoria [3] $end
$var wire 1 = db_memoria [2] $end
$var wire 1 > db_memoria [1] $end
$var wire 1 ? db_memoria [0] $end
$var wire 1 @ db_estado [6] $end
$var wire 1 A db_estado [5] $end
$var wire 1 B db_estado [4] $end
$var wire 1 C db_estado [3] $end
$var wire 1 D db_estado [2] $end
$var wire 1 E db_estado [1] $end
$var wire 1 F db_estado [0] $end
$var wire 1 G db_jogada [6] $end
$var wire 1 H db_jogada [5] $end
$var wire 1 I db_jogada [4] $end
$var wire 1 J db_jogada [3] $end
$var wire 1 K db_jogada [2] $end
$var wire 1 L db_jogada [1] $end
$var wire 1 M db_jogada [0] $end
$var wire 1 N db_nivel_jogadas $end
$var wire 1 O db_nivel_tempo $end
$var wire 1 P db_clock $end
$var wire 1 Q db_iniciar $end
$var wire 1 R db_tem_jogada $end
$var integer 32 S caso $end
$var integer 32 T cenario $end

$scope task pressChaves $end
$var reg 4 U valor [3:0] $end
$upscope $end

$scope function wait_time $end
$upscope $end

$scope module DUT $end
$var wire 1 V clock $end
$var wire 1 W reset $end
$var wire 1 X iniciar $end
$var wire 1 Y chaves [3] $end
$var wire 1 Z chaves [2] $end
$var wire 1 [ chaves [1] $end
$var wire 1 \ chaves [0] $end
$var wire 1 ] nivel_jogadas $end
$var wire 1 ^ nivel_tempo $end
$var wire 1 ( acertou $end
$var wire 1 ) errou $end
$var wire 1 * pronto $end
$var wire 1 + vez_jogador $end
$var wire 1 , timeout $end
$var wire 1 - leds [3] $end
$var wire 1 . leds [2] $end
$var wire 1 / leds [1] $end
$var wire 1 0 leds [0] $end
$var wire 1 1 db_igual $end
$var wire 1 2 db_contagem [6] $end
$var wire 1 3 db_contagem [5] $end
$var wire 1 4 db_contagem [4] $end
$var wire 1 5 db_contagem [3] $end
$var wire 1 6 db_contagem [2] $end
$var wire 1 7 db_contagem [1] $end
$var wire 1 8 db_contagem [0] $end
$var wire 1 9 db_memoria [6] $end
$var wire 1 : db_memoria [5] $end
$var wire 1 ; db_memoria [4] $end
$var wire 1 < db_memoria [3] $end
$var wire 1 = db_memoria [2] $end
$var wire 1 > db_memoria [1] $end
$var wire 1 ? db_memoria [0] $end
$var wire 1 @ db_estado [6] $end
$var wire 1 A db_estado [5] $end
$var wire 1 B db_estado [4] $end
$var wire 1 C db_estado [3] $end
$var wire 1 D db_estado [2] $end
$var wire 1 E db_estado [1] $end
$var wire 1 F db_estado [0] $end
$var wire 1 G db_jogada [6] $end
$var wire 1 H db_jogada [5] $end
$var wire 1 I db_jogada [4] $end
$var wire 1 J db_jogada [3] $end
$var wire 1 K db_jogada [2] $end
$var wire 1 L db_jogada [1] $end
$var wire 1 M db_jogada [0] $end
$var wire 1 N db_nivel_jogadas $end
$var wire 1 O db_nivel_tempo $end
$var wire 1 P db_clock $end
$var wire 1 Q db_iniciar $end
$var wire 1 R db_tem_jogada $end
$var wire 1 _ contaC $end
$var wire 1 ` contaTempo $end
$var wire 1 a contaTM $end
$var wire 1 b contaCR $end
$var wire 1 c registraR $end
$var wire 1 d registraN $end
$var wire 1 e zeraC $end
$var wire 1 f zeraR $end
$var wire 1 g zeraCR $end
$var wire 1 h zeraTM $end
$var wire 1 i zeraTempo $end
$var wire 1 j ativa_leds $end
$var wire 1 k fimC $end
$var wire 1 l fimCR $end
$var wire 1 m fimTM $end
$var wire 1 n meioTM $end
$var wire 1 o fimTempo $end
$var wire 1 p meioCR $end
$var wire 1 q meioTempo $end
$var wire 1 r enderecoIgualRodada $end
$var wire 1 s jogada_feita $end
$var wire 1 t jogada_correta $end
$var wire 1 u nivel_jogadas_reg $end
$var wire 1 v nivel_tempo_reg $end
$var wire 1 w s_db_contagem [3] $end
$var wire 1 x s_db_contagem [2] $end
$var wire 1 y s_db_contagem [1] $end
$var wire 1 z s_db_contagem [0] $end
$var wire 1 { s_db_jogada [3] $end
$var wire 1 | s_db_jogada [2] $end
$var wire 1 } s_db_jogada [1] $end
$var wire 1 ~ s_db_jogada [0] $end
$var wire 1 !! s_db_memoria [3] $end
$var wire 1 "! s_db_memoria [2] $end
$var wire 1 #! s_db_memoria [1] $end
$var wire 1 $! s_db_memoria [0] $end
$var wire 1 %! s_db_estado [3] $end
$var wire 1 &! s_db_estado [2] $end
$var wire 1 '! s_db_estado [1] $end
$var wire 1 (! s_db_estado [0] $end

$scope module fluxo_dados $end
$var wire 1 V clock $end
$var wire 1 Y chaves [3] $end
$var wire 1 Z chaves [2] $end
$var wire 1 [ chaves [1] $end
$var wire 1 \ chaves [0] $end
$var wire 1 ] nivel_jogadas $end
$var wire 1 ^ nivel_tempo $end
$var wire 1 f zeraR $end
$var wire 1 c registraR $end
$var wire 1 e zeraC $end
$var wire 1 _ contaC $end
$var wire 1 d registraN $end
$var wire 1 ` contaTempo $end
$var wire 1 g zeraCR $end
$var wire 1 i zeraTempo $end
$var wire 1 b contaCR $end
$var wire 1 h zeraTM $end
$var wire 1 a contaTM $end
$var wire 1 j ativa_leds $end
$var wire 1 t jogada_correta $end
$var wire 1 s jogada_feita $end
$var wire 1 u nivel_jogadas_reg $end
$var wire 1 v nivel_tempo_reg $end
$var wire 1 k fimC $end
$var wire 1 p meioCR $end
$var wire 1 o fimTempo $end
$var wire 1 q meioTempo $end
$var wire 1 r enderecoIgualRodada $end
$var wire 1 l fimCR $end
$var wire 1 m fimTM $end
$var wire 1 n meioTM $end
$var wire 1 - leds [3] $end
$var wire 1 . leds [2] $end
$var wire 1 / leds [1] $end
$var wire 1 0 leds [0] $end
$var wire 1 R db_tem_jogada $end
$var wire 1 w db_contagem [3] $end
$var wire 1 x db_contagem [2] $end
$var wire 1 y db_contagem [1] $end
$var wire 1 z db_contagem [0] $end
$var wire 1 { db_jogada [3] $end
$var wire 1 | db_jogada [2] $end
$var wire 1 } db_jogada [1] $end
$var wire 1 ~ db_jogada [0] $end
$var wire 1 !! db_memoria [3] $end
$var wire 1 "! db_memoria [2] $end
$var wire 1 #! db_memoria [1] $end
$var wire 1 $! db_memoria [0] $end
$var wire 1 )! tem_jogada $end
$var wire 1 *! s_memoria [3] $end
$var wire 1 +! s_memoria [2] $end
$var wire 1 ,! s_memoria [1] $end
$var wire 1 -! s_memoria [0] $end
$var wire 1 .! s_endereco [3] $end
$var wire 1 /! s_endereco [2] $end
$var wire 1 0! s_endereco [1] $end
$var wire 1 1! s_endereco [0] $end
$var wire 1 2! s_rodada [3] $end
$var wire 1 3! s_rodada [2] $end
$var wire 1 4! s_rodada [1] $end
$var wire 1 5! s_rodada [0] $end
$var wire 1 6! s_jogada [3] $end
$var wire 1 7! s_jogada [2] $end
$var wire 1 8! s_jogada [1] $end
$var wire 1 9! s_jogada [0] $end

$scope module RegNvlJog $end
$var parameter 32 :! SIZE $end
$var wire 1 V clock $end
$var wire 1 f clear $end
$var wire 1 d enable $end
$var wire 1 ] D [0] $end
$var wire 1 u Q [0] $end
$var reg 1 ;! IQ [0:0] $end
$upscope $end

$scope module RegNvlTime $end
$var parameter 32 <! SIZE $end
$var wire 1 V clock $end
$var wire 1 f clear $end
$var wire 1 d enable $end
$var wire 1 ^ D [0] $end
$var wire 1 v Q [0] $end
$var reg 1 =! IQ [0:0] $end
$upscope $end

$scope module EdgeDetector $end
$var wire 1 V clock $end
$var wire 1 >! reset $end
$var wire 1 )! sinal $end
$var wire 1 s pulso $end
$var reg 1 ?! reg0 $end
$var reg 1 @! reg1 $end
$upscope $end

$scope module ContEnd $end
$var wire 1 V clock $end
$var wire 1 A! clr $end
$var wire 1 B! ld $end
$var wire 1 C! ent $end
$var wire 1 _ enp $end
$var wire 1 D! D [3] $end
$var wire 1 E! D [2] $end
$var wire 1 F! D [1] $end
$var wire 1 G! D [0] $end
$var reg 4 H! Q [3:0] $end
$var reg 1 I! rco $end
$upscope $end

$scope module ContRod $end
$var parameter 32 J! M $end
$var parameter 32 K! N $end
$var wire 1 V clock $end
$var wire 1 L! zera_as $end
$var wire 1 g zera_s $end
$var wire 1 b conta $end
$var reg 4 M! Q [3:0] $end
$var reg 1 N! fim $end
$var reg 1 O! meio $end
$upscope $end

$scope module ContMostra $end
$var parameter 32 P! M $end
$var parameter 32 Q! N $end
$var wire 1 V clock $end
$var wire 1 R! zera_as $end
$var wire 1 h zera_s $end
$var wire 1 a conta $end
$var reg 10 S! Q [9:0] $end
$var reg 1 T! fim $end
$var reg 1 U! meio $end
$upscope $end

$scope module TimerTimeout $end
$var parameter 32 V! M $end
$var parameter 32 W! N $end
$var wire 1 V clock $end
$var wire 1 s zera_as $end
$var wire 1 i zera_s $end
$var wire 1 ` conta $end
$var reg 12 X! Q [11:0] $end
$var reg 1 Y! fim $end
$var reg 1 Z! meio $end
$upscope $end

$scope module MemJog $end
$var wire 1 V clock $end
$var wire 1 .! address [3] $end
$var wire 1 /! address [2] $end
$var wire 1 0! address [1] $end
$var wire 1 1! address [0] $end
$var reg 4 [! data_out [3:0] $end
$upscope $end

$scope module CompJog $end
$var wire 1 *! A [3] $end
$var wire 1 +! A [2] $end
$var wire 1 ,! A [1] $end
$var wire 1 -! A [0] $end
$var wire 1 6! B [3] $end
$var wire 1 7! B [2] $end
$var wire 1 8! B [1] $end
$var wire 1 9! B [0] $end
$var wire 1 \! ALBi $end
$var wire 1 ]! AGBi $end
$var wire 1 ^! AEBi $end
$var wire 1 _! ALBo $end
$var wire 1 `! AGBo $end
$var wire 1 t AEBo $end
$var wire 1 a! CSL [4] $end
$var wire 1 b! CSL [3] $end
$var wire 1 c! CSL [2] $end
$var wire 1 d! CSL [1] $end
$var wire 1 e! CSL [0] $end
$var wire 1 f! CSG [4] $end
$var wire 1 g! CSG [3] $end
$var wire 1 h! CSG [2] $end
$var wire 1 i! CSG [1] $end
$var wire 1 j! CSG [0] $end
$upscope $end

$scope module CompEnd $end
$var wire 1 2! A [3] $end
$var wire 1 3! A [2] $end
$var wire 1 4! A [1] $end
$var wire 1 5! A [0] $end
$var wire 1 .! B [3] $end
$var wire 1 /! B [2] $end
$var wire 1 0! B [1] $end
$var wire 1 1! B [0] $end
$var wire 1 k! ALBi $end
$var wire 1 l! AGBi $end
$var wire 1 m! AEBi $end
$var wire 1 n! ALBo $end
$var wire 1 o! AGBo $end
$var wire 1 r AEBo $end
$var wire 1 p! CSL [4] $end
$var wire 1 q! CSL [3] $end
$var wire 1 r! CSL [2] $end
$var wire 1 s! CSL [1] $end
$var wire 1 t! CSL [0] $end
$var wire 1 u! CSG [4] $end
$var wire 1 v! CSG [3] $end
$var wire 1 w! CSG [2] $end
$var wire 1 x! CSG [1] $end
$var wire 1 y! CSG [0] $end
$upscope $end

$scope module RegChv $end
$var parameter 32 z! SIZE $end
$var wire 1 V clock $end
$var wire 1 f clear $end
$var wire 1 c enable $end
$var wire 1 Y D [3] $end
$var wire 1 Z D [2] $end
$var wire 1 [ D [1] $end
$var wire 1 \ D [0] $end
$var wire 1 6! Q [3] $end
$var wire 1 7! Q [2] $end
$var wire 1 8! Q [1] $end
$var wire 1 9! Q [0] $end
$var reg 4 {! IQ [3:0] $end
$upscope $end
$upscope $end

$scope module unidade_controle $end
$var parameter 4 |! inicial $end
$var parameter 4 }! inicializa_elementos $end
$var parameter 4 ~! inicio_rodada $end
$var parameter 4 !" mostra $end
$var parameter 4 "" espera_mostra $end
$var parameter 4 #" apaga_mostra $end
$var parameter 4 $" mostra_proximo $end
$var parameter 4 %" inicio_jogada $end
$var parameter 4 &" espera_jogada $end
$var parameter 4 '" registra $end
$var parameter 4 (" compara $end
$var parameter 4 )" ganhou $end
$var parameter 4 *" proxima_jogada $end
$var parameter 4 +" proxima_rodada $end
$var parameter 4 ," perdeu $end
$var parameter 4 -" estado_timeout $end
$var wire 1 V clock $end
$var wire 1 W reset $end
$var wire 1 X iniciar $end
$var wire 1 k fimC $end
$var wire 1 m fimTM $end
$var wire 1 n meioTM $end
$var wire 1 l fimCR $end
$var wire 1 p meioCR $end
$var wire 1 s jogada_feita $end
$var wire 1 t jogada_correta $end
$var wire 1 r enderecoIgualRodada $end
$var wire 1 v nivel_tempo $end
$var wire 1 u nivel_jogadas $end
$var wire 1 o fimTempo $end
$var wire 1 q meioTempo $end
$var wire 1 e zeraC $end
$var wire 1 _ contaC $end
$var wire 1 h zeraTM $end
$var wire 1 a contaTM $end
$var wire 1 b contaCR $end
$var wire 1 g zeraCR $end
$var wire 1 ` contaTempo $end
$var wire 1 i zeraTempo $end
$var wire 1 c registraR $end
$var wire 1 f zeraR $end
$var wire 1 d registraN $end
$var wire 1 j ativa_leds $end
$var wire 1 ( acertou $end
$var wire 1 ) errou $end
$var wire 1 * pronto $end
$var wire 1 , timeout $end
$var wire 1 + vez_jogador $end
$var wire 1 %! db_estado [3] $end
$var wire 1 &! db_estado [2] $end
$var wire 1 '! db_estado [1] $end
$var wire 1 (! db_estado [0] $end
$var reg 4 ." Eatual [3:0] $end
$var reg 4 /" Eprox [3:0] $end
$upscope $end

$scope module display_contagem $end
$var wire 1 w hexa [3] $end
$var wire 1 x hexa [2] $end
$var wire 1 y hexa [1] $end
$var wire 1 z hexa [0] $end
$var reg 7 0" display [6:0] $end
$upscope $end

$scope module display_memoria $end
$var wire 1 !! hexa [3] $end
$var wire 1 "! hexa [2] $end
$var wire 1 #! hexa [1] $end
$var wire 1 $! hexa [0] $end
$var reg 7 1" display [6:0] $end
$upscope $end

$scope module display_estado $end
$var wire 1 %! hexa [3] $end
$var wire 1 &! hexa [2] $end
$var wire 1 '! hexa [1] $end
$var wire 1 (! hexa [0] $end
$var reg 7 2" display [6:0] $end
$upscope $end

$scope module display_jogada $end
$var wire 1 { hexa [3] $end
$var wire 1 | hexa [2] $end
$var wire 1 } hexa [1] $end
$var wire 1 ~ hexa [0] $end
$var reg 7 3" display [6:0] $end
$upscope $end
$upscope $end
$upscope $end
$enddefinitions $end
#0
$dumpvars
1"
0#
0$
b0 %
0&
0'
b0 ;!
b0 =!
0?!
x@!
bx H!
0I!
bx M!
xN!
xO!
bx S!
xT!
xU!
bx X!
xY!
xZ!
bx [!
b0 {!
b0 ."
b0 /"
bx 0"
bx 1"
b1000000 2"
b1000000 3"
bx U
b10100 !
b1 :!
b1 <!
b10000 J!
b100 K!
b1111101000 P!
b1010 Q!
b101110111000 V!
b1100 W!
b100 z!
b0 |!
b1 }!
b10 ~!
b11 !"
b100 ""
b1101 #"
b101 $"
b110 %"
b111 &"
b1000 '"
b1001 ("
b1010 )"
b1011 *"
b1100 +"
b1110 ,"
b1111 -"
b0 S
b0 T
0(
0)
0*
0+
0,
00
0/
0.
0-
x1
x8
x7
x6
x5
x4
x3
x2
x?
x>
x=
x<
x;
x:
x9
0F
0E
0D
0C
0B
0A
1@
0M
0L
0K
0J
0I
0H
1G
0N
0O
1P
0Q
0R
0_
0`
0a
0b
0c
0d
0e
1f
0g
0h
0i
0j
0k
xl
xm
xn
xo
xp
xq
xr
0s
xt
0u
0v
xz
xy
xx
xw
0~
0}
0|
0{
x$!
x#!
x"!
x!!
0(!
0'!
0&!
0%!
0)!
x-!
x,!
x+!
x*!
x1!
x0!
x/!
x.!
x5!
x4!
x3!
x2!
09!
08!
07!
06!
xe!
xd!
xc!
xb!
xa!
xj!
xi!
xh!
xg!
xf!
xt!
xs!
xr!
xq!
xp!
xy!
xx!
xw!
xv!
xu!
0^
0]
0\
0[
0Z
0Y
0X
0W
1V
0k!
0l!
1m!
0\!
0]!
1^!
0R!
1C!
1A!
0>!
zB!
zG!
zF!
zE!
zD!
zL!
x_!
x`!
xn!
xo!
$end
#10
0"
0V
0P
#20
b1 T
1"
1V
1P
0@!
#30
0"
0V
0P
1#
1W
#40
1"
1V
1P
#50
0#
b1 S
1$
0"
0W
1X
0V
0P
1Q
b1 /"
#60
1"
1V
1P
b1 ."
1d
1i
1g
1(!
0f
b1111001 2"
b10 /"
1F
1C
1B
1A
#70
0"
0V
0P
#80
1"
1V
1P
b0 M!
b0 X!
b10 ."
05!
04!
03!
02!
0d
0i
1e
0g
0A!
0(!
1'!
b100100 2"
b11 /"
0Y!
0Z!
0N!
0O!
0F
1D
0C
0B
0@
0o
0q
0l
0p
#90
0"
0V
0P
#100
1"
1V
1P
b0 H!
b11 ."
01!
00!
0/!
0.!
1h
0e
1A!
1t!
1s!
1r!
1q!
1p!
1y!
1x!
1w!
1v!
1u!
0o!
0n!
1r
0z
0y
0x
0w
1(!
b110000 2"
b1000000 0"
b100 /"
08
07
06
05
04
03
12
0D
1B
#110
0"
0V
0P
#120
1"
1V
1P
b1 [!
1-!
0,!
0+!
0*!
0e!
1d!
1c!
1b!
1a!
0j!
0i!
0h!
0g!
0f!
1`!
0_!
0t
1$!
0#!
0"!
0!!
01
b1111001 1"
1?
0>
0=
1<
1;
1:
19
b0 S!
b100 ."
1j
1a
0h
10
0(!
0'!
1&!
b11001 2"
b1x0 /"
0T!
0U!
1F
1C
0A
0m
0n
b100 /"
#130
0$
0"
0X
0V
0P
0Q
#140
1"
1V
1P
b1 S!
#150
0"
0V
0P
#160
1"
1V
1P
b10 S!
#170
0"
0V
0P
#180
1"
1V
1P
b11 S!
#190
0"
0V
0P
#200
1"
1V
1P
b100 S!
#210
0"
0V
0P
#220
1"
1V
1P
b101 S!
#230
0"
0V
0P
#240
1"
1V
1P
b110 S!
#250
0"
0V
0P
#260
1"
1V
1P
b111 S!
#270
0"
0V
0P
#280
1"
1V
1P
b1000 S!
#290
0"
0V
0P
#300
1"
1V
1P
b1001 S!
#310
0"
0V
0P
#320
1"
1V
1P
b1010 S!
#330
0"
0V
0P
#340
1"
1V
1P
b1011 S!
#350
0"
0V
0P
#360
1"
1V
1P
b1100 S!
#370
0"
0V
0P
#380
1"
1V
1P
b1101 S!
#390
0"
0V
0P
#400
1"
1V
1P
b1110 S!
#410
0"
0V
0P
#420
1"
1V
1P
b1111 S!
#430
0"
0V
0P
#440
1"
1V
1P
b10000 S!
#450
0"
0V
0P
#460
1"
1V
1P
b10001 S!
#470
0"
0V
0P
#480
1"
1V
1P
b10010 S!
#490
0"
0V
0P
#500
1"
1V
1P
b10011 S!
#510
0"
0V
0P
#520
1"
1V
1P
b10100 S!
#530
0"
0V
0P
#540
1"
1V
1P
b10101 S!
#550
0"
0V
0P
#560
1"
1V
1P
b10110 S!
#570
0"
0V
0P
#580
1"
1V
1P
b10111 S!
#590
0"
0V
0P
#600
1"
1V
1P
b11000 S!
#610
0"
0V
0P
#620
1"
1V
1P
b11001 S!
#630
0"
0V
0P
#640
1"
1V
1P
b11010 S!
#650
0"
0V
0P
#660
1"
1V
1P
b11011 S!
#670
0"
0V
0P
#680
1"
1V
1P
b11100 S!
#690
0"
0V
0P
#700
1"
1V
1P
b11101 S!
#710
0"
0V
0P
#720
1"
1V
1P
b11110 S!
#730
0"
0V
0P
#740
1"
1V
1P
b11111 S!
#750
0"
0V
0P
#760
1"
1V
1P
b100000 S!
#770
0"
0V
0P
#780
1"
1V
1P
b100001 S!
#790
0"
0V
0P
#800
1"
1V
1P
b100010 S!
#810
0"
0V
0P
#820
1"
1V
1P
b100011 S!
#830
0"
0V
0P
#840
1"
1V
1P
b100100 S!
#850
0"
0V
0P
#860
1"
1V
1P
b100101 S!
#870
0"
0V
0P
#880
1"
1V
1P
b100110 S!
#890
0"
0V
0P
#900
1"
1V
1P
b100111 S!
#910
0"
0V
0P
#920
1"
1V
1P
b101000 S!
#930
0"
0V
0P
#940
1"
1V
1P
b101001 S!
#950
0"
0V
0P
#960
1"
1V
1P
b101010 S!
#970
0"
0V
0P
#980
1"
1V
1P
b101011 S!
#990
0"
0V
0P
#1000
1"
1V
1P
b101100 S!
#1010
0"
0V
0P
#1020
1"
1V
1P
b101101 S!
#1030
0"
0V
0P
#1040
1"
1V
1P
b101110 S!
#1050
0"
0V
0P
#1060
1"
1V
1P
b101111 S!
#1070
0"
0V
0P
#1080
1"
1V
1P
b110000 S!
#1090
0"
0V
0P
#1100
1"
1V
1P
b110001 S!
#1110
0"
0V
0P
#1120
1"
1V
1P
b110010 S!
#1130
0"
0V
0P
#1140
1"
1V
1P
b110011 S!
#1150
0"
0V
0P
#1160
1"
1V
1P
b110100 S!
#1170
0"
0V
0P
#1180
1"
1V
1P
b110101 S!
#1190
0"
0V
0P
#1200
1"
1V
1P
b110110 S!
#1210
0"
0V
0P
#1220
1"
1V
1P
b110111 S!
#1230
0"
0V
0P
#1240
1"
1V
1P
b111000 S!
#1250
0"
0V
0P
#1260
1"
1V
1P
b111001 S!
#1270
0"
0V
0P
#1280
1"
1V
1P
b111010 S!
#1290
0"
0V
0P
#1300
1"
1V
1P
b111011 S!
#1310
0"
0V
0P
#1320
1"
1V
1P
b111100 S!
#1330
0"
0V
0P
#1340
1"
1V
1P
b111101 S!
#1350
0"
0V
0P
#1360
1"
1V
1P
b111110 S!
#1370
0"
0V
0P
#1380
1"
1V
1P
b111111 S!
#1390
0"
0V
0P
#1400
1"
1V
1P
b1000000 S!
#1410
0"
0V
0P
#1420
1"
1V
1P
b1000001 S!
#1430
0"
0V
0P
#1440
1"
1V
1P
b1000010 S!
#1450
0"
0V
0P
#1460
1"
1V
1P
b1000011 S!
#1470
0"
0V
0P
#1480
1"
1V
1P
b1000100 S!
#1490
0"
0V
0P
#1500
1"
1V
1P
b1000101 S!
#1510
0"
0V
0P
#1520
1"
1V
1P
b1000110 S!
#1530
0"
0V
0P
#1540
1"
1V
1P
b1000111 S!
#1550
0"
0V
0P
#1560
1"
1V
1P
b1001000 S!
#1570
0"
0V
0P
#1580
1"
1V
1P
b1001001 S!
#1590
0"
0V
0P
#1600
1"
1V
1P
b1001010 S!
#1610
0"
0V
0P
#1620
1"
1V
1P
b1001011 S!
#1630
0"
0V
0P
#1640
1"
1V
1P
b1001100 S!
#1650
0"
0V
0P
#1660
1"
1V
1P
b1001101 S!
#1670
0"
0V
0P
#1680
1"
1V
1P
b1001110 S!
#1690
0"
0V
0P
#1700
1"
1V
1P
b1001111 S!
#1710
0"
0V
0P
#1720
1"
1V
1P
b1010000 S!
#1730
0"
0V
0P
#1740
1"
1V
1P
b1010001 S!
#1750
0"
0V
0P
#1760
1"
1V
1P
b1010010 S!
#1770
0"
0V
0P
#1780
1"
1V
1P
b1010011 S!
#1790
0"
0V
0P
#1800
1"
1V
1P
b1010100 S!
#1810
0"
0V
0P
#1820
1"
1V
1P
b1010101 S!
#1830
0"
0V
0P
#1840
1"
1V
1P
b1010110 S!
#1850
0"
0V
0P
#1860
1"
1V
1P
b1010111 S!
#1870
0"
0V
0P
#1880
1"
1V
1P
b1011000 S!
#1890
0"
0V
0P
#1900
1"
1V
1P
b1011001 S!
#1910
0"
0V
0P
#1920
1"
1V
1P
b1011010 S!
#1930
0"
0V
0P
#1940
1"
1V
1P
b1011011 S!
#1950
0"
0V
0P
#1960
1"
1V
1P
b1011100 S!
#1970
0"
0V
0P
#1980
1"
1V
1P
b1011101 S!
#1990
0"
0V
0P
#2000
1"
1V
1P
b1011110 S!
#2010
0"
0V
0P
#2020
1"
1V
1P
b1011111 S!
#2030
0"
0V
0P
#2040
1"
1V
1P
b1100000 S!
#2050
0"
0V
0P
#2060
1"
1V
1P
b1100001 S!
#2070
0"
0V
0P
#2080
1"
1V
1P
b1100010 S!
#2090
0"
0V
0P
#2100
1"
1V
1P
b1100011 S!
#2110
0"
0V
0P
#2120
1"
1V
1P
b1100100 S!
#2130
0"
0V
0P
#2140
1"
1V
1P
b1100101 S!
#2150
0"
0V
0P
#2160
1"
1V
1P
b1100110 S!
#2170
0"
0V
0P
#2180
1"
1V
1P
b1100111 S!
#2190
0"
0V
0P
#2200
1"
1V
1P
b1101000 S!
#2210
0"
0V
0P
#2220
1"
1V
1P
b1101001 S!
#2230
0"
0V
0P
#2240
1"
1V
1P
b1101010 S!
#2250
0"
0V
0P
#2260
1"
1V
1P
b1101011 S!
#2270
0"
0V
0P
#2280
1"
1V
1P
b1101100 S!
#2290
0"
0V
0P
#2300
1"
1V
1P
b1101101 S!
#2310
0"
0V
0P
#2320
1"
1V
1P
b1101110 S!
#2330
0"
0V
0P
#2340
1"
1V
1P
b1101111 S!
#2350
0"
0V
0P
#2360
1"
1V
1P
b1110000 S!
#2370
0"
0V
0P
#2380
1"
1V
1P
b1110001 S!
#2390
0"
0V
0P
#2400
1"
1V
1P
b1110010 S!
#2410
0"
0V
0P
#2420
1"
1V
1P
b1110011 S!
#2430
0"
0V
0P
#2440
1"
1V
1P
b1110100 S!
#2450
0"
0V
0P
#2460
1"
1V
1P
b1110101 S!
#2470
0"
0V
0P
#2480
1"
1V
1P
b1110110 S!
#2490
0"
0V
0P
#2500
1"
1V
1P
b1110111 S!
#2510
0"
0V
0P
#2520
1"
1V
1P
b1111000 S!
#2530
0"
0V
0P
#2540
1"
1V
1P
b1111001 S!
#2550
0"
0V
0P
#2560
1"
1V
1P
b1111010 S!
#2570
0"
0V
0P
#2580
1"
1V
1P
b1111011 S!
#2590
0"
0V
0P
#2600
1"
1V
1P
b1111100 S!
#2610
0"
0V
0P
#2620
1"
1V
1P
b1111101 S!
#2630
0"
0V
0P
#2640
1"
1V
1P
b1111110 S!
#2650
0"
0V
0P
#2660
1"
1V
1P
b1111111 S!
#2670
0"
0V
0P
#2680
1"
1V
1P
b10000000 S!
#2690
0"
0V
0P
#2700
1"
1V
1P
b10000001 S!
#2710
0"
0V
0P
#2720
1"
1V
1P
b10000010 S!
#2730
0"
0V
0P
#2740
1"
1V
1P
b10000011 S!
#2750
0"
0V
0P
#2760
1"
1V
1P
b10000100 S!
#2770
0"
0V
0P
#2780
1"
1V
1P
b10000101 S!
#2790
0"
0V
0P
#2800
1"
1V
1P
b10000110 S!
#2810
0"
0V
0P
#2820
1"
1V
1P
b10000111 S!
#2830
0"
0V
0P
#2840
1"
1V
1P
b10001000 S!
#2850
0"
0V
0P
#2860
1"
1V
1P
b10001001 S!
#2870
0"
0V
0P
#2880
1"
1V
1P
b10001010 S!
#2890
0"
0V
0P
#2900
1"
1V
1P
b10001011 S!
#2910
0"
0V
0P
#2920
1"
1V
1P
b10001100 S!
#2930
0"
0V
0P
#2940
1"
1V
1P
b10001101 S!
#2950
0"
0V
0P
#2960
1"
1V
1P
b10001110 S!
#2970
0"
0V
0P
#2980
1"
1V
1P
b10001111 S!
#2990
0"
0V
0P
#3000
1"
1V
1P
b10010000 S!
#3010
0"
0V
0P
#3020
1"
1V
1P
b10010001 S!
#3030
0"
0V
0P
#3040
1"
1V
1P
b10010010 S!
#3050
0"
0V
0P
#3060
1"
1V
1P
b10010011 S!
#3070
0"
0V
0P
#3080
1"
1V
1P
b10010100 S!
#3090
0"
0V
0P
#3100
1"
1V
1P
b10010101 S!
#3110
0"
0V
0P
#3120
1"
1V
1P
b10010110 S!
#3130
0"
0V
0P
#3140
1"
1V
1P
b10010111 S!
#3150
0"
0V
0P
#3160
1"
1V
1P
b10011000 S!
#3170
0"
0V
0P
#3180
1"
1V
1P
b10011001 S!
#3190
0"
0V
0P
#3200
1"
1V
1P
b10011010 S!
#3210
0"
0V
0P
#3220
1"
1V
1P
b10011011 S!
#3230
0"
0V
0P
#3240
1"
1V
1P
b10011100 S!
#3250
0"
0V
0P
#3260
1"
1V
1P
b10011101 S!
#3270
0"
0V
0P
#3280
1"
1V
1P
b10011110 S!
#3290
0"
0V
0P
#3300
1"
1V
1P
b10011111 S!
#3310
0"
0V
0P
#3320
1"
1V
1P
b10100000 S!
#3330
0"
0V
0P
#3340
1"
1V
1P
b10100001 S!
#3350
0"
0V
0P
#3360
1"
1V
1P
b10100010 S!
#3370
0"
0V
0P
#3380
1"
1V
1P
b10100011 S!
#3390
0"
0V
0P
#3400
1"
1V
1P
b10100100 S!
#3410
0"
0V
0P
#3420
1"
1V
1P
b10100101 S!
#3430
0"
0V
0P
#3440
1"
1V
1P
b10100110 S!
#3450
0"
0V
0P
#3460
1"
1V
1P
b10100111 S!
#3470
0"
0V
0P
#3480
1"
1V
1P
b10101000 S!
#3490
0"
0V
0P
#3500
1"
1V
1P
b10101001 S!
#3510
0"
0V
0P
#3520
1"
1V
1P
b10101010 S!
#3530
0"
0V
0P
#3540
1"
1V
1P
b10101011 S!
#3550
0"
0V
0P
#3560
1"
1V
1P
b10101100 S!
#3570
0"
0V
0P
#3580
1"
1V
1P
b10101101 S!
#3590
0"
0V
0P
#3600
1"
1V
1P
b10101110 S!
#3610
0"
0V
0P
#3620
1"
1V
1P
b10101111 S!
#3630
0"
0V
0P
#3640
1"
1V
1P
b10110000 S!
#3650
0"
0V
0P
#3660
1"
1V
1P
b10110001 S!
#3670
0"
0V
0P
