waveforms.vcd
$date
	Tue Feb 13 10:45:01 2024
$end
$version
	ModelSim Version 2020.1
$end
$timescale
	1ns
$end

$scope module circuito_exp6_tb $end
$var parameter 32 ! clockPeriod $end
$var reg 1 " clock_in $end
$var reg 1 # reset_in $end
$var reg 1 $ iniciar_in $end
$var reg 4 % chaves_in [3:0] $end
$var reg 1 & nivel_jogadas_in $end
$var reg 1 ' nivel_tempo_in $end
$var wire 1 ( acertou_out $end
$var wire 1 ) errou_out $end
$var wire 1 * pronto_out $end
$var wire 1 + vez_jogador_out $end
$var wire 1 , timeout_out $end
$var wire 1 - leds_out [3] $end
$var wire 1 . leds_out [2] $end
$var wire 1 / leds_out [1] $end
$var wire 1 0 leds_out [0] $end
$var wire 1 1 db_igual $end
$var wire 1 2 db_contagem [6] $end
$var wire 1 3 db_contagem [5] $end
$var wire 1 4 db_contagem [4] $end
$var wire 1 5 db_contagem [3] $end
$var wire 1 6 db_contagem [2] $end
$var wire 1 7 db_contagem [1] $end
$var wire 1 8 db_contagem [0] $end
$var wire 1 9 db_memoria [6] $end
$var wire 1 : db_memoria [5] $end
$var wire 1 ; db_memoria [4] $end
$var wire 1 < db_memoria [3] $end
$var wire 1 = db_memoria [2] $end
$var wire 1 > db_memoria [1] $end
$var wire 1 ? db_memoria [0] $end
$var wire 1 @ db_estado [6] $end
$var wire 1 A db_estado [5] $end
$var wire 1 B db_estado [4] $end
$var wire 1 C db_estado [3] $end
$var wire 1 D db_estado [2] $end
$var wire 1 E db_estado [1] $end
$var wire 1 F db_estado [0] $end
$var wire 1 G db_jogada [6] $end
$var wire 1 H db_jogada [5] $end
$var wire 1 I db_jogada [4] $end
$var wire 1 J db_jogada [3] $end
$var wire 1 K db_jogada [2] $end
$var wire 1 L db_jogada [1] $end
$var wire 1 M db_jogada [0] $end
$var wire 1 N db_nivel_jogadas $end
$var wire 1 O db_nivel_tempo $end
$var wire 1 P db_clock $end
$var wire 1 Q db_iniciar $end
$var wire 1 R db_tem_jogada $end
$var integer 32 S caso $end
$var integer 32 T cenario $end

$scope task pressChaves $end
$var reg 4 U valor [3:0] $end
$upscope $end

$scope module DUT $end
$var wire 1 V clock $end
$var wire 1 W reset $end
$var wire 1 X iniciar $end
$var wire 1 Y chaves [3] $end
$var wire 1 Z chaves [2] $end
$var wire 1 [ chaves [1] $end
$var wire 1 \ chaves [0] $end
$var wire 1 ] nivel_jogadas $end
$var wire 1 ^ nivel_tempo $end
$var wire 1 ( acertou $end
$var wire 1 ) errou $end
$var wire 1 * pronto $end
$var wire 1 + vez_jogador $end
$var wire 1 , timeout $end
$var wire 1 - leds [3] $end
$var wire 1 . leds [2] $end
$var wire 1 / leds [1] $end
$var wire 1 0 leds [0] $end
$var wire 1 1 db_igual $end
$var wire 1 2 db_contagem [6] $end
$var wire 1 3 db_contagem [5] $end
$var wire 1 4 db_contagem [4] $end
$var wire 1 5 db_contagem [3] $end
$var wire 1 6 db_contagem [2] $end
$var wire 1 7 db_contagem [1] $end
$var wire 1 8 db_contagem [0] $end
$var wire 1 9 db_memoria [6] $end
$var wire 1 : db_memoria [5] $end
$var wire 1 ; db_memoria [4] $end
$var wire 1 < db_memoria [3] $end
$var wire 1 = db_memoria [2] $end
$var wire 1 > db_memoria [1] $end
$var wire 1 ? db_memoria [0] $end
$var wire 1 @ db_estado [6] $end
$var wire 1 A db_estado [5] $end
$var wire 1 B db_estado [4] $end
$var wire 1 C db_estado [3] $end
$var wire 1 D db_estado [2] $end
$var wire 1 E db_estado [1] $end
$var wire 1 F db_estado [0] $end
$var wire 1 G db_jogada [6] $end
$var wire 1 H db_jogada [5] $end
$var wire 1 I db_jogada [4] $end
$var wire 1 J db_jogada [3] $end
$var wire 1 K db_jogada [2] $end
$var wire 1 L db_jogada [1] $end
$var wire 1 M db_jogada [0] $end
$var wire 1 N db_nivel_jogadas $end
$var wire 1 O db_nivel_tempo $end
$var wire 1 P db_clock $end
$var wire 1 Q db_iniciar $end
$var wire 1 R db_tem_jogada $end
$var wire 1 _ contaC $end
$var wire 1 ` contaTempo $end
$var wire 1 a contaTM $end
$var wire 1 b contaCR $end
$var wire 1 c registraR $end
$var wire 1 d registraN $end
$var wire 1 e zeraC $end
$var wire 1 f zeraR $end
$var wire 1 g zeraCR $end
$var wire 1 h zeraTM $end
$var wire 1 i zeraTempo $end
$var wire 1 j ativa_leds $end
$var wire 1 k fimC $end
$var wire 1 l fimCR $end
$var wire 1 m fimTM $end
$var wire 1 n fimTempo $end
$var wire 1 o meioCR $end
$var wire 1 p meioTempo $end
$var wire 1 q enderecoIgualRodada $end
$var wire 1 r jogada_feita $end
$var wire 1 s jogada_correta $end
$var wire 1 t nivel_jogadas_reg $end
$var wire 1 u nivel_tempo_reg $end
$var wire 1 v s_db_contagem [3] $end
$var wire 1 w s_db_contagem [2] $end
$var wire 1 x s_db_contagem [1] $end
$var wire 1 y s_db_contagem [0] $end
$var wire 1 z s_db_jogada [3] $end
$var wire 1 { s_db_jogada [2] $end
$var wire 1 | s_db_jogada [1] $end
$var wire 1 } s_db_jogada [0] $end
$var wire 1 ~ s_db_memoria [3] $end
$var wire 1 !! s_db_memoria [2] $end
$var wire 1 "! s_db_memoria [1] $end
$var wire 1 #! s_db_memoria [0] $end
$var wire 1 $! s_db_estado [3] $end
$var wire 1 %! s_db_estado [2] $end
$var wire 1 &! s_db_estado [1] $end
$var wire 1 '! s_db_estado [0] $end

$scope module fluxo_dados $end
$var wire 1 V clock $end
$var wire 1 Y chaves [3] $end
$var wire 1 Z chaves [2] $end
$var wire 1 [ chaves [1] $end
$var wire 1 \ chaves [0] $end
$var wire 1 ] nivel_jogadas $end
$var wire 1 ^ nivel_tempo $end
$var wire 1 f zeraR $end
$var wire 1 c registraR $end
$var wire 1 e zeraC $end
$var wire 1 _ contaC $end
$var wire 1 d registraN $end
$var wire 1 ` contaTempo $end
$var wire 1 g zeraCR $end
$var wire 1 i zeraTempo $end
$var wire 1 b contaCR $end
$var wire 1 h zeraTM $end
$var wire 1 a contaTM $end
$var wire 1 j ativa_leds $end
$var wire 1 s jogada_correta $end
$var wire 1 r jogada_feita $end
$var wire 1 t nivel_jogadas_reg $end
$var wire 1 u nivel_tempo_reg $end
$var wire 1 k fimC $end
$var wire 1 o meioCR $end
$var wire 1 n fimTempo $end
$var wire 1 p meioTempo $end
$var wire 1 q enderecoIgualRodada $end
$var wire 1 l fimCR $end
$var wire 1 m fimTM $end
$var wire 1 - leds [3] $end
$var wire 1 . leds [2] $end
$var wire 1 / leds [1] $end
$var wire 1 0 leds [0] $end
$var wire 1 R db_tem_jogada $end
$var wire 1 v db_contagem [3] $end
$var wire 1 w db_contagem [2] $end
$var wire 1 x db_contagem [1] $end
$var wire 1 y db_contagem [0] $end
$var wire 1 z db_jogada [3] $end
$var wire 1 { db_jogada [2] $end
$var wire 1 | db_jogada [1] $end
$var wire 1 } db_jogada [0] $end
$var wire 1 ~ db_memoria [3] $end
$var wire 1 !! db_memoria [2] $end
$var wire 1 "! db_memoria [1] $end
$var wire 1 #! db_memoria [0] $end
$var wire 1 (! tem_jogada $end
$var wire 1 )! s_memoria [3] $end
$var wire 1 *! s_memoria [2] $end
$var wire 1 +! s_memoria [1] $end
$var wire 1 ,! s_memoria [0] $end
$var wire 1 -! s_endereco [3] $end
$var wire 1 .! s_endereco [2] $end
$var wire 1 /! s_endereco [1] $end
$var wire 1 0! s_endereco [0] $end
$var wire 1 1! s_rodada [3] $end
$var wire 1 2! s_rodada [2] $end
$var wire 1 3! s_rodada [1] $end
$var wire 1 4! s_rodada [0] $end
$var wire 1 5! s_jogada [3] $end
$var wire 1 6! s_jogada [2] $end
$var wire 1 7! s_jogada [1] $end
$var wire 1 8! s_jogada [0] $end

$scope module RegNvlJog $end
$var parameter 32 9! SIZE $end
$var wire 1 V clock $end
$var wire 1 f clear $end
$var wire 1 d enable $end
$var wire 1 ] D [0] $end
$var wire 1 t Q [0] $end
$var reg 1 :! IQ [0:0] $end
$upscope $end

$scope module RegNvlTime $end
$var parameter 32 ;! SIZE $end
$var wire 1 V clock $end
$var wire 1 f clear $end
$var wire 1 d enable $end
$var wire 1 ^ D [0] $end
$var wire 1 u Q [0] $end
$var reg 1 <! IQ [0:0] $end
$upscope $end

$scope module EdgeDetector $end
$var wire 1 V clock $end
$var wire 1 =! reset $end
$var wire 1 (! sinal $end
$var wire 1 r pulso $end
$var reg 1 >! reg0 $end
$var reg 1 ?! reg1 $end
$upscope $end

$scope module ContEnd $end
$var wire 1 V clock $end
$var wire 1 @! clr $end
$var wire 1 A! ld $end
$var wire 1 B! ent $end
$var wire 1 _ enp $end
$var wire 1 C! D [3] $end
$var wire 1 D! D [2] $end
$var wire 1 E! D [1] $end
$var wire 1 F! D [0] $end
$var reg 4 G! Q [3:0] $end
$var reg 1 H! rco $end
$upscope $end

$scope module ContRod $end
$var parameter 32 I! M $end
$var parameter 32 J! N $end
$var wire 1 V clock $end
$var wire 1 K! zera_as $end
$var wire 1 g zera_s $end
$var wire 1 b conta $end
$var reg 4 L! Q [3:0] $end
$var reg 1 M! fim $end
$var reg 1 N! meio $end
$upscope $end

$scope module ContMostra $end
$var parameter 32 O! M $end
$var parameter 32 P! N $end
$var wire 1 V clock $end
$var wire 1 Q! zera_as $end
$var wire 1 h zera_s $end
$var wire 1 a conta $end
$var reg 10 R! Q [9:0] $end
$var reg 1 S! fim $end
$var reg 1 T! meio $end
$upscope $end

$scope module TimerTimeout $end
$var parameter 32 U! M $end
$var parameter 32 V! N $end
$var wire 1 V clock $end
$var wire 1 r zera_as $end
$var wire 1 i zera_s $end
$var wire 1 ` conta $end
$var reg 12 W! Q [11:0] $end
$var reg 1 X! fim $end
$var reg 1 Y! meio $end
$upscope $end

$scope module MemJog $end
$var wire 1 V clock $end
$var wire 1 -! address [3] $end
$var wire 1 .! address [2] $end
$var wire 1 /! address [1] $end
$var wire 1 0! address [0] $end
$var reg 4 Z! data_out [3:0] $end
$upscope $end

$scope module CompJog $end
$var wire 1 )! A [3] $end
$var wire 1 *! A [2] $end
$var wire 1 +! A [1] $end
$var wire 1 ,! A [0] $end
$var wire 1 5! B [3] $end
$var wire 1 6! B [2] $end
$var wire 1 7! B [1] $end
$var wire 1 8! B [0] $end
$var wire 1 [! ALBi $end
$var wire 1 \! AGBi $end
$var wire 1 ]! AEBi $end
$var wire 1 ^! ALBo $end
$var wire 1 _! AGBo $end
$var wire 1 s AEBo $end
$var wire 1 `! CSL [4] $end
$var wire 1 a! CSL [3] $end
$var wire 1 b! CSL [2] $end
$var wire 1 c! CSL [1] $end
$var wire 1 d! CSL [0] $end
$var wire 1 e! CSG [4] $end
$var wire 1 f! CSG [3] $end
$var wire 1 g! CSG [2] $end
$var wire 1 h! CSG [1] $end
$var wire 1 i! CSG [0] $end
$upscope $end

$scope module CompEnd $end
$var wire 1 1! A [3] $end
$var wire 1 2! A [2] $end
$var wire 1 3! A [1] $end
$var wire 1 4! A [0] $end
$var wire 1 -! B [3] $end
$var wire 1 .! B [2] $end
$var wire 1 /! B [1] $end
$var wire 1 0! B [0] $end
$var wire 1 j! ALBi $end
$var wire 1 k! AGBi $end
$var wire 1 l! AEBi $end
$var wire 1 m! ALBo $end
$var wire 1 n! AGBo $end
$var wire 1 q AEBo $end
$var wire 1 o! CSL [4] $end
$var wire 1 p! CSL [3] $end
$var wire 1 q! CSL [2] $end
$var wire 1 r! CSL [1] $end
$var wire 1 s! CSL [0] $end
$var wire 1 t! CSG [4] $end
$var wire 1 u! CSG [3] $end
$var wire 1 v! CSG [2] $end
$var wire 1 w! CSG [1] $end
$var wire 1 x! CSG [0] $end
$upscope $end

$scope module RegChv $end
$var parameter 32 y! SIZE $end
$var wire 1 V clock $end
$var wire 1 f clear $end
$var wire 1 c enable $end
$var wire 1 Y D [3] $end
$var wire 1 Z D [2] $end
$var wire 1 [ D [1] $end
$var wire 1 \ D [0] $end
$var wire 1 5! Q [3] $end
$var wire 1 6! Q [2] $end
$var wire 1 7! Q [1] $end
$var wire 1 8! Q [0] $end
$var reg 4 z! IQ [3:0] $end
$upscope $end
$upscope $end

$scope module unidade_controle $end
$var parameter 4 {! inicial $end
$var parameter 4 |! inicializa_elementos $end
$var parameter 4 }! inicio_rodada $end
$var parameter 4 ~! mostra $end
$var parameter 4 !" espera_mostra $end
$var parameter 4 "" mostra_proximo $end
$var parameter 4 #" inicio_jogada $end
$var parameter 4 $" espera_jogada $end
$var parameter 4 %" registra $end
$var parameter 4 &" compara $end
$var parameter 4 '" ganhou $end
$var parameter 4 (" proxima_jogada $end
$var parameter 4 )" proxima_rodada $end
$var parameter 4 *" perdeu $end
$var parameter 4 +" estado_timeout $end
$var wire 1 V clock $end
$var wire 1 W reset $end
$var wire 1 X iniciar $end
$var wire 1 k fimC $end
$var wire 1 m fimTM $end
$var wire 1 l fimCR $end
$var wire 1 o meioCR $end
$var wire 1 r jogada_feita $end
$var wire 1 s jogada_correta $end
$var wire 1 q enderecoIgualRodada $end
$var wire 1 u nivel_tempo $end
$var wire 1 t nivel_jogadas $end
$var wire 1 n fimTempo $end
$var wire 1 p meioTempo $end
$var wire 1 e zeraC $end
$var wire 1 _ contaC $end
$var wire 1 h zeraTM $end
$var wire 1 a contaTM $end
$var wire 1 b contaCR $end
$var wire 1 g zeraCR $end
$var wire 1 ` contaTempo $end
$var wire 1 i zeraTempo $end
$var wire 1 c registraR $end
$var wire 1 f zeraR $end
$var wire 1 d registraN $end
$var wire 1 j ativa_leds $end
$var wire 1 ( acertou $end
$var wire 1 ) errou $end
$var wire 1 * pronto $end
$var wire 1 , timeout $end
$var wire 1 + vez_jogador $end
$var wire 1 $! db_estado [3] $end
$var wire 1 %! db_estado [2] $end
$var wire 1 &! db_estado [1] $end
$var wire 1 '! db_estado [0] $end
$var reg 4 ," Eatual [3:0] $end
$var reg 4 -" Eprox [3:0] $end
$upscope $end

$scope module display_contagem $end
$var wire 1 v hexa [3] $end
$var wire 1 w hexa [2] $end
$var wire 1 x hexa [1] $end
$var wire 1 y hexa [0] $end
$var reg 7 ." display [6:0] $end
$upscope $end

$scope module display_memoria $end
$var wire 1 ~ hexa [3] $end
$var wire 1 !! hexa [2] $end
$var wire 1 "! hexa [1] $end
$var wire 1 #! hexa [0] $end
$var reg 7 /" display [6:0] $end
$upscope $end

$scope module display_estado $end
$var wire 1 $! hexa [3] $end
$var wire 1 %! hexa [2] $end
$var wire 1 &! hexa [1] $end
$var wire 1 '! hexa [0] $end
$var reg 7 0" display [6:0] $end
$upscope $end

$scope module display_jogada $end
$var wire 1 z hexa [3] $end
$var wire 1 { hexa [2] $end
$var wire 1 | hexa [1] $end
$var wire 1 } hexa [0] $end
$var reg 7 1" display [6:0] $end
$upscope $end
$upscope $end
$upscope $end
$enddefinitions $end
#0
$dumpvars
1"
0#
0$
b0 %
0&
0'
b0 :!
b0 <!
0>!
x?!
bx G!
0H!
bx L!
xM!
xN!
bx R!
xS!
xT!
bx W!
xX!
xY!
bx Z!
b0 z!
b0 ,"
b0 -"
bx ."
bx /"
b1000000 0"
b1000000 1"
bx U
b10100 !
b1 9!
b1 ;!
b10000 I!
b100 J!
b1111101000 O!
b1010 P!
b101110111000 U!
b1100 V!
b100 y!
b0 {!
b1 |!
b10 }!
b11 ~!
b100 !"
b101 ""
b110 #"
b111 $"
b1000 %"
b1001 &"
b1010 '"
b1011 ("
b1100 )"
b1110 *"
b1111 +"
b0 S
b0 T
0(
0)
0*
0+
0,
00
0/
0.
0-
x1
x8
x7
x6
x5
x4
x3
x2
x?
x>
x=
x<
x;
x:
x9
0F
0E
0D
0C
0B
0A
1@
0M
0L
0K
0J
0I
0H
1G
0N
0O
1P
0Q
0R
0_
0`
0a
0b
0c
0d
0e
1f
0g
0h
0i
0j
0k
xl
xm
xn
xo
xp
xq
0r
xs
0t
0u
xy
xx
xw
xv
0}
0|
0{
0z
x#!
x"!
x!!
x~
0'!
0&!
0%!
0$!
0(!
x,!
x+!
x*!
x)!
x0!
x/!
x.!
x-!
x4!
x3!
x2!
x1!
08!
07!
06!
05!
xd!
xc!
xb!
xa!
x`!
xi!
xh!
xg!
xf!
xe!
xs!
xr!
xq!
xp!
xo!
xx!
xw!
xv!
xu!
xt!
0^
0]
0\
0[
0Z
0Y
0X
0W
1V
0j!
0k!
1l!
0[!
0\!
1]!
0Q!
1B!
1@!
0=!
zA!
zF!
zE!
zD!
zC!
zK!
x^!
x_!
xm!
xn!
$end
#10
0"
0V
0P
#20
b1 T
1"
1V
1P
0?!
#30
0"
0V
0P
1#
1W
#40
1"
1V
1P
#50
0#
b1 S
1$
0"
0W
1X
0V
0P
1Q
b1 -"
#60
1"
1V
1P
b1 ,"
1d
1i
1g
1'!
0f
b1111001 0"
b10 -"
1F
1C
1B
1A
#70
0"
0V
0P
#80
1"
1V
1P
b0 L!
b0 W!
b10 ,"
04!
03!
02!
01!
0d
0i
1e
0g
0@!
0'!
1&!
b100100 0"
b11 -"
0X!
0Y!
0M!
0N!
0F
1D
0C
0B
0@
0n
0p
0l
0o
#90
0"
0V
0P
#100
1"
1V
1P
b0 G!
b11 ,"
00!
0/!
0.!
0-!
1h
0e
1@!
1s!
1r!
1q!
1p!
1o!
1x!
1w!
1v!
1u!
1t!
0n!
0m!
1q
0y
0x
0w
0v
1'!
b110000 0"
b1000000 ."
b100 -"
08
07
06
05
04
03
12
0D
1B
#110
0"
0V
0P
#120
1"
1V
1P
b1 Z!
1,!
0+!
0*!
0)!
0d!
1c!
1b!
1a!
1`!
0i!
0h!
0g!
0f!
0e!
1_!
0^!
0s
1#!
0"!
0!!
0~
01
b1111001 /"
1?
0>
0=
1<
1;
1:
19
b0 R!
b100 ,"
1j
1a
0h
10
0'!
0&!
1%!
b11001 0"
b1x0 -"
0S!
0T!
1F
1C
0A
0m
b100 -"
#130
0$
0"
0X
0V
0P
0Q
#140
1"
1V
1P
b1 R!
#150
0"
0V
0P
#160
1"
1V
1P
b10 R!
#170
0"
0V
0P
#180
1"
1V
1P
b11 R!
#190
0"
0V
0P
#200
1"
1V
1P
b100 R!
#210
0"
0V
0P
#220
1"
1V
1P
b101 R!
#230
0"
0V
0P
#240
1"
1V
1P
b110 R!
#250
0"
0V
0P
#260
1"
1V
1P
b111 R!
#270
0"
0V
0P
#280
1"
1V
1P
b1000 R!
#290
0"
0V
0P
#300
1"
1V
1P
b1001 R!
#310
0"
0V
0P
#320
1"
1V
1P
b1010 R!
#330
0"
0V
0P
#340
1"
1V
1P
b1011 R!
#350
0"
0V
0P
#360
1"
1V
1P
b1100 R!
#370
0"
0V
0P
#380
1"
1V
1P
b1101 R!
#390
0"
0V
0P
#400
1"
1V
1P
b1110 R!
#410
0"
0V
0P
#420
1"
1V
1P
b1111 R!
#430
0"
0V
0P
#440
1"
1V
1P
b10000 R!
#450
0"
0V
0P
#460
1"
1V
1P
b10001 R!
#470
0"
0V
0P
#480
1"
1V
1P
b10010 R!
#490
0"
0V
0P
#500
1"
1V
1P
b10011 R!
#510
0"
0V
0P
#520
1"
1V
1P
b10100 R!
#530
0"
0V
0P
#540
1"
1V
1P
b10101 R!
#550
0"
0V
0P
#560
1"
1V
1P
b10110 R!
#570
0"
0V
0P
#580
1"
1V
1P
b10111 R!
#590
0"
0V
0P
#600
1"
1V
1P
b11000 R!
#610
0"
0V
0P
#620
1"
1V
1P
b11001 R!
#630
0"
0V
0P
#640
1"
1V
1P
b11010 R!
#650
0"
0V
0P
#660
1"
1V
1P
b11011 R!
#670
0"
0V
0P
#680
1"
1V
1P
b11100 R!
#690
0"
0V
0P
#700
1"
1V
1P
b11101 R!
#710
0"
0V
0P
#720
1"
1V
1P
b11110 R!
#730
0"
0V
0P
#740
1"
1V
1P
b11111 R!
#750
0"
0V
0P
#760
1"
1V
1P
b100000 R!
#770
0"
0V
0P
#780
1"
1V
1P
b100001 R!
#790
0"
0V
0P
#800
1"
1V
1P
b100010 R!
#810
0"
0V
0P
#820
1"
1V
1P
b100011 R!
#830
0"
0V
0P
#840
1"
1V
1P
b100100 R!
#850
0"
0V
0P
#860
1"
1V
1P
b100101 R!
#870
0"
0V
0P
#880
1"
1V
1P
b100110 R!
#890
0"
0V
0P
#900
1"
1V
1P
b100111 R!
#910
0"
0V
0P
#920
1"
1V
1P
b101000 R!
#930
0"
0V
0P
#940
1"
1V
1P
b101001 R!
#950
0"
0V
0P
#960
1"
1V
1P
b101010 R!
#970
0"
0V
0P
#980
1"
1V
1P
b101011 R!
#990
0"
0V
0P
#1000
1"
1V
1P
b101100 R!
#1010
0"
0V
0P
#1020
1"
1V
1P
b101101 R!
#1030
0"
0V
0P
#1040
1"
1V
1P
b101110 R!
#1050
0"
0V
0P
#1060
1"
1V
1P
b101111 R!
#1070
0"
0V
0P
#1080
1"
1V
1P
b110000 R!
#1090
0"
0V
0P
#1100
1"
1V
1P
b110001 R!
#1110
0"
0V
0P
#1120
1"
1V
1P
b110010 R!
#1130
0"
0V
0P
#1140
1"
1V
1P
b110011 R!
#1150
0"
0V
0P
#1160
1"
1V
1P
b110100 R!
#1170
0"
0V
0P
#1180
1"
1V
1P
b110101 R!
#1190
0"
0V
0P
#1200
1"
1V
1P
b110110 R!
#1210
0"
0V
0P
#1220
1"
1V
1P
b110111 R!
#1230
0"
0V
0P
#1240
1"
1V
1P
b111000 R!
#1250
0"
0V
0P
#1260
1"
1V
1P
b111001 R!
#1270
0"
0V
0P
#1280
1"
1V
1P
b111010 R!
#1290
0"
0V
0P
#1300
1"
1V
1P
b111011 R!
#1310
0"
0V
0P
#1320
1"
1V
1P
b111100 R!
#1330
0"
0V
0P
#1340
1"
1V
1P
b111101 R!
#1350
0"
0V
0P
#1360
1"
1V
1P
b111110 R!
#1370
0"
0V
0P
#1380
1"
1V
1P
b111111 R!
#1390
0"
0V
0P
#1400
1"
1V
1P
b1000000 R!
#1410
0"
0V
0P
#1420
1"
1V
1P
b1000001 R!
#1430
0"
0V
0P
#1440
1"
1V
1P
b1000010 R!
#1450
0"
0V
0P
#1460
1"
1V
1P
b1000011 R!
#1470
0"
0V
0P
#1480
1"
1V
1P
b1000100 R!
#1490
0"
0V
0P
#1500
1"
1V
1P
b1000101 R!
#1510
0"
0V
0P
#1520
1"
1V
1P
b1000110 R!
#1530
0"
0V
0P
#1540
1"
1V
1P
b1000111 R!
#1550
0"
0V
0P
#1560
1"
1V
1P
b1001000 R!
#1570
0"
0V
0P
#1580
1"
1V
1P
b1001001 R!
#1590
0"
0V
0P
#1600
1"
1V
1P
b1001010 R!
#1610
0"
0V
0P
#1620
1"
1V
1P
b1001011 R!
#1630
0"
0V
0P
#1640
1"
1V
1P
b1001100 R!
#1650
0"
0V
0P
#1660
1"
1V
1P
b1001101 R!
#1670
0"
0V
0P
#1680
1"
1V
1P
b1001110 R!
#1690
0"
0V
0P
#1700
1"
1V
1P
b1001111 R!
#1710
0"
0V
0P
#1720
1"
1V
1P
b1010000 R!
#1730
0"
0V
0P
#1740
1"
1V
1P
b1010001 R!
#1750
0"
0V
0P
#1760
1"
1V
1P
b1010010 R!
#1770
0"
0V
0P
#1780
1"
1V
1P
b1010011 R!
#1790
0"
0V
0P
#1800
1"
1V
1P
b1010100 R!
#1810
0"
0V
0P
#1820
1"
1V
1P
b1010101 R!
#1830
0"
0V
0P
#1840
1"
1V
1P
b1010110 R!
#1850
0"
0V
0P
#1860
1"
1V
1P
b1010111 R!
#1870
0"
0V
0P
#1880
1"
1V
1P
b1011000 R!
#1890
0"
0V
0P
#1900
1"
1V
1P
b1011001 R!
#1910
0"
0V
0P
#1920
1"
1V
1P
b1011010 R!
#1930
0"
0V
0P
#1940
1"
1V
1P
b1011011 R!
#1950
0"
0V
0P
#1960
1"
1V
1P
b1011100 R!
#1970
0"
0V
0P
#1980
1"
1V
1P
b1011101 R!
#1990
0"
0V
0P
#2000
1"
1V
1P
b1011110 R!
#2010
0"
0V
0P
#2020
1"
1V
1P
b1011111 R!
#2030
0"
0V
0P
#2040
1"
1V
1P
b1100000 R!
#2050
0"
0V
0P
#2060
1"
1V
1P
b1100001 R!
#2070
0"
0V
0P
#2080
1"
1V
1P
b1100010 R!
#2090
0"
0V
0P
#2100
1"
1V
1P
b1100011 R!
#2110
0"
0V
0P
#2120
1"
1V
1P
b1100100 R!
#2130
0"
0V
0P
#2140
1"
1V
1P
b1100101 R!
#2150
0"
0V
0P
#2160
1"
1V
1P
b1100110 R!
#2170
0"
0V
0P
#2180
1"
1V
1P
b1100111 R!
#2190
0"
0V
0P
#2200
1"
1V
1P
b1101000 R!
#2210
0"
0V
0P
#2220
1"
1V
1P
b1101001 R!
#2230
0"
0V
0P
#2240
1"
1V
1P
b1101010 R!
#2250
0"
0V
0P
#2260
1"
1V
1P
b1101011 R!
#2270
0"
0V
0P
#2280
1"
1V
1P
b1101100 R!
#2290
0"
0V
0P
#2300
1"
1V
1P
b1101101 R!
#2310
0"
0V
0P
#2320
1"
1V
1P
b1101110 R!
#2330
0"
0V
0P
#2340
1"
1V
1P
b1101111 R!
#2350
0"
0V
0P
#2360
1"
1V
1P
b1110000 R!
#2370
0"
0V
0P
#2380
1"
1V
1P
b1110001 R!
#2390
0"
0V
0P
#2400
1"
1V
1P
b1110010 R!
#2410
0"
0V
0P
#2420
1"
1V
1P
b1110011 R!
#2430
0"
0V
0P
#2440
1"
1V
1P
b1110100 R!
#2450
0"
0V
0P
#2460
1"
1V
1P
b1110101 R!
#2470
0"
0V
0P
#2480
1"
1V
1P
b1110110 R!
#2490
0"
0V
0P
#2500
1"
1V
1P
b1110111 R!
#2510
0"
0V
0P
#2520
1"
1V
1P
b1111000 R!
#2530
0"
0V
0P
#2540
1"
1V
1P
b1111001 R!
#2550
0"
0V
0P
#2560
1"
1V
1P
b1111010 R!
#2570
0"
0V
0P
#2580
1"
1V
1P
b1111011 R!
#2590
0"
0V
0P
#2600
1"
1V
1P
b1111100 R!
#2610
0"
0V
0P
#2620
1"
1V
1P
b1111101 R!
#2630
0"
0V
0P
#2640
1"
1V
1P
b1111110 R!
#2650
0"
0V
0P
#2660
1"
1V
1P
b1111111 R!
#2670
0"
0V
0P
#2680
1"
1V
1P
b10000000 R!
#2690
0"
0V
0P
#2700
1"
1V
1P
b10000001 R!
#2710
0"
0V
0P
#2720
1"
1V
1P
b10000010 R!
#2730
0"
0V
0P
#2740
1"
1V
1P
b10000011 R!
#2750
0"
0V
0P
#2760
1"
1V
1P
b10000100 R!
#2770
0"
0V
0P
#2780
1"
1V
1P
b10000101 R!
#2790
0"
0V
0P
#2800
1"
1V
1P
b10000110 R!
#2810
0"
0V
0P
#2820
1"
1V
1P
b10000111 R!
#2830
0"
0V
0P
#2840
1"
1V
1P
b10001000 R!
#2850
0"
0V
0P
#2860
1"
1V
1P
b10001001 R!
#2870
0"
0V
0P
#2880
1"
1V
1P
b10001010 R!
#2890
0"
0V
0P
#2900
1"
1V
1P
b10001011 R!
#2910
0"
0V
0P
#2920
1"
1V
1P
b10001100 R!
#2930
0"
0V
0P
#2940
1"
1V
1P
b10001101 R!
#2950
0"
0V
0P
#2960
1"
1V
1P
b10001110 R!
#2970
0"
0V
0P
#2980
1"
1V
1P
b10001111 R!
#2990
0"
0V
0P
#3000
1"
1V
1P
b10010000 R!
#3010
0"
0V
0P
#3020
1"
1V
1P
b10010001 R!
#3030
0"
0V
0P
#3040
1"
1V
1P
b10010010 R!
#3050
0"
0V
0P
#3060
1"
1V
1P
b10010011 R!
#3070
0"
0V
0P
#3080
1"
1V
1P
b10010100 R!
#3090
0"
0V
0P
#3100
1"
1V
1P
b10010101 R!
#3110
0"
0V
0P
#3120
1"
1V
1P
b10010110 R!
#3130
0"
0V
0P
#3140
1"
1V
1P
b10010111 R!
#3150
0"
0V
0P
#3160
1"
1V
1P
b10011000 R!
#3170
0"
0V
0P
#3180
1"
1V
1P
b10011001 R!
#3190
0"
0V
0P
#3200
1"
1V
1P
b10011010 R!
#3210
0"
0V
0P
#3220
1"
1V
1P
b10011011 R!
#3230
0"
0V
0P
#3240
1"
1V
1P
b10011100 R!
#3250
0"
0V
0P
#3260
1"
1V
1P
b10011101 R!
#3270
0"
0V
0P
#3280
1"
1V
1P
b10011110 R!
#3290
0"
0V
0P
#3300
1"
1V
1P
b10011111 R!
#3310
0"
0V
0P
#3320
1"
1V
1P
b10100000 R!
#3330
0"
0V
0P
#3340
1"
1V
1P
b10100001 R!
#3350
0"
0V
0P
#3360
1"
1V
1P
b10100010 R!
#3370
0"
0V
0P
#3380
1"
1V
1P
b10100011 R!
#3390
0"
0V
0P
#3400
1"
1V
1P
b10100100 R!
#3410
0"
0V
0P
#3420
1"
1V
1P
b10100101 R!
#3430
0"
0V
0P
#3440
1"
1V
1P
b10100110 R!
#3450
0"
0V
0P
#3460
1"
1V
1P
b10100111 R!
#3470
0"
0V
0P
#3480
1"
1V
1P
b10101000 R!
#3490
0"
0V
0P
#3500
1"
1V
1P
b10101001 R!
#3510
0"
0V
0P
#3520
1"
1V
1P
b10101010 R!
#3530
0"
0V
0P
#3540
1"
1V
1P
b10101011 R!
#3550
0"
0V
0P
#3560
1"
1V
1P
b10101100 R!
#3570
0"
0V
0P
#3580
1"
1V
1P
b10101101 R!
#3590
0"
0V
0P
#3600
1"
1V
1P
b10101110 R!
#3610
0"
0V
0P
#3620
1"
1V
1P
b10101111 R!
#3630
0"
0V
0P
#3640
1"
1V
1P
b10110000 R!
#3650
0"
0V
0P
#3660
1"
1V
1P
b10110001 R!
#3670
0"
0V
0P
#3680
1"
1V
1P
b10110010 R!
#3690
0"
0V
0P
#3700
1"
1V
1P
b10110011 R!
#3710
0"
0V
0P
#3720
1"
1V
1P
b10110100 R!
#3730
0"
0V
0P
