waveforms.vcd
$date
	Tue Feb 13 17:06:58 2024
$end
$version
	ModelSim Version 2020.1
$end
$timescale
	1ns
$end

$scope module circuito_exp6_tb $end
$var parameter 32 ! clockPeriod $end
$var reg 1 " clock_in $end
$var reg 1 # reset_in $end
$var reg 1 $ iniciar_in $end
$var reg 4 % botoes_in [3:0] $end
$var reg 1 & nivel_jogadas_in $end
$var reg 1 ' nivel_tempo_in $end
$var wire 1 ( ganhou_out $end
$var wire 1 ) perdeu_out $end
$var wire 1 * pronto_out $end
$var wire 1 + vez_jogador_out $end
$var wire 1 , leds_out [3] $end
$var wire 1 - leds_out [2] $end
$var wire 1 . leds_out [1] $end
$var wire 1 / leds_out [0] $end
$var wire 1 0 db_jogada_correta $end
$var wire 1 1 db_contagem [6] $end
$var wire 1 2 db_contagem [5] $end
$var wire 1 3 db_contagem [4] $end
$var wire 1 4 db_contagem [3] $end
$var wire 1 5 db_contagem [2] $end
$var wire 1 6 db_contagem [1] $end
$var wire 1 7 db_contagem [0] $end
$var wire 1 8 db_memoria [6] $end
$var wire 1 9 db_memoria [5] $end
$var wire 1 : db_memoria [4] $end
$var wire 1 ; db_memoria [3] $end
$var wire 1 < db_memoria [2] $end
$var wire 1 = db_memoria [1] $end
$var wire 1 > db_memoria [0] $end
$var wire 1 ? db_estado [6] $end
$var wire 1 @ db_estado [5] $end
$var wire 1 A db_estado [4] $end
$var wire 1 B db_estado [3] $end
$var wire 1 C db_estado [2] $end
$var wire 1 D db_estado [1] $end
$var wire 1 E db_estado [0] $end
$var wire 1 F db_jogada [6] $end
$var wire 1 G db_jogada [5] $end
$var wire 1 H db_jogada [4] $end
$var wire 1 I db_jogada [3] $end
$var wire 1 J db_jogada [2] $end
$var wire 1 K db_jogada [1] $end
$var wire 1 L db_jogada [0] $end
$var wire 1 M db_nivel_jogadas $end
$var wire 1 N db_nivel_tempo $end
$var wire 1 O db_clock $end
$var wire 1 P db_enderecoIgualRodada $end
$var wire 1 Q db_timeout $end
$var wire 1 R db_rodada $end
$var integer 32 S caso $end
$var integer 32 T cenario $end

$scope task press_botoes $end
$var reg 4 U valor [3:0] $end
$upscope $end

$scope function wait_time $end
$upscope $end

$scope task acerta_valores $end
$var reg 4 V quantidade [3:0] $end

$scope begin corpo_task $end
$var integer 32 W i $end
$upscope $end
$upscope $end

$scope module DUT $end
$var wire 1 X clock $end
$var wire 1 Y reset $end
$var wire 1 Z iniciar $end
$var wire 1 [ botoes [3] $end
$var wire 1 \ botoes [2] $end
$var wire 1 ] botoes [1] $end
$var wire 1 ^ botoes [0] $end
$var wire 1 _ nivel_jogadas $end
$var wire 1 ` nivel_tempo $end
$var wire 1 ( ganhou $end
$var wire 1 ) perdeu $end
$var wire 1 * pronto $end
$var wire 1 + vez_jogador $end
$var wire 1 , leds [3] $end
$var wire 1 - leds [2] $end
$var wire 1 . leds [1] $end
$var wire 1 / leds [0] $end
$var wire 1 0 db_jogada_correta $end
$var wire 1 1 db_contagem [6] $end
$var wire 1 2 db_contagem [5] $end
$var wire 1 3 db_contagem [4] $end
$var wire 1 4 db_contagem [3] $end
$var wire 1 5 db_contagem [2] $end
$var wire 1 6 db_contagem [1] $end
$var wire 1 7 db_contagem [0] $end
$var wire 1 8 db_memoria [6] $end
$var wire 1 9 db_memoria [5] $end
$var wire 1 : db_memoria [4] $end
$var wire 1 ; db_memoria [3] $end
$var wire 1 < db_memoria [2] $end
$var wire 1 = db_memoria [1] $end
$var wire 1 > db_memoria [0] $end
$var wire 1 ? db_estado [6] $end
$var wire 1 @ db_estado [5] $end
$var wire 1 A db_estado [4] $end
$var wire 1 B db_estado [3] $end
$var wire 1 C db_estado [2] $end
$var wire 1 D db_estado [1] $end
$var wire 1 E db_estado [0] $end
$var wire 1 F db_jogada [6] $end
$var wire 1 G db_jogada [5] $end
$var wire 1 H db_jogada [4] $end
$var wire 1 I db_jogada [3] $end
$var wire 1 J db_jogada [2] $end
$var wire 1 K db_jogada [1] $end
$var wire 1 L db_jogada [0] $end
$var wire 1 a db_rodada [6] $end
$var wire 1 b db_rodada [5] $end
$var wire 1 c db_rodada [4] $end
$var wire 1 d db_rodada [3] $end
$var wire 1 e db_rodada [2] $end
$var wire 1 f db_rodada [1] $end
$var wire 1 R db_rodada [0] $end
$var wire 1 M db_nivel_jogadas $end
$var wire 1 N db_nivel_tempo $end
$var wire 1 O db_clock $end
$var wire 1 Q db_timeout $end
$var wire 1 P db_enderecoIgualRodada $end
$var wire 1 g contaC $end
$var wire 1 h contaTempo $end
$var wire 1 i contaTM $end
$var wire 1 j contaCR $end
$var wire 1 k registraR $end
$var wire 1 l registraN $end
$var wire 1 m zeraC $end
$var wire 1 n zeraR $end
$var wire 1 o zeraCR $end
$var wire 1 p zeraTM $end
$var wire 1 q zeraTempo $end
$var wire 1 r ativa_leds $end
$var wire 1 s fimC $end
$var wire 1 t fimCR $end
$var wire 1 u fimTM $end
$var wire 1 v meioTM $end
$var wire 1 w fimTempo $end
$var wire 1 x meioCR $end
$var wire 1 y meioTempo $end
$var wire 1 z enderecoIgualRodada $end
$var wire 1 { jogada_feita $end
$var wire 1 | jogada_correta $end
$var wire 1 } nivel_jogadas_reg $end
$var wire 1 ~ nivel_tempo_reg $end
$var wire 1 !! s_db_contagem [3] $end
$var wire 1 "! s_db_contagem [2] $end
$var wire 1 #! s_db_contagem [1] $end
$var wire 1 $! s_db_contagem [0] $end
$var wire 1 %! s_db_jogada [3] $end
$var wire 1 &! s_db_jogada [2] $end
$var wire 1 '! s_db_jogada [1] $end
$var wire 1 (! s_db_jogada [0] $end
$var wire 1 )! s_db_memoria [3] $end
$var wire 1 *! s_db_memoria [2] $end
$var wire 1 +! s_db_memoria [1] $end
$var wire 1 ,! s_db_memoria [0] $end
$var wire 1 -! s_db_rodada [3] $end
$var wire 1 .! s_db_rodada [2] $end
$var wire 1 /! s_db_rodada [1] $end
$var wire 1 0! s_db_rodada [0] $end
$var wire 1 1! s_db_estado [3] $end
$var wire 1 2! s_db_estado [2] $end
$var wire 1 3! s_db_estado [1] $end
$var wire 1 4! s_db_estado [0] $end

$scope module fluxo_dados $end
$var wire 1 X clock $end
$var wire 1 [ botoes [3] $end
$var wire 1 \ botoes [2] $end
$var wire 1 ] botoes [1] $end
$var wire 1 ^ botoes [0] $end
$var wire 1 _ nivel_jogadas $end
$var wire 1 ` nivel_tempo $end
$var wire 1 n zeraR $end
$var wire 1 k registraR $end
$var wire 1 m zeraC $end
$var wire 1 g contaC $end
$var wire 1 l registraN $end
$var wire 1 h contaTempo $end
$var wire 1 o zeraCR $end
$var wire 1 q zeraTempo $end
$var wire 1 j contaCR $end
$var wire 1 p zeraTM $end
$var wire 1 i contaTM $end
$var wire 1 r ativa_leds $end
$var wire 1 | jogada_correta $end
$var wire 1 { jogada_feita $end
$var wire 1 } nivel_jogadas_reg $end
$var wire 1 ~ nivel_tempo_reg $end
$var wire 1 s fimC $end
$var wire 1 x meioCR $end
$var wire 1 w fimTempo $end
$var wire 1 y meioTempo $end
$var wire 1 z enderecoIgualRodada $end
$var wire 1 t fimCR $end
$var wire 1 u fimTM $end
$var wire 1 v meioTM $end
$var wire 1 , leds [3] $end
$var wire 1 - leds [2] $end
$var wire 1 . leds [1] $end
$var wire 1 / leds [0] $end
$var wire 1 !! db_contagem [3] $end
$var wire 1 "! db_contagem [2] $end
$var wire 1 #! db_contagem [1] $end
$var wire 1 $! db_contagem [0] $end
$var wire 1 %! db_jogada [3] $end
$var wire 1 &! db_jogada [2] $end
$var wire 1 '! db_jogada [1] $end
$var wire 1 (! db_jogada [0] $end
$var wire 1 )! db_memoria [3] $end
$var wire 1 *! db_memoria [2] $end
$var wire 1 +! db_memoria [1] $end
$var wire 1 ,! db_memoria [0] $end
$var wire 1 -! db_rodada [3] $end
$var wire 1 .! db_rodada [2] $end
$var wire 1 /! db_rodada [1] $end
$var wire 1 0! db_rodada [0] $end
$var wire 1 5! tem_jogada $end
$var wire 1 6! s_memoria [3] $end
$var wire 1 7! s_memoria [2] $end
$var wire 1 8! s_memoria [1] $end
$var wire 1 9! s_memoria [0] $end
$var wire 1 :! s_endereco [3] $end
$var wire 1 ;! s_endereco [2] $end
$var wire 1 <! s_endereco [1] $end
$var wire 1 =! s_endereco [0] $end
$var wire 1 >! s_rodada [3] $end
$var wire 1 ?! s_rodada [2] $end
$var wire 1 @! s_rodada [1] $end
$var wire 1 A! s_rodada [0] $end
$var wire 1 B! s_jogada [3] $end
$var wire 1 C! s_jogada [2] $end
$var wire 1 D! s_jogada [1] $end
$var wire 1 E! s_jogada [0] $end

$scope module RegNvlJog $end
$var parameter 32 F! SIZE $end
$var wire 1 X clock $end
$var wire 1 n clear $end
$var wire 1 l enable $end
$var wire 1 _ D [0] $end
$var wire 1 } Q [0] $end
$var reg 1 G! IQ [0:0] $end
$upscope $end

$scope module RegNvlTime $end
$var parameter 32 H! SIZE $end
$var wire 1 X clock $end
$var wire 1 n clear $end
$var wire 1 l enable $end
$var wire 1 ` D [0] $end
$var wire 1 ~ Q [0] $end
$var reg 1 I! IQ [0:0] $end
$upscope $end

$scope module EdgeDetector $end
$var wire 1 X clock $end
$var wire 1 J! reset $end
$var wire 1 5! sinal $end
$var wire 1 { pulso $end
$var reg 1 K! reg0 $end
$var reg 1 L! reg1 $end
$upscope $end

$scope module ContEnd $end
$var wire 1 X clock $end
$var wire 1 M! clr $end
$var wire 1 N! ld $end
$var wire 1 O! ent $end
$var wire 1 g enp $end
$var wire 1 P! D [3] $end
$var wire 1 Q! D [2] $end
$var wire 1 R! D [1] $end
$var wire 1 S! D [0] $end
$var reg 4 T! Q [3:0] $end
$var reg 1 U! rco $end
$upscope $end

$scope module ContRod $end
$var parameter 32 V! M $end
$var parameter 32 W! N $end
$var wire 1 X clock $end
$var wire 1 X! zera_as $end
$var wire 1 o zera_s $end
$var wire 1 j conta $end
$var reg 4 Y! Q [3:0] $end
$var reg 1 Z! fim $end
$var reg 1 [! meio $end
$upscope $end

$scope module ContMostra $end
$var parameter 32 \! M $end
$var parameter 32 ]! N $end
$var wire 1 X clock $end
$var wire 1 ^! zera_as $end
$var wire 1 p zera_s $end
$var wire 1 i conta $end
$var reg 10 _! Q [9:0] $end
$var reg 1 `! fim $end
$var reg 1 a! meio $end
$upscope $end

$scope module TimerTimeout $end
$var parameter 32 b! M $end
$var parameter 32 c! N $end
$var wire 1 X clock $end
$var wire 1 { zera_as $end
$var wire 1 q zera_s $end
$var wire 1 h conta $end
$var reg 12 d! Q [11:0] $end
$var reg 1 e! fim $end
$var reg 1 f! meio $end
$upscope $end

$scope module MemJog $end
$var wire 1 X clock $end
$var wire 1 :! address [3] $end
$var wire 1 ;! address [2] $end
$var wire 1 <! address [1] $end
$var wire 1 =! address [0] $end
$var reg 4 g! data_out [3:0] $end
$upscope $end

$scope module CompJog $end
$var wire 1 6! A [3] $end
$var wire 1 7! A [2] $end
$var wire 1 8! A [1] $end
$var wire 1 9! A [0] $end
$var wire 1 B! B [3] $end
$var wire 1 C! B [2] $end
$var wire 1 D! B [1] $end
$var wire 1 E! B [0] $end
$var wire 1 h! ALBi $end
$var wire 1 i! AGBi $end
$var wire 1 j! AEBi $end
$var wire 1 k! ALBo $end
$var wire 1 l! AGBo $end
$var wire 1 | AEBo $end
$var wire 1 m! CSL [4] $end
$var wire 1 n! CSL [3] $end
$var wire 1 o! CSL [2] $end
$var wire 1 p! CSL [1] $end
$var wire 1 q! CSL [0] $end
$var wire 1 r! CSG [4] $end
$var wire 1 s! CSG [3] $end
$var wire 1 t! CSG [2] $end
$var wire 1 u! CSG [1] $end
$var wire 1 v! CSG [0] $end
$upscope $end

$scope module CompEnd $end
$var wire 1 >! A [3] $end
$var wire 1 ?! A [2] $end
$var wire 1 @! A [1] $end
$var wire 1 A! A [0] $end
$var wire 1 :! B [3] $end
$var wire 1 ;! B [2] $end
$var wire 1 <! B [1] $end
$var wire 1 =! B [0] $end
$var wire 1 w! ALBi $end
$var wire 1 x! AGBi $end
$var wire 1 y! AEBi $end
$var wire 1 z! ALBo $end
$var wire 1 {! AGBo $end
$var wire 1 z AEBo $end
$var wire 1 |! CSL [4] $end
$var wire 1 }! CSL [3] $end
$var wire 1 ~! CSL [2] $end
$var wire 1 !" CSL [1] $end
$var wire 1 "" CSL [0] $end
$var wire 1 #" CSG [4] $end
$var wire 1 $" CSG [3] $end
$var wire 1 %" CSG [2] $end
$var wire 1 &" CSG [1] $end
$var wire 1 '" CSG [0] $end
$upscope $end

$scope module RegChv $end
$var parameter 32 (" SIZE $end
$var wire 1 X clock $end
$var wire 1 n clear $end
$var wire 1 k enable $end
$var wire 1 [ D [3] $end
$var wire 1 \ D [2] $end
$var wire 1 ] D [1] $end
$var wire 1 ^ D [0] $end
$var wire 1 B! Q [3] $end
$var wire 1 C! Q [2] $end
$var wire 1 D! Q [1] $end
$var wire 1 E! Q [0] $end
$var reg 4 )" IQ [3:0] $end
$upscope $end
$upscope $end

$scope module unidade_controle $end
$var parameter 4 *" inicial $end
$var parameter 4 +" inicializa_elementos $end
$var parameter 4 ," inicio_rodada $end
$var parameter 4 -" mostra $end
$var parameter 4 ." espera_mostra $end
$var parameter 4 /" apaga_mostra $end
$var parameter 4 0" mostra_proximo $end
$var parameter 4 1" inicio_jogada $end
$var parameter 4 2" espera_jogada $end
$var parameter 4 3" registra $end
$var parameter 4 4" compara $end
$var parameter 4 5" acertou $end
$var parameter 4 6" proxima_jogada $end
$var parameter 4 7" proxima_rodada $end
$var parameter 4 8" errou $end
$var parameter 4 9" estado_timeout $end
$var wire 1 X clock $end
$var wire 1 Y reset $end
$var wire 1 Z iniciar $end
$var wire 1 s fimC $end
$var wire 1 u fimTM $end
$var wire 1 v meioTM $end
$var wire 1 t fimCR $end
$var wire 1 x meioCR $end
$var wire 1 { jogada_feita $end
$var wire 1 | jogada_correta $end
$var wire 1 z enderecoIgualRodada $end
$var wire 1 ~ nivel_tempo $end
$var wire 1 } nivel_jogadas $end
$var wire 1 w fimTempo $end
$var wire 1 y meioTempo $end
$var wire 1 m zeraC $end
$var wire 1 g contaC $end
$var wire 1 p zeraTM $end
$var wire 1 i contaTM $end
$var wire 1 j contaCR $end
$var wire 1 o zeraCR $end
$var wire 1 h contaTempo $end
$var wire 1 q zeraTempo $end
$var wire 1 k registraR $end
$var wire 1 n zeraR $end
$var wire 1 l registraN $end
$var wire 1 r ativa_leds $end
$var wire 1 ( ganhou $end
$var wire 1 ) perdeu $end
$var wire 1 * pronto $end
$var wire 1 + vez_jogador $end
$var wire 1 Q db_timeout $end
$var wire 1 1! db_estado [3] $end
$var wire 1 2! db_estado [2] $end
$var wire 1 3! db_estado [1] $end
$var wire 1 4! db_estado [0] $end
$var reg 4 :" Eatual [3:0] $end
$var reg 4 ;" Eprox [3:0] $end
$upscope $end

$scope module display_contagem $end
$var wire 1 !! hexa [3] $end
$var wire 1 "! hexa [2] $end
$var wire 1 #! hexa [1] $end
$var wire 1 $! hexa [0] $end
$var reg 7 <" display [6:0] $end
$upscope $end

$scope module display_memoria $end
$var wire 1 )! hexa [3] $end
$var wire 1 *! hexa [2] $end
$var wire 1 +! hexa [1] $end
$var wire 1 ,! hexa [0] $end
$var reg 7 =" display [6:0] $end
$upscope $end

$scope module display_estado $end
$var wire 1 1! hexa [3] $end
$var wire 1 2! hexa [2] $end
$var wire 1 3! hexa [1] $end
$var wire 1 4! hexa [0] $end
$var reg 7 >" display [6:0] $end
$upscope $end

$scope module display_jogada $end
$var wire 1 %! hexa [3] $end
$var wire 1 &! hexa [2] $end
$var wire 1 '! hexa [1] $end
$var wire 1 (! hexa [0] $end
$var reg 7 ?" display [6:0] $end
$upscope $end

$scope module display_rodada $end
$var wire 1 -! hexa [3] $end
$var wire 1 .! hexa [2] $end
$var wire 1 /! hexa [1] $end
$var wire 1 0! hexa [0] $end
$var reg 7 @" display [6:0] $end
$upscope $end
$upscope $end
$upscope $end
$enddefinitions $end
#0
$dumpvars
1"
0#
0$
b0 %
0&
0'
b0 G!
b0 I!
0K!
xL!
bx T!
0U!
bx Y!
xZ!
x[!
bx _!
x`!
xa!
bx d!
xe!
xf!
bx g!
b0 )"
b0 :"
b0 ;"
bx <"
bx ="
b1000000 >"
b1000000 ?"
bx @"
bx U
bx V
b10100 !
b1 F!
b1 H!
b10000 V!
b100 W!
b1111101000 \!
b1010 ]!
b101110111000 b!
b1100 c!
b100 ("
b0 *"
b1 +"
b10 ,"
b11 -"
b100 ."
b1101 /"
b101 0"
b110 1"
b111 2"
b1000 3"
b1001 4"
b1010 5"
b1011 6"
b1100 7"
b1110 8"
b1111 9"
b0 S
b0 T
bx W
0(
0)
0*
0+
0/
0.
0-
0,
x0
x7
x6
x5
x4
x3
x2
x1
x>
x=
x<
x;
x:
x9
x8
0E
0D
0C
0B
0A
0@
1?
0L
0K
0J
0I
0H
0G
1F
0M
0N
1O
xP
0Q
xR
0g
0h
0i
0j
0k
0l
0m
1n
0o
0p
0q
0r
0s
xt
xu
xv
xw
xx
xy
xz
0{
x|
0}
0~
x$!
x#!
x"!
x!!
0(!
0'!
0&!
0%!
x,!
x+!
x*!
x)!
x0!
x/!
x.!
x-!
04!
03!
02!
01!
05!
x9!
x8!
x7!
x6!
x=!
x<!
x;!
x:!
xA!
x@!
x?!
x>!
0E!
0D!
0C!
0B!
xq!
xp!
xo!
xn!
xm!
xv!
xu!
xt!
xs!
xr!
x""
x!"
x~!
x}!
x|!
x'"
x&"
x%"
x$"
x#"
0`
0_
0^
0]
0\
0[
0Z
0Y
1X
xf
xe
xd
xc
xb
xa
0w!
0x!
1y!
0h!
0i!
1j!
0^!
1O!
1M!
0J!
zN!
zS!
zR!
zQ!
zP!
zX!
xk!
xl!
xz!
x{!
$end
#10
0"
0X
0O
#20
b1 T
1"
1X
1O
0L!
#30
0"
0X
0O
1#
1Y
#40
1"
1X
1O
#50
0#
b1 S
1$
0"
0Y
1Z
0X
0O
b1 ;"
#60
1"
1X
1O
b1 :"
1l
1q
1o
14!
0n
b1111001 >"
b10 ;"
1E
1B
1A
1@
#70
0"
0X
0O
#80
1"
1X
1O
b0 Y!
b0 d!
b10 :"
0A!
0@!
0?!
0>!
0l
0q
1m
0o
0M!
00!
0/!
0.!
0-!
04!
13!
b100100 >"
b1000000 @"
b11 ;"
0e!
0f!
0Z!
0[!
0R
0f
0e
0d
0c
0b
1a
0E
1C
0B
0A
0?
0w
0y
0t
0x
#90
0"
0X
0O
#100
1"
1X
1O
b0 T!
b11 :"
0=!
0<!
0;!
0:!
1p
0m
1M!
1""
1!"
1~!
1}!
1|!
1'"
1&"
1%"
1$"
1#"
0{!
0z!
1z
0$!
0#!
0"!
0!!
14!
1P
b110000 >"
b1000000 <"
b100 ;"
07
06
05
04
03
02
11
0C
1A
#110
0"
0X
0O
#120
1"
1X
1O
b1 g!
19!
08!
07!
06!
0q!
1p!
1o!
1n!
1m!
0v!
0u!
0t!
0s!
0r!
1l!
0k!
0|
1,!
0+!
0*!
0)!
00
b1111001 ="
1>
0=
0<
1;
1:
19
18
b0 _!
b100 :"
1r
1i
0p
1/
04!
03!
12!
b11001 >"
b1x0 ;"
0`!
0a!
1E
1B
0@
0u
0v
b100 ;"
#130
0$
0"
0Z
0X
0O
#140
1"
1X
1O
b1 _!
#150
0"
0X
0O
#160
1"
1X
1O
b10 _!
#170
0"
0X
0O
#180
1"
1X
1O
b11 _!
#190
0"
0X
0O
#200
1"
1X
1O
b100 _!
#210
0"
0X
0O
#220
1"
1X
1O
b101 _!
#230
0"
0X
0O
#240
1"
1X
1O
b110 _!
#250
0"
0X
0O
#260
1"
1X
1O
b111 _!
#270
0"
0X
0O
#280
1"
1X
1O
b1000 _!
#290
0"
0X
0O
#300
1"
1X
1O
b1001 _!
#310
0"
0X
0O
#320
1"
1X
1O
b1010 _!
#330
0"
0X
0O
#340
1"
1X
1O
b1011 _!
#350
0"
0X
0O
#360
1"
1X
1O
b1100 _!
#370
0"
0X
0O
#380
1"
1X
1O
b1101 _!
#390
0"
0X
0O
#400
1"
1X
1O
b1110 _!
#410
0"
0X
0O
#420
1"
1X
1O
b1111 _!
#430
0"
0X
0O
#440
1"
1X
1O
b10000 _!
#450
0"
0X
0O
#460
1"
1X
1O
b10001 _!
#470
0"
0X
0O
#480
1"
1X
1O
b10010 _!
#490
0"
0X
0O
#500
1"
1X
1O
b10011 _!
#510
0"
0X
0O
#520
1"
1X
1O
b10100 _!
#530
0"
0X
0O
#540
1"
1X
1O
b10101 _!
#550
0"
0X
0O
#560
1"
1X
1O
b10110 _!
#570
0"
0X
0O
#580
1"
1X
1O
b10111 _!
#590
0"
0X
0O
#600
1"
1X
1O
b11000 _!
#610
0"
0X
0O
#620
1"
1X
1O
b11001 _!
#630
0"
0X
0O
#640
1"
1X
1O
b11010 _!
#650
0"
0X
0O
#660
1"
1X
1O
b11011 _!
#670
0"
0X
0O
#680
1"
1X
1O
b11100 _!
#690
0"
0X
0O
#700
1"
1X
1O
b11101 _!
#710
0"
0X
0O
#720
1"
1X
1O
b11110 _!
#730
0"
0X
0O
#740
1"
1X
1O
b11111 _!
#750
0"
0X
0O
#760
1"
1X
1O
b100000 _!
#770
0"
0X
0O
#780
1"
1X
1O
b100001 _!
#790
0"
0X
0O
#800
1"
1X
1O
b100010 _!
#810
0"
0X
0O
#820
1"
1X
1O
b100011 _!
#830
0"
0X
0O
#840
1"
1X
1O
b100100 _!
#850
0"
0X
0O
#860
1"
1X
1O
b100101 _!
#870
0"
0X
0O
#880
1"
1X
1O
b100110 _!
#890
0"
0X
0O
#900
1"
1X
1O
b100111 _!
#910
0"
0X
0O
#920
1"
1X
1O
b101000 _!
#930
0"
0X
0O
#940
1"
1X
1O
b101001 _!
#950
0"
0X
0O
#960
1"
1X
1O
b101010 _!
#970
0"
0X
0O
#980
1"
1X
1O
b101011 _!
#990
0"
0X
0O
#1000
1"
1X
1O
b101100 _!
#1010
0"
0X
0O
#1020
1"
1X
1O
b101101 _!
#1030
0"
0X
0O
#1040
1"
1X
1O
b101110 _!
#1050
0"
0X
0O
#1060
1"
1X
1O
b101111 _!
#1070
0"
0X
0O
#1080
1"
1X
1O
b110000 _!
#1090
0"
0X
0O
#1100
1"
1X
1O
b110001 _!
#1110
0"
0X
0O
#1120
1"
1X
1O
b110010 _!
#1130
0"
0X
0O
#1140
1"
1X
1O
b110011 _!
#1150
0"
0X
0O
#1160
1"
1X
1O
b110100 _!
#1170
0"
0X
0O
#1180
1"
1X
1O
b110101 _!
#1190
0"
0X
0O
#1200
1"
1X
1O
b110110 _!
#1210
0"
0X
0O
#1220
1"
1X
1O
b110111 _!
#1230
0"
0X
0O
#1240
1"
1X
1O
b111000 _!
#1250
0"
0X
0O
#1260
1"
1X
1O
b111001 _!
#1270
0"
0X
0O
#1280
1"
1X
1O
b111010 _!
#1290
0"
0X
0O
#1300
1"
1X
1O
b111011 _!
#1310
0"
0X
0O
#1320
1"
1X
1O
b111100 _!
#1330
0"
0X
0O
#1340
1"
1X
1O
b111101 _!
#1350
0"
0X
0O
#1360
1"
1X
1O
b111110 _!
#1370
0"
0X
0O
#1380
1"
1X
1O
b111111 _!
#1390
0"
0X
0O
#1400
1"
1X
1O
b1000000 _!
#1410
0"
0X
0O
#1420
1"
1X
1O
b1000001 _!
#1430
0"
0X
0O
#1440
1"
1X
1O
b1000010 _!
#1450
0"
0X
0O
#1460
1"
1X
1O
b1000011 _!
#1470
0"
0X
0O
#1480
1"
1X
1O
b1000100 _!
#1490
0"
0X
0O
#1500
1"
1X
1O
b1000101 _!
#1510
0"
0X
0O
#1520
1"
1X
1O
b1000110 _!
#1530
0"
0X
0O
#1540
1"
1X
1O
b1000111 _!
#1550
0"
0X
0O
#1560
1"
1X
1O
b1001000 _!
#1570
0"
0X
0O
#1580
1"
1X
1O
b1001001 _!
#1590
0"
0X
0O
#1600
1"
1X
1O
b1001010 _!
#1610
0"
0X
0O
#1620
1"
1X
1O
b1001011 _!
#1630
0"
0X
0O
#1640
1"
1X
1O
b1001100 _!
#1650
0"
0X
0O
#1660
1"
1X
1O
b1001101 _!
#1670
0"
0X
0O
#1680
1"
1X
1O
b1001110 _!
#1690
0"
0X
0O
#1700
1"
1X
1O
b1001111 _!
#1710
0"
0X
0O
#1720
1"
1X
1O
b1010000 _!
#1730
0"
0X
0O
#1740
1"
1X
1O
b1010001 _!
#1750
0"
0X
0O
#1760
1"
1X
1O
b1010010 _!
#1770
0"
0X
0O
#1780
1"
1X
1O
b1010011 _!
#1790
0"
0X
0O
#1800
1"
1X
1O
b1010100 _!
#1810
0"
0X
0O
#1820
1"
1X
1O
b1010101 _!
#1830
0"
0X
0O
#1840
1"
1X
1O
b1010110 _!
#1850
0"
0X
0O
#1860
1"
1X
1O
b1010111 _!
#1870
0"
0X
0O
#1880
1"
1X
1O
b1011000 _!
#1890
0"
0X
0O
#1900
1"
1X
1O
b1011001 _!
#1910
0"
0X
0O
#1920
1"
1X
1O
b1011010 _!
#1930
0"
0X
0O
#1940
1"
1X
1O
b1011011 _!
#1950
0"
0X
0O
#1960
1"
1X
1O
b1011100 _!
#1970
0"
0X
0O
#1980
1"
1X
1O
b1011101 _!
#1990
0"
0X
0O
#2000
1"
1X
1O
b1011110 _!
#2010
0"
0X
0O
#2020
1"
1X
1O
b1011111 _!
#2030
0"
0X
0O
#2040
1"
1X
1O
b1100000 _!
#2050
0"
0X
0O
#2060
1"
1X
1O
b1100001 _!
#2070
0"
0X
0O
#2080
1"
1X
1O
b1100010 _!
#2090
0"
0X
0O
#2100
1"
1X
1O
b1100011 _!
#2110
0"
0X
0O
#2120
1"
1X
1O
b1100100 _!
#2130
0"
0X
0O
#2140
1"
1X
1O
b1100101 _!
#2150
0"
0X
0O
#2160
1"
1X
1O
b1100110 _!
#2170
0"
0X
0O
#2180
1"
1X
1O
b1100111 _!
#2190
0"
0X
0O
#2200
1"
1X
1O
b1101000 _!
#2210
0"
0X
0O
#2220
1"
1X
1O
b1101001 _!
#2230
0"
0X
0O
#2240
1"
1X
1O
b1101010 _!
#2250
0"
0X
0O
#2260
1"
1X
1O
b1101011 _!
#2270
0"
0X
0O
#2280
1"
1X
1O
b1101100 _!
#2290
0"
0X
0O
#2300
1"
1X
1O
b1101101 _!
#2310
0"
0X
0O
#2320
1"
1X
1O
b1101110 _!
#2330
0"
0X
0O
#2340
1"
1X
1O
b1101111 _!
#2350
0"
0X
0O
#2360
1"
1X
1O
b1110000 _!
#2370
0"
0X
0O
#2380
1"
1X
1O
b1110001 _!
#2390
0"
0X
0O
#2400
1"
1X
1O
b1110010 _!
#2410
0"
0X
0O
#2420
1"
1X
1O
b1110011 _!
#2430
0"
0X
0O
#2440
1"
1X
1O
b1110100 _!
#2450
0"
0X
0O
#2460
1"
1X
1O
b1110101 _!
#2470
0"
0X
0O
#2480
1"
1X
1O
b1110110 _!
#2490
0"
0X
0O
#2500
1"
1X
1O
b1110111 _!
#2510
0"
0X
0O
#2520
1"
1X
1O
b1111000 _!
#2530
0"
0X
0O
#2540
1"
1X
1O
b1111001 _!
#2550
0"
0X
0O
#2560
1"
1X
1O
b1111010 _!
#2570
0"
0X
0O
#2580
1"
1X
1O
b1111011 _!
#2590
0"
0X
0O
#2600
1"
1X
1O
b1111100 _!
#2610
0"
0X
0O
#2620
1"
1X
1O
b1111101 _!
#2630
0"
0X
0O
#2640
1"
1X
1O
b1111110 _!
#2650
0"
0X
0O
#2660
1"
1X
1O
b1111111 _!
#2670
0"
0X
0O
#2680
1"
1X
1O
b10000000 _!
#2690
0"
0X
0O
#2700
1"
1X
1O
b10000001 _!
#2710
0"
0X
0O
#2720
1"
1X
1O
b10000010 _!
#2730
0"
0X
0O
#2740
1"
1X
1O
b10000011 _!
#2750
0"
0X
0O
#2760
1"
1X
1O
b10000100 _!
#2770
0"
0X
0O
#2780
1"
1X
1O
b10000101 _!
#2790
0"
0X
0O
#2800
1"
1X
1O
b10000110 _!
#2810
0"
0X
0O
#2820
1"
1X
1O
b10000111 _!
#2830
0"
0X
0O
#2840
1"
1X
1O
b10001000 _!
#2850
0"
0X
0O
#2860
1"
1X
1O
b10001001 _!
#2870
0"
0X
0O
#2880
1"
1X
1O
b10001010 _!
#2890
0"
0X
0O
#2900
1"
1X
1O
b10001011 _!
#2910
0"
0X
0O
#2920
1"
1X
1O
b10001100 _!
#2930
0"
0X
0O
#2940
1"
1X
1O
b10001101 _!
#2950
0"
0X
0O
#2960
1"
1X
1O
b10001110 _!
#2970
0"
0X
0O
#2980
1"
1X
1O
b10001111 _!
#2990
0"
0X
0O
#3000
1"
1X
1O
b10010000 _!
#3010
0"
0X
0O
#3020
1"
1X
1O
b10010001 _!
#3030
0"
0X
0O
#3040
1"
1X
1O
b10010010 _!
#3050
0"
0X
0O
#3060
1"
1X
1O
b10010011 _!
#3070
0"
0X
0O
#3080
1"
1X
1O
b10010100 _!
#3090
0"
0X
0O
#3100
1"
1X
1O
b10010101 _!
#3110
0"
0X
0O
#3120
1"
1X
1O
b10010110 _!
#3130
0"
0X
0O
#3140
1"
1X
1O
b10010111 _!
#3150
0"
0X
0O
#3160
1"
1X
1O
b10011000 _!
#3170
0"
0X
0O
#3180
1"
1X
1O
b10011001 _!
#3190
0"
0X
0O
#3200
1"
1X
1O
b10011010 _!
#3210
0"
0X
0O
#3220
1"
1X
1O
b10011011 _!
#3230
0"
0X
0O
#3240
1"
1X
1O
b10011100 _!
#3250
0"
0X
0O
#3260
1"
1X
1O
b10011101 _!
#3270
0"
0X
0O
#3280
1"
1X
1O
b10011110 _!
#3290
0"
0X
0O
#3300
1"
1X
1O
b10011111 _!
#3310
0"
0X
0O
#3320
1"
1X
1O
b10100000 _!
