waveforms.vcd
$date
	Wed Feb  7 08:16:03 2024
$end
$version
	ModelSim Version 2020.1
$end
$timescale
	1ns
$end

$scope module circuito_exp5_tb $end
$var parameter 32 ! clockPeriod $end
$var reg 1 " clock_in $end
$var reg 1 # reset_in $end
$var reg 1 $ iniciar_in $end
$var reg 4 % chaves_in [3:0] $end
$var reg 1 & nivel_in $end
$var wire 1 ' acertou_out $end
$var wire 1 ( errou_out $end
$var wire 1 ) pronto_out $end
$var wire 1 * leds_out [3] $end
$var wire 1 + leds_out [2] $end
$var wire 1 , leds_out [1] $end
$var wire 1 - leds_out [0] $end
$var wire 1 . db_igual $end
$var wire 1 / db_contagem [6] $end
$var wire 1 0 db_contagem [5] $end
$var wire 1 1 db_contagem [4] $end
$var wire 1 2 db_contagem [3] $end
$var wire 1 3 db_contagem [2] $end
$var wire 1 4 db_contagem [1] $end
$var wire 1 5 db_contagem [0] $end
$var wire 1 6 db_memoria [6] $end
$var wire 1 7 db_memoria [5] $end
$var wire 1 8 db_memoria [4] $end
$var wire 1 9 db_memoria [3] $end
$var wire 1 : db_memoria [2] $end
$var wire 1 ; db_memoria [1] $end
$var wire 1 < db_memoria [0] $end
$var wire 1 = db_estado [6] $end
$var wire 1 > db_estado [5] $end
$var wire 1 ? db_estado [4] $end
$var wire 1 @ db_estado [3] $end
$var wire 1 A db_estado [2] $end
$var wire 1 B db_estado [1] $end
$var wire 1 C db_estado [0] $end
$var wire 1 D db_clock $end
$var wire 1 E db_iniciar $end
$var wire 1 F db_tem_jogada $end
$var wire 1 G db_nivel $end
$var wire 1 H db_meioTempo $end
$var wire 1 I db_fimTempo $end
$var reg 32 J caso [31:0] $end

$scope module DUT $end
$var wire 1 K clock $end
$var wire 1 L reset $end
$var wire 1 M iniciar $end
$var wire 1 N chaves [3] $end
$var wire 1 O chaves [2] $end
$var wire 1 P chaves [1] $end
$var wire 1 Q chaves [0] $end
$var wire 1 R nivel $end
$var wire 1 ' acertou $end
$var wire 1 ( errou $end
$var wire 1 ) pronto $end
$var wire 1 * leds [3] $end
$var wire 1 + leds [2] $end
$var wire 1 , leds [1] $end
$var wire 1 - leds [0] $end
$var wire 1 . db_igual $end
$var wire 1 / db_contagem [6] $end
$var wire 1 0 db_contagem [5] $end
$var wire 1 1 db_contagem [4] $end
$var wire 1 2 db_contagem [3] $end
$var wire 1 3 db_contagem [2] $end
$var wire 1 4 db_contagem [1] $end
$var wire 1 5 db_contagem [0] $end
$var wire 1 6 db_memoria [6] $end
$var wire 1 7 db_memoria [5] $end
$var wire 1 8 db_memoria [4] $end
$var wire 1 9 db_memoria [3] $end
$var wire 1 : db_memoria [2] $end
$var wire 1 ; db_memoria [1] $end
$var wire 1 < db_memoria [0] $end
$var wire 1 = db_estado [6] $end
$var wire 1 > db_estado [5] $end
$var wire 1 ? db_estado [4] $end
$var wire 1 @ db_estado [3] $end
$var wire 1 A db_estado [2] $end
$var wire 1 B db_estado [1] $end
$var wire 1 C db_estado [0] $end
$var wire 1 G db_nivel $end
$var wire 1 D db_clock $end
$var wire 1 E db_iniciar $end
$var wire 1 F db_tem_jogada $end
$var wire 1 H db_meioTempo $end
$var wire 1 I db_fimTempo $end
$var wire 1 S contaC $end
$var wire 1 T registraR $end
$var wire 1 U registraN $end
$var wire 1 V zeraC $end
$var wire 1 W zeraR $end
$var wire 1 X fimC $end
$var wire 1 Y igual $end
$var wire 1 Z jogada_feita $end
$var wire 1 [ nivel_reg $end
$var wire 1 \ meioC $end
$var wire 1 ] fimTempo $end
$var wire 1 ^ meioTempo $end
$var wire 1 _ s_jogada [3] $end
$var wire 1 ` s_jogada [2] $end
$var wire 1 a s_jogada [1] $end
$var wire 1 b s_jogada [0] $end
$var wire 1 c s_db_contagem [3] $end
$var wire 1 d s_db_contagem [2] $end
$var wire 1 e s_db_contagem [1] $end
$var wire 1 f s_db_contagem [0] $end
$var wire 1 g s_db_memoria [3] $end
$var wire 1 h s_db_memoria [2] $end
$var wire 1 i s_db_memoria [1] $end
$var wire 1 j s_db_memoria [0] $end
$var wire 1 k s_db_jogada [3] $end
$var wire 1 l s_db_jogada [2] $end
$var wire 1 m s_db_jogada [1] $end
$var wire 1 n s_db_jogada [0] $end
$var wire 1 o s_db_estado [3] $end
$var wire 1 p s_db_estado [2] $end
$var wire 1 q s_db_estado [1] $end
$var wire 1 r s_db_estado [0] $end

$scope module exp5_fluxo_dados $end
$var wire 1 K clock $end
$var wire 1 N chaves [3] $end
$var wire 1 O chaves [2] $end
$var wire 1 P chaves [1] $end
$var wire 1 Q chaves [0] $end
$var wire 1 R nivel $end
$var wire 1 W zeraR $end
$var wire 1 T registraR $end
$var wire 1 V zeraC $end
$var wire 1 S contaC $end
$var wire 1 U registraN $end
$var wire 1 Y igual $end
$var wire 1 Z jogada_feita $end
$var wire 1 [ nivel_reg $end
$var wire 1 X fimC $end
$var wire 1 \ meioC $end
$var wire 1 ] fimTempo $end
$var wire 1 ^ meioTempo $end
$var wire 1 _ jogada [3] $end
$var wire 1 ` jogada [2] $end
$var wire 1 a jogada [1] $end
$var wire 1 b jogada [0] $end
$var wire 1 F db_tem_jogada $end
$var wire 1 g db_memoria [3] $end
$var wire 1 h db_memoria [2] $end
$var wire 1 i db_memoria [1] $end
$var wire 1 j db_memoria [0] $end
$var wire 1 c db_contagem [3] $end
$var wire 1 d db_contagem [2] $end
$var wire 1 e db_contagem [1] $end
$var wire 1 f db_contagem [0] $end
$var wire 1 s valor_memoria [3] $end
$var wire 1 t valor_memoria [2] $end
$var wire 1 u valor_memoria [1] $end
$var wire 1 v valor_memoria [0] $end
$var wire 1 w contagem [3] $end
$var wire 1 x contagem [2] $end
$var wire 1 y contagem [1] $end
$var wire 1 z contagem [0] $end
$var wire 1 { tem_jogada $end

$scope module reg_nivel $end
$var parameter 32 | SIZE $end
$var wire 1 K clock $end
$var wire 1 W clear $end
$var wire 1 U enable $end
$var wire 1 R D [0] $end
$var wire 1 [ Q [0] $end
$var reg 1 } IQ [0:0] $end
$upscope $end

$scope module edge_detector $end
$var wire 1 K clock $end
$var wire 1 ~ reset $end
$var wire 1 { sinal $end
$var wire 1 Z pulso $end
$var reg 1 !! reg0 $end
$var reg 1 "! reg1 $end
$upscope $end

$scope module contador_m $end
$var parameter 32 #! M $end
$var parameter 32 $! N $end
$var wire 1 K clock $end
$var wire 1 V zera_as $end
$var wire 1 %! zera_s $end
$var wire 1 S conta $end
$var reg 4 &! Q [3:0] $end
$var reg 1 '! fim $end
$var reg 1 (! meio $end
$upscope $end

$scope module sync_rom_16x4 $end
$var wire 1 K clock $end
$var wire 1 w address [3] $end
$var wire 1 x address [2] $end
$var wire 1 y address [1] $end
$var wire 1 z address [0] $end
$var reg 4 )! data_out [3:0] $end
$upscope $end

$scope module comparador_85 $end
$var wire 1 s A [3] $end
$var wire 1 t A [2] $end
$var wire 1 u A [1] $end
$var wire 1 v A [0] $end
$var wire 1 _ B [3] $end
$var wire 1 ` B [2] $end
$var wire 1 a B [1] $end
$var wire 1 b B [0] $end
$var wire 1 *! ALBi $end
$var wire 1 +! AGBi $end
$var wire 1 ,! AEBi $end
$var wire 1 -! ALBo $end
$var wire 1 .! AGBo $end
$var wire 1 Y AEBo $end
$var wire 1 /! CSL [4] $end
$var wire 1 0! CSL [3] $end
$var wire 1 1! CSL [2] $end
$var wire 1 2! CSL [1] $end
$var wire 1 3! CSL [0] $end
$var wire 1 4! CSG [4] $end
$var wire 1 5! CSG [3] $end
$var wire 1 6! CSG [2] $end
$var wire 1 7! CSG [1] $end
$var wire 1 8! CSG [0] $end
$upscope $end

$scope module registrador_4 $end
$var parameter 32 9! SIZE $end
$var wire 1 K clock $end
$var wire 1 W clear $end
$var wire 1 T enable $end
$var wire 1 N D [3] $end
$var wire 1 O D [2] $end
$var wire 1 P D [1] $end
$var wire 1 Q D [0] $end
$var wire 1 _ Q [3] $end
$var wire 1 ` Q [2] $end
$var wire 1 a Q [1] $end
$var wire 1 b Q [0] $end
$var reg 4 :! IQ [3:0] $end
$upscope $end

$scope module contador_timer $end
$var parameter 32 ;! M $end
$var parameter 32 <! N $end
$var wire 1 K clock $end
$var wire 1 Z zera_as $end
$var wire 1 V zera_s $end
$var wire 1 =! conta $end
$var reg 13 >! Q [12:0] $end
$var reg 1 ?! fim $end
$var reg 1 @! meio $end
$upscope $end
$upscope $end

$scope module exp5_unidade_controle $end
$var parameter 4 A! inicial $end
$var parameter 4 B! inicializa_elementos $end
$var parameter 4 C! espera_jogada $end
$var parameter 4 D! registra $end
$var parameter 4 E! compara $end
$var parameter 4 F! proximo $end
$var parameter 4 G! fim_acertos $end
$var parameter 4 H! fim_erro $end
$var wire 1 K clock $end
$var wire 1 L reset $end
$var wire 1 M iniciar $end
$var wire 1 X fim $end
$var wire 1 \ meio $end
$var wire 1 Z jogada $end
$var wire 1 Y igual $end
$var wire 1 [ nivel $end
$var wire 1 ] fimTempo $end
$var reg 1 I! zeraC $end
$var reg 1 J! contaC $end
$var reg 1 K! zeraR $end
$var reg 1 L! registraR $end
$var reg 1 M! registraN $end
$var reg 1 N! acertou $end
$var reg 1 O! errou $end
$var reg 1 P! pronto $end
$var wire 1 o db_estado [3] $end
$var wire 1 p db_estado [2] $end
$var wire 1 q db_estado [1] $end
$var wire 1 r db_estado [0] $end
$var reg 4 Q! Eatual [3:0] $end
$var reg 4 R! Eprox [3:0] $end
$upscope $end

$scope module HEX0 $end
$var wire 1 c hexa [3] $end
$var wire 1 d hexa [2] $end
$var wire 1 e hexa [1] $end
$var wire 1 f hexa [0] $end
$var reg 7 S! display [6:0] $end
$upscope $end

$scope module HEX1 $end
$var wire 1 g hexa [3] $end
$var wire 1 h hexa [2] $end
$var wire 1 i hexa [1] $end
$var wire 1 j hexa [0] $end
$var reg 7 T! display [6:0] $end
$upscope $end

$scope module HEX3 $end
$var wire 1 o hexa [3] $end
$var wire 1 p hexa [2] $end
$var wire 1 q hexa [1] $end
$var wire 1 r hexa [0] $end
$var reg 7 U! display [6:0] $end
$upscope $end
$upscope $end
$upscope $end
$enddefinitions $end
#0
$dumpvars
1"
0#
0$
b0 %
0&
b0 J
b0 }
0!!
x"!
b0 &!
0'!
0(!
bx )!
b0 :!
bx >!
x?!
x@!
1I!
0J!
1K!
0L!
0M!
0N!
0O!
0P!
b0 Q!
b0 R!
b1000000 S!
bx T!
b1000000 U!
b10100 !
b1 |
b10000 #!
b100 $!
b100 9!
b1001110001000 ;!
b1101 <!
b0 A!
b1 B!
b100 C!
b101 D!
b110 E!
b111 F!
b1100 G!
b1110 H!
0'
0(
0)
0-
0,
0+
0*
x.
05
04
03
02
01
00
1/
x<
x;
x:
x9
x8
x7
x6
0C
0B
0A
0@
0?
0>
1=
1D
0E
0F
0G
xH
xI
0S
0T
0U
1V
1W
0X
xY
0Z
0[
0\
x]
x^
0b
0a
0`
0_
0f
0e
0d
0c
xj
xi
xh
xg
zn
zm
zl
zk
0r
0q
0p
0o
xv
xu
xt
xs
0z
0y
0x
0w
0{
x3!
x2!
x1!
x0!
x/!
x8!
x7!
x6!
x5!
x4!
0Q
0P
0O
0N
0R
0M
0L
1K
1=!
0*!
0+!
1,!
0%!
0~
x-!
x.!
$end
#10
0"
0K
0D
#20
b1 J
1"
1K
1D
b1 )!
1v
0u
0t
0s
03!
12!
11!
10!
1/!
08!
07!
06!
05!
04!
1.!
0-!
0Y
1j
0i
0h
0g
0.
b1111001 T!
1<
0;
0:
19
18
17
16
0"!
b0 >!
0?!
0@!
0^
0H
0]
0I
#30
0"
0K
0D
1#
1L
#40
1"
1K
1D
#50
0#
0"
0L
0K
0D
#60
1"
1K
1D
#70
0"
0K
0D
#80
1"
1K
1D
#90
0"
0K
0D
#100
1"
1K
1D
#110
0"
0K
0D
#120
1"
1K
1D
#130
0"
0K
0D
#140
1"
1K
1D
#150
0"
0K
0D
#160
1"
1K
1D
#170
0"
0K
0D
#180
1"
1K
1D
#190
0"
0K
0D
#200
1"
1K
1D
#210
0"
0K
0D
#220
1"
1K
1D
#230
0"
0K
0D
#240
1"
1K
1D
#250
b10 J
1$
1&
0"
1R
1M
0K
0D
1E
b1 R!
#260
1"
1K
1D
b1 Q!
1r
b1111001 U!
b100 R!
0K!
1M!
1C
1@
1?
1>
1U
0W
#270
0"
0K
0D
#280
1"
1K
1D
b1 }
b100 Q!
0r
1p
1[
1G
b11001 U!
0I!
0M!
0>
0=
0U
0V
#290
0"
0K
0D
#300
1"
1K
1D
b1 >!
#310
0"
0K
0D
#320
1"
1K
1D
b10 >!
#330
0"
0K
0D
#340
1"
1K
1D
b11 >!
#350
0$
0"
0M
0K
0D
0E
#360
1"
1K
1D
b100 >!
#370
0"
0K
0D
#380
1"
1K
1D
b101 >!
#390
0"
0K
0D
#400
1"
1K
1D
b110 >!
#410
0"
0K
0D
#420
1"
1K
1D
b111 >!
#430
0"
0K
0D
#440
1"
1K
1D
b1000 >!
#450
0"
0K
0D
#460
1"
1K
1D
b1001 >!
#470
0"
0K
0D
#480
1"
1K
1D
b1010 >!
#490
0"
0K
0D
#500
1"
1K
1D
b1011 >!
#510
0"
0K
0D
#520
1"
1K
1D
b1100 >!
#530
0"
0K
0D
#540
1"
1K
1D
b1101 >!
#550
b11 J
b1 %
0"
1Q
1{
1F
0K
0D
#560
1"
1K
1D
1!!
b1110 >!
1Z
b101 R!
b0 >!
#570
0"
0K
0D
#580
1"
1K
1D
1"!
b101 Q!
0Z
1r
b10010 U!
b110 R!
1L!
0C
1B
0@
1T
#590
0"
0K
0D
#600
1"
1K
1D
b1 :!
b1 >!
b110 Q!
1b
1-
13!
18!
17!
16!
15!
14!
0.!
0r
1q
1Y
1.
b10 U!
b111 R!
0L!
0?
0T
#610
b0 %
0"
0Q
0{
0F
0K
0D
#620
1"
1K
1D
0!!
b10 >!
b111 Q!
1r
b1111000 U!
b100 R!
1J!
0B
1@
1?
1>
1=
1S
#630
0"
0K
0D
#640
1"
1K
1D
0"!
b1 &!
b11 >!
b100 Q!
1z
1f
0r
0q
b11001 U!
b1111001 S!
0J!
15
12
11
10
1C
0>
0=
0S
#650
0"
0K
0D
#660
1"
1K
1D
b10 )!
0v
1u
03!
08!
07!
06!
05!
04!
1.!
0Y
0j
1i
0.
b100100 T!
0<
1:
09
08
06
b100 >!
#670
0"
0K
0D
#680
1"
1K
1D
b101 >!
#690
0"
0K
0D
#700
1"
1K
1D
b110 >!
#710
0"
0K
0D
#720
1"
1K
1D
b111 >!
#730
0"
0K
0D
#740
1"
1K
1D
b1000 >!
#750
0"
0K
0D
#760
1"
1K
1D
b1001 >!
#770
0"
0K
0D
#780
1"
1K
1D
b1010 >!
#790
0"
0K
0D
#800
1"
1K
1D
b1011 >!
#810
b100 J
b10 %
0"
1P
1{
1F
0K
0D
#820
1"
1K
1D
1!!
b1100 >!
1Z
b101 R!
b0 >!
#830
0"
0K
0D
#840
1"
1K
1D
1"!
b101 Q!
0Z
1r
b10010 U!
b110 R!
1L!
0C
1B
0@
1T
#850
0"
0K
0D
#860
1"
1K
1D
b10 :!
b1 >!
b110 Q!
0b
1a
0-
1,
13!
18!
17!
16!
15!
14!
0.!
0r
1q
1Y
1.
b10 U!
b111 R!
0L!
0?
0T
#870
b0 %
0"
0P
0{
0F
0K
0D
#880
1"
1K
1D
0!!
b10 >!
b111 Q!
1r
b1111000 U!
b100 R!
1J!
0B
1@
1?
1>
1=
1S
#890
0"
0K
0D
#900
1"
1K
1D
0"!
b10 &!
b11 >!
b100 Q!
0z
1y
0f
1e
0r
0q
b11001 U!
b100100 S!
0J!
05
13
02
01
0/
1C
0>
0=
0S
#910
0"
0K
0D
#920
1"
1K
1D
b100 )!
0u
1t
02!
07!
06!
05!
04!
1.!
0Y
0i
1h
0.
b11001 T!
1<
0:
19
18
07
b100 >!
#930
0"
0K
0D
#940
1"
1K
1D
b101 >!
#950
0"
0K
0D
#960
1"
1K
1D
b110 >!
#970
0"
0K
0D
#980
1"
1K
1D
b111 >!
#990
0"
0K
0D
#1000
1"
1K
1D
b1000 >!
#1010
0"
0K
0D
#1020
1"
1K
1D
b1001 >!
#1030
0"
0K
0D
#1040
1"
1K
1D
b1010 >!
#1050
0"
0K
0D
#1060
1"
1K
1D
b1011 >!
#1070
b101 J
b100 %
0"
1O
1{
1F
0K
0D
#1080
1"
1K
1D
1!!
b1100 >!
1Z
b101 R!
b0 >!
#1090
0"
0K
0D
#1100
1"
1K
1D
1"!
b101 Q!
0Z
1r
b10010 U!
b110 R!
1L!
0C
1B
0@
1T
#1110
0"
0K
0D
#1120
1"
1K
1D
b100 :!
b1 >!
b110 Q!
0a
1`
0,
1+
12!
17!
16!
15!
14!
0.!
0r
1q
1Y
1.
b10 U!
b111 R!
0L!
0?
0T
#1130
b0 %
0"
0O
0{
0F
0K
0D
#1140
1"
1K
1D
0!!
b10 >!
b111 Q!
1r
b1111000 U!
b100 R!
1J!
0B
1@
1?
1>
1=
1S
#1150
0"
0K
0D
#1160
1"
1K
1D
0"!
b11 &!
b11 >!
b100 Q!
1z
1f
0r
0q
b11001 U!
b110000 S!
0J!
03
11
1C
0>
0=
0S
#1170
0"
0K
0D
#1180
1"
1K
1D
b1000 )!
0t
1s
01!
06!
05!
04!
1.!
0Y
0h
1g
0.
b0 T!
0<
09
08
b100 >!
#1190
0"
0K
0D
#1200
1"
1K
1D
b101 >!
#1210
0"
0K
0D
#1220
1"
1K
1D
b110 >!
#1230
0"
0K
0D
#1240
1"
1K
1D
b111 >!
#1250
0"
0K
0D
#1260
1"
1K
1D
b1000 >!
#1270
0"
0K
0D
#1280
1"
1K
1D
b1001 >!
#1290
0"
0K
0D
#1300
1"
1K
1D
b1010 >!
#1310
0"
0K
0D
#1320
1"
1K
1D
b1011 >!
#1330
b110 J
b1000 %
0"
1N
1{
1F
0K
0D
#1340
1"
1K
1D
1!!
b1100 >!
1Z
b101 R!
b0 >!
#1350
0"
0K
0D
#1360
1"
1K
1D
1"!
b101 Q!
0Z
1r
b10010 U!
b110 R!
1L!
0C
1B
0@
1T
#1370
0"
0K
0D
#1380
1"
1K
1D
b1000 :!
b1 >!
b110 Q!
0`
1_
0+
1*
11!
16!
15!
14!
0.!
0r
1q
1Y
1.
b10 U!
b111 R!
0L!
0?
0T
#1390
b0 %
0"
0N
0{
0F
0K
0D
#1400
1"
1K
1D
0!!
b10 >!
b111 Q!
1r
b1111000 U!
b100 R!
1J!
0B
1@
1?
1>
1=
1S
#1410
0"
0K
0D
#1420
1"
1K
1D
0"!
b100 &!
b11 >!
b100 Q!
0z
0y
1x
0f
0e
1d
0r
0q
b11001 U!
b11001 S!
0J!
15
12
00
1C
0>
0=
0S
#1430
0"
0K
0D
#1440
1"
1K
1D
b100 )!
1t
0s
01!
00!
0/!
06!
1-!
0Y
1h
0g
0.
b11001 T!
1<
19
18
b100 >!
#1450
0"
0K
0D
#1460
1"
1K
1D
b101 >!
#1470
0"
0K
0D
#1480
1"
1K
1D
b110 >!
#1490
0"
0K
0D
#1500
1"
1K
1D
b111 >!
#1510
0"
0K
0D
#1520
1"
1K
1D
b1000 >!
#1530
0"
0K
0D
#1540
1"
1K
1D
b1001 >!
#1550
0"
0K
0D
#1560
1"
1K
1D
b1010 >!
#1570
0"
0K
0D
#1580
1"
1K
1D
b1011 >!
#1590
b111 J
b100 %
0"
1O
1{
1F
0K
0D
#1600
1"
1K
1D
1!!
b1100 >!
1Z
b101 R!
b0 >!
#1610
0"
0K
0D
#1620
1"
1K
1D
1"!
b101 Q!
0Z
1r
b10010 U!
b110 R!
1L!
0C
1B
0@
1T
#1630
0"
0K
0D
#1640
1"
1K
1D
b100 :!
b1 >!
b110 Q!
1`
0_
1+
0*
11!
10!
1/!
16!
0-!
0r
1q
1Y
1.
b10 U!
b111 R!
0L!
0?
0T
#1650
b0 %
0"
0O
0{
0F
0K
0D
#1660
1"
1K
1D
0!!
b10 >!
b111 Q!
1r
b1111000 U!
b100 R!
1J!
0B
1@
1?
1>
1=
1S
#1670
0"
0K
0D
#1680
1"
1K
1D
0"!
b101 &!
b11 >!
b100 Q!
1z
1f
0r
0q
b11001 U!
b10010 S!
0J!
05
14
02
1C
0>
0=
0S
#1690
0"
0K
0D
#1700
1"
1K
1D
b10 )!
1u
0t
02!
01!
00!
0/!
07!
1-!
0Y
1i
0h
0.
b100100 T!
0<
1:
09
08
17
b100 >!
#1710
0"
0K
0D
#1720
1"
1K
1D
b101 >!
#1730
0"
0K
0D
#1740
1"
1K
1D
b110 >!
#1750
0"
0K
0D
#1760
1"
1K
1D
b111 >!
#1770
0"
0K
0D
#1780
1"
1K
1D
b1000 >!
#1790
0"
0K
0D
#1800
1"
1K
1D
b1001 >!
#1810
0"
0K
0D
#1820
1"
1K
1D
b1010 >!
#1830
0"
0K
0D
#1840
1"
1K
1D
b1011 >!
#1850
b1000 J
b10 %
0"
1P
1{
1F
0K
0D
#1860
1"
1K
1D
1!!
b1100 >!
1Z
b101 R!
b0 >!
#1870
0"
0K
0D
#1880
1"
1K
1D
1"!
b101 Q!
0Z
1r
b10010 U!
b110 R!
1L!
0C
1B
0@
1T
#1890
0"
0K
0D
#1900
1"
1K
1D
b10 :!
b1 >!
b110 Q!
1a
0`
1,
0+
12!
11!
10!
1/!
17!
0-!
0r
1q
1Y
1.
b10 U!
b111 R!
0L!
0?
0T
#1910
b0 %
0"
0P
0{
0F
0K
0D
#1920
1"
1K
1D
0!!
b10 >!
b111 Q!
1r
b1111000 U!
b100 R!
1J!
0B
1@
1?
1>
1=
1S
#1930
0"
0K
0D
#1940
1"
1K
1D
0"!
b110 &!
b11 >!
b100 Q!
0z
1y
0f
1e
0r
0q
b11001 U!
b10 S!
0J!
01
1C
0>
0=
0S
#1950
0"
0K
0D
#1960
1"
1K
1D
b1 )!
1v
0u
03!
02!
01!
00!
0/!
08!
1-!
0Y
1j
0i
0.
b1111001 T!
1<
0:
19
18
16
b100 >!
#1970
0"
0K
0D
#1980
1"
1K
1D
b101 >!
#1990
0"
0K
0D
#2000
1"
1K
1D
b110 >!
#2010
0"
0K
0D
#2020
1"
1K
1D
b111 >!
#2030
0"
0K
0D
#2040
1"
1K
1D
b1000 >!
#2050
0"
0K
0D
#2060
1"
1K
1D
b1001 >!
#2070
0"
0K
0D
#2080
1"
1K
1D
b1010 >!
#2090
0"
0K
0D
#2100
1"
1K
1D
b1011 >!
#2110
b1001 J
b1 %
0"
1Q
1{
1F
0K
0D
#2120
1"
1K
1D
1!!
b1100 >!
1Z
b101 R!
b0 >!
#2130
0"
0K
0D
#2140
1"
1K
1D
1"!
b101 Q!
0Z
1r
b10010 U!
b110 R!
1L!
0C
1B
0@
1T
#2150
0"
0K
0D
#2160
1"
1K
1D
b1 :!
b1 >!
b110 Q!
1b
0a
1-
0,
13!
12!
11!
10!
1/!
18!
0-!
0r
1q
1Y
1.
b10 U!
b111 R!
0L!
0?
0T
#2170
b0 %
0"
0Q
0{
0F
0K
0D
#2180
1"
1K
1D
0!!
b10 >!
b111 Q!
1r
b1111000 U!
b100 R!
1J!
0B
1@
1?
1>
1=
1S
#2190
0"
0K
0D
#2200
1"
1K
1D
0"!
b111 &!
b11 >!
b100 Q!
1z
1f
0r
0q
b11001 U!
b1111000 S!
0J!
1(!
04
12
11
10
1/
1C
0>
0=
0S
1\
#2210
0"
0K
0D
#2220
1"
1K
1D
b100 >!
#2230
0"
0K
0D
#2240
1"
1K
1D
b101 >!
#2250
0"
0K
0D
#2260
1"
1K
1D
b110 >!
#2270
0"
0K
0D
#2280
1"
1K
1D
b111 >!
#2290
0"
0K
0D
#2300
1"
1K
1D
b1000 >!
#2310
0"
0K
0D
#2320
1"
1K
1D
b1001 >!
#2330
0"
0K
0D
#2340
1"
1K
1D
b1010 >!
#2350
0"
0K
0D
#2360
1"
1K
1D
b1011 >!
#2370
b1010 J
b1 %
0"
1Q
1{
1F
0K
0D
#2380
1"
1K
1D
1!!
b1100 >!
1Z
b101 R!
b0 >!
#2390
0"
0K
0D
#2400
1"
1K
1D
1"!
b101 Q!
0Z
1r
b10010 U!
b110 R!
1L!
0C
1B
0@
1T
#2410
0"
0K
0D
#2420
1"
1K
1D
b1 >!
b110 Q!
0r
1q
b10 U!
b111 R!
0L!
0?
0T
#2430
b0 %
0"
0Q
0{
0F
0K
0D
#2440
1"
1K
1D
0!!
b10 >!
b111 Q!
1r
b1111000 U!
b100 R!
1J!
0B
1@
1?
1>
1=
1S
#2450
0"
0K
0D
#2460
1"
1K
1D
0"!
b1000 &!
b11 >!
b100 Q!
0z
0y
0x
1w
0f
0e
0d
1c
0r
0q
b11001 U!
b0 S!
0J!
0(!
02
01
00
0/
1C
0>
0=
0S
0\
#2470
0"
0K
0D
#2480
1"
1K
1D
b10 )!
0v
1u
03!
08!
07!
06!
05!
04!
1.!
0Y
0j
1i
0.
b100100 T!
0<
1:
09
08
06
b100 >!
#2490
0"
0K
0D
#2500
1"
1K
1D
b101 >!
#2510
0"
0K
0D
#2520
1"
1K
1D
b110 >!
#2530
0"
0K
0D
#2540
1"
1K
1D
b111 >!
#2550
0"
0K
0D
#2560
1"
1K
1D
b1000 >!
#2570
0"
0K
0D
#2580
1"
1K
1D
b1001 >!
#2590
0"
0K
0D
#2600
1"
1K
1D
b1010 >!
#2610
0"
0K
0D
#2620
1"
1K
1D
b1011 >!
#2630
b1011 J
b1000 %
0"
1N
1{
1F
0K
0D
#2640
1"
1K
1D
1!!
b1100 >!
1Z
b101 R!
b0 >!
#2650
0"
0K
0D
#2660
1"
1K
1D
1"!
b101 Q!
0Z
1r
b10010 U!
b110 R!
1L!
0C
1B
0@
1T
#2670
0"
0K
0D
#2680
1"
1K
1D
b1000 :!
b1 >!
b110 Q!
0b
1_
0-
1*
13!
02!
00!
0/!
18!
15!
14!
0.!
1-!
0r
1q
b10 U!
b1110 R!
0L!
0?
0T
#2690
b0 %
0"
0N
0{
0F
0K
0D
#2700
1"
1K
1D
0!!
b10 >!
b1110 Q!
1o
b110 U!
1P!
1O!
1A
1)
1(
#2710
0"
0K
0D
#2720
1"
1K
1D
0"!
b11 >!
#2730
0"
0K
0D
#2740
1"
1K
1D
b100 >!
#2750
0"
0K
0D
#2760
1"
1K
1D
b101 >!
#2770
0"
0K
0D
#2780
1"
1K
1D
b110 >!
#2790
0"
0K
0D
#2800
1"
1K
1D
b111 >!
#2810
0"
0K
0D
#2820
1"
1K
1D
b1000 >!
#2830
0"
0K
0D
#2840
1"
1K
1D
b1001 >!
#2850
0"
0K
0D
#2860
1"
1K
1D
b1010 >!
#2870
0"
0K
0D
#2880
1"
1K
1D
b1011 >!
#2890
b1101 J
1$
0"
1M
0K
0D
1E
b1 R!
#2900
1"
1K
1D
b1100 >!
b1 Q!
1r
0q
0p
0o
b1111001 U!
b100 R!
1I!
0P!
0O!
1M!
1C
0B
0A
1@
1?
1>
1=
0)
0(
1U
1V
b0 &!
0w
0c
b1000000 S!
1/
#2910
0"
0K
0D
#2920
1"
1K
1D
b1 )!
1v
0u
03!
12!
08!
1j
0i
b1111001 T!
1<
0:
19
18
16
b0 >!
b100 Q!
0r
1p
b11001 U!
0I!
0M!
0>
0=
0U
0V
#2930
0"
0K
0D
#2940
1"
1K
1D
b1 >!
#2950
0"
0K
0D
#2960
1"
1K
1D
b10 >!
#2970
0"
0K
0D
#2980
1"
1K
1D
b11 >!
#2990
0$
0"
0M
0K
0D
0E
#3000
1"
1K
1D
b100 >!
#3010
0"
0K
0D
#3020
1"
1K
1D
b101 >!
#3030
0"
0K
0D
#3040
1"
1K
1D
b110 >!
#3050
0"
0K
0D
#3060
1"
1K
1D
b111 >!
#3070
0"
0K
0D
#3080
1"
1K
1D
b1000 >!
#3090
0"
0K
0D
#3100
1"
1K
1D
b1001 >!
#3110
0"
0K
0D
#3120
1"
1K
1D
b1010 >!
#3130
0"
0K
0D
#3140
1"
1K
1D
b1011 >!
#3150
0"
0K
0D
#3160
1"
1K
1D
b1100 >!
#3170
0"
0K
0D
#3180
1"
1K
1D
b1101 >!
#3190
b1110 J
b1 %
0"
1Q
1{
1F
0K
0D
#3200
1"
1K
1D
1!!
b1110 >!
1Z
b101 R!
b0 >!
#3210
0"
0K
0D
#3220
1"
1K
1D
1"!
b101 Q!
0Z
1r
b10010 U!
b110 R!
1L!
0C
1B
0@
1T
#3230
0"
0K
0D
#3240
1"
1K
1D
b1 :!
b1 >!
b110 Q!
1b
0_
1-
0*
13!
10!
1/!
18!
17!
16!
0-!
0r
1q
1Y
1.
b10 U!
b111 R!
0L!
0?
0T
#3250
b0 %
0"
0Q
0{
0F
0K
0D
#3260
1"
1K
1D
0!!
b10 >!
b111 Q!
1r
b1111000 U!
b100 R!
1J!
0B
1@
1?
1>
1=
1S
#3270
0"
0K
0D
#3280
1"
1K
1D
0"!
b1 &!
b11 >!
b100 Q!
1z
1f
0r
0q
b11001 U!
b1111001 S!
0J!
15
12
11
10
1C
0>
0=
0S
#3290
0"
0K
0D
#3300
1"
1K
1D
b10 )!
0v
1u
03!
08!
07!
06!
05!
04!
1.!
0Y
0j
1i
0.
b100100 T!
0<
1:
09
08
06
b100 >!
#3310
0"
0K
0D
#3320
1"
1K
1D
b101 >!
#3330
0"
0K
0D
#3340
1"
1K
1D
b110 >!
#3350
0"
0K
0D
#3360
1"
1K
1D
b111 >!
#3370
0"
0K
0D
#3380
1"
1K
1D
b1000 >!
#3390
0"
0K
0D
#3400
1"
1K
1D
b1001 >!
#3410
0"
0K
0D
#3420
1"
1K
1D
b1010 >!
#3430
0"
0K
0D
#3440
1"
1K
1D
b1011 >!
#3450
b1111 J
b10 %
0"
1P
1{
1F
0K
0D
#3460
1"
1K
1D
1!!
b1100 >!
1Z
b101 R!
b0 >!
#3470
0"
0K
0D
