waveforms.vcd
$date
	Sun Feb  4 13:40:08 2024
$end
$version
	ModelSim Version 2020.1
$end
$timescale
	1ns
$end

$scope module circuito_exp5_tb $end
$var parameter 32 ! clockPeriod $end
$var reg 1 " clock_in $end
$var reg 1 # reset_in $end
$var reg 1 $ iniciar_in $end
$var reg 4 % chaves_in [3:0] $end
$var wire 1 & acertou_out $end
$var wire 1 ' errou_out $end
$var wire 1 ( pronto_out $end
$var wire 1 ) leds_out [3] $end
$var wire 1 * leds_out [2] $end
$var wire 1 + leds_out [1] $end
$var wire 1 , leds_out [0] $end
$var wire 1 - db_igual_out $end
$var wire 1 . db_contagem_out [6] $end
$var wire 1 / db_contagem_out [5] $end
$var wire 1 0 db_contagem_out [4] $end
$var wire 1 1 db_contagem_out [3] $end
$var wire 1 2 db_contagem_out [2] $end
$var wire 1 3 db_contagem_out [1] $end
$var wire 1 4 db_contagem_out [0] $end
$var wire 1 5 db_memoria_out [6] $end
$var wire 1 6 db_memoria_out [5] $end
$var wire 1 7 db_memoria_out [4] $end
$var wire 1 8 db_memoria_out [3] $end
$var wire 1 9 db_memoria_out [2] $end
$var wire 1 : db_memoria_out [1] $end
$var wire 1 ; db_memoria_out [0] $end
$var wire 1 < db_estado_out [6] $end
$var wire 1 = db_estado_out [5] $end
$var wire 1 > db_estado_out [4] $end
$var wire 1 ? db_estado_out [3] $end
$var wire 1 @ db_estado_out [2] $end
$var wire 1 A db_estado_out [1] $end
$var wire 1 B db_estado_out [0] $end
$var wire 1 C db_clock_out $end
$var wire 1 D db_iniciar_out $end
$var wire 1 E db_tem_jogada_out $end
$var reg 32 F caso [31:0] $end

$scope module DUT $end
$var wire 1 G clock $end
$var wire 1 H reset $end
$var wire 1 I iniciar $end
$var wire 1 J chaves [3] $end
$var wire 1 K chaves [2] $end
$var wire 1 L chaves [1] $end
$var wire 1 M chaves [0] $end
$var wire 1 & acertou $end
$var wire 1 ' errou $end
$var wire 1 ( pronto $end
$var wire 1 ) leds [3] $end
$var wire 1 * leds [2] $end
$var wire 1 + leds [1] $end
$var wire 1 , leds [0] $end
$var wire 1 - db_igual $end
$var wire 1 . db_contagem [6] $end
$var wire 1 / db_contagem [5] $end
$var wire 1 0 db_contagem [4] $end
$var wire 1 1 db_contagem [3] $end
$var wire 1 2 db_contagem [2] $end
$var wire 1 3 db_contagem [1] $end
$var wire 1 4 db_contagem [0] $end
$var wire 1 5 db_memoria [6] $end
$var wire 1 6 db_memoria [5] $end
$var wire 1 7 db_memoria [4] $end
$var wire 1 8 db_memoria [3] $end
$var wire 1 9 db_memoria [2] $end
$var wire 1 : db_memoria [1] $end
$var wire 1 ; db_memoria [0] $end
$var wire 1 < db_estado [6] $end
$var wire 1 = db_estado [5] $end
$var wire 1 > db_estado [4] $end
$var wire 1 ? db_estado [3] $end
$var wire 1 @ db_estado [2] $end
$var wire 1 A db_estado [1] $end
$var wire 1 B db_estado [0] $end
$var wire 1 C db_clock $end
$var wire 1 D db_iniciar $end
$var wire 1 E db_tem_jogada $end
$var wire 1 N contaC $end
$var wire 1 O registraR $end
$var wire 1 P zeraC $end
$var wire 1 Q zeraR $end
$var wire 1 R db_estado_wire [3] $end
$var wire 1 S db_estado_wire [2] $end
$var wire 1 T db_estado_wire [1] $end
$var wire 1 U db_estado_wire [0] $end
$var wire 1 V fimC $end
$var wire 1 W igual_wire $end
$var wire 1 X jogada_feita $end
$var wire 1 Y db_contagem_wire [3] $end
$var wire 1 Z db_contagem_wire [2] $end
$var wire 1 [ db_contagem_wire [1] $end
$var wire 1 \ db_contagem_wire [0] $end
$var wire 1 ] db_memoria_wire [3] $end
$var wire 1 ^ db_memoria_wire [2] $end
$var wire 1 _ db_memoria_wire [1] $end
$var wire 1 ` db_memoria_wire [0] $end
$var wire 1 a db_jogada_wire [3] $end
$var wire 1 b db_jogada_wire [2] $end
$var wire 1 c db_jogada_wire [1] $end
$var wire 1 d db_jogada_wire [0] $end

$scope module exp5_fluxo_dados $end
$var wire 1 G clock $end
$var wire 1 J chaves [3] $end
$var wire 1 K chaves [2] $end
$var wire 1 L chaves [1] $end
$var wire 1 M chaves [0] $end
$var wire 1 Q zeraR $end
$var wire 1 O registraR $end
$var wire 1 P zeraC $end
$var wire 1 N contaC $end
$var wire 1 Y db_contagem [3] $end
$var wire 1 Z db_contagem [2] $end
$var wire 1 [ db_contagem [1] $end
$var wire 1 \ db_contagem [0] $end
$var wire 1 ] db_memoria [3] $end
$var wire 1 ^ db_memoria [2] $end
$var wire 1 _ db_memoria [1] $end
$var wire 1 ` db_memoria [0] $end
$var wire 1 a db_jogada [3] $end
$var wire 1 b db_jogada [2] $end
$var wire 1 c db_jogada [1] $end
$var wire 1 d db_jogada [0] $end
$var wire 1 W igual $end
$var wire 1 X jogada_feita $end
$var wire 1 E db_tem_jogada $end
$var wire 1 V fimC $end
$var wire 1 e or_chaves $end
$var wire 1 f out_Q [3] $end
$var wire 1 g out_Q [2] $end
$var wire 1 h out_Q [1] $end
$var wire 1 i out_Q [0] $end
$var wire 1 j out_memory [3] $end
$var wire 1 k out_memory [2] $end
$var wire 1 l out_memory [1] $end
$var wire 1 m out_memory [0] $end
$var wire 1 n out_reg [3] $end
$var wire 1 o out_reg [2] $end
$var wire 1 p out_reg [1] $end
$var wire 1 q out_reg [0] $end

$scope module edge_detector $end
$var wire 1 G clock $end
$var wire 1 r reset $end
$var wire 1 e sinal $end
$var wire 1 X pulso $end
$var reg 1 s reg0 $end
$var reg 1 t reg1 $end
$upscope $end

$scope module contador_163 $end
$var wire 1 G clock $end
$var wire 1 u clr $end
$var wire 1 v ld $end
$var wire 1 w ent $end
$var wire 1 N enp $end
$var wire 1 x D [3] $end
$var wire 1 y D [2] $end
$var wire 1 z D [1] $end
$var wire 1 { D [0] $end
$var reg 4 | Q [3:0] $end
$var reg 1 } rco $end
$upscope $end

$scope module sync_rom_16x4 $end
$var wire 1 G clock $end
$var wire 1 f address [3] $end
$var wire 1 g address [2] $end
$var wire 1 h address [1] $end
$var wire 1 i address [0] $end
$var reg 4 ~ data_out [3:0] $end
$upscope $end

$scope module comparador_85 $end
$var wire 1 j A [3] $end
$var wire 1 k A [2] $end
$var wire 1 l A [1] $end
$var wire 1 m A [0] $end
$var wire 1 n B [3] $end
$var wire 1 o B [2] $end
$var wire 1 p B [1] $end
$var wire 1 q B [0] $end
$var wire 1 !! ALBi $end
$var wire 1 "! AGBi $end
$var wire 1 #! AEBi $end
$var wire 1 $! ALBo $end
$var wire 1 %! AGBo $end
$var wire 1 W AEBo $end
$var wire 1 &! CSL [4] $end
$var wire 1 '! CSL [3] $end
$var wire 1 (! CSL [2] $end
$var wire 1 )! CSL [1] $end
$var wire 1 *! CSL [0] $end
$var wire 1 +! CSG [4] $end
$var wire 1 ,! CSG [3] $end
$var wire 1 -! CSG [2] $end
$var wire 1 .! CSG [1] $end
$var wire 1 /! CSG [0] $end
$upscope $end

$scope module registrador_4 $end
$var wire 1 G clock $end
$var wire 1 Q clear $end
$var wire 1 O enable $end
$var wire 1 J D [3] $end
$var wire 1 K D [2] $end
$var wire 1 L D [1] $end
$var wire 1 M D [0] $end
$var wire 1 n Q [3] $end
$var wire 1 o Q [2] $end
$var wire 1 p Q [1] $end
$var wire 1 q Q [0] $end
$var reg 4 0! IQ [3:0] $end
$upscope $end
$upscope $end

$scope module exp5_unidade_controle $end
$var parameter 4 1! inicial $end
$var parameter 4 2! inicializa_elementos $end
$var parameter 4 3! espera_jogada $end
$var parameter 4 4! registra $end
$var parameter 4 5! compara $end
$var parameter 4 6! proximo $end
$var parameter 4 7! fim_acertos $end
$var parameter 4 8! fim_erro $end
$var wire 1 G clock $end
$var wire 1 H reset $end
$var wire 1 I iniciar $end
$var wire 1 V fim $end
$var wire 1 X jogada $end
$var wire 1 W igual $end
$var reg 1 9! zeraC $end
$var reg 1 :! contaC $end
$var reg 1 ;! zeraR $end
$var reg 1 <! registraR $end
$var reg 1 =! acertou $end
$var reg 1 >! errou $end
$var reg 1 ?! pronto $end
$var wire 1 R db_estado [3] $end
$var wire 1 S db_estado [2] $end
$var wire 1 T db_estado [1] $end
$var wire 1 U db_estado [0] $end
$var reg 4 @! Eatual [3:0] $end
$var reg 4 A! Eprox [3:0] $end
$upscope $end

$scope module HEX0 $end
$var wire 1 Y hexa [3] $end
$var wire 1 Z hexa [2] $end
$var wire 1 [ hexa [1] $end
$var wire 1 \ hexa [0] $end
$var reg 7 B! display [6:0] $end
$upscope $end

$scope module HEX1 $end
$var wire 1 ] hexa [3] $end
$var wire 1 ^ hexa [2] $end
$var wire 1 _ hexa [1] $end
$var wire 1 ` hexa [0] $end
$var reg 7 C! display [6:0] $end
$upscope $end

$scope module HEX3 $end
$var wire 1 R hexa [3] $end
$var wire 1 S hexa [2] $end
$var wire 1 T hexa [1] $end
$var wire 1 U hexa [0] $end
$var reg 7 D! display [6:0] $end
$upscope $end
$upscope $end
$upscope $end
$enddefinitions $end
#0
$dumpvars
1"
0#
0$
b0 %
b0 F
0s
xt
bx |
0}
bx ~
b0 0!
19!
0:!
1;!
0<!
0=!
0>!
0?!
b0 @!
b0 A!
bx B!
bx C!
b1000000 D!
b10100 !
b0 1!
b1 2!
b100 3!
b101 4!
b110 5!
b111 6!
b1100 7!
b1110 8!
0&
0'
0(
0,
0+
0*
0)
x-
x4
x3
x2
x1
x0
x/
x.
x;
x:
x9
x8
x7
x6
x5
0B
0A
0@
0?
0>
0=
1<
1C
0D
0E
0N
0O
1P
1Q
0U
0T
0S
0R
0V
xW
0X
x\
x[
xZ
xY
x`
x_
x^
x]
0d
0c
0b
0a
0e
xi
xh
xg
xf
xm
xl
xk
xj
0q
0p
0o
0n
x*!
x)!
x(!
x'!
x&!
x/!
x.!
x-!
x,!
x+!
0M
0L
0K
0J
0I
0H
1G
0!!
0"!
1#!
0{
0z
0y
0x
1v
1w
0u
0r
x$!
x%!
$end
#10
0"
0G
0C
#20
b1 F
1"
1G
1C
0t
b0 |
0i
0h
0g
0f
0\
0[
0Z
0Y
b1000000 B!
04
03
02
01
00
0/
1.
#30
0"
0G
0C
1#
1H
#40
1"
1G
1C
b1 ~
1m
0l
0k
0j
0*!
1)!
1(!
1'!
1&!
0/!
0.!
0-!
0,!
0+!
1%!
0$!
0W
1`
0_
0^
0]
0-
b1111001 C!
1;
0:
09
18
17
16
15
#50
0#
0"
0H
0G
0C
#60
1"
1G
1C
#70
0"
0G
0C
#80
1"
1G
1C
#90
0"
0G
0C
#100
1"
1G
1C
#110
0"
0G
0C
#120
1"
1G
1C
#130
0"
0G
0C
#140
1"
1G
1C
#150
0"
0G
0C
#160
1"
1G
1C
#170
0"
0G
0C
#180
1"
1G
1C
#190
0"
0G
0C
#200
1"
1G
1C
#210
0"
0G
0C
#220
1"
1G
1C
#230
0"
0G
0C
#240
1"
1G
1C
#250
b10 F
1$
0"
1I
0G
0C
1D
b1 A!
#260
1"
1G
1C
b1 @!
1U
b1111001 D!
b100 A!
0;!
1B
1?
1>
1=
0Q
#270
0"
0G
0C
#280
1"
1G
1C
b100 @!
0U
1S
b11001 D!
09!
0=
0<
0P
1u
#290
0"
0G
0C
#300
1"
1G
1C
#310
0"
0G
0C
#320
1"
1G
1C
#330
0"
0G
0C
#340
1"
1G
1C
#350
0$
0"
0I
0G
0C
0D
#360
1"
1G
1C
#370
0"
0G
0C
#380
1"
1G
1C
#390
0"
0G
0C
#400
1"
1G
1C
#410
0"
0G
0C
#420
1"
1G
1C
#430
0"
0G
0C
#440
1"
1G
1C
#450
0"
0G
0C
#460
1"
1G
1C
#470
0"
0G
0C
#480
1"
1G
1C
#490
0"
0G
0C
#500
1"
1G
1C
#510
0"
0G
0C
#520
1"
1G
1C
#530
0"
0G
0C
#540
1"
1G
1C
#550
b11 F
0"
0G
0C
b1 %
1M
1e
1E
#560
1"
1G
1C
1s
1X
b101 A!
#570
0"
0G
0C
#580
1"
1G
1C
1t
b101 @!
0X
1U
b10010 D!
b110 A!
1<!
0B
1A
0?
1O
#590
0"
0G
0C
#600
1"
1G
1C
b1 0!
b110 @!
1q
1d
1*!
1/!
1.!
1-!
1,!
1+!
0%!
1,
0U
1T
1W
1-
b10 D!
b111 A!
0<!
0>
0O
#610
0"
0G
0C
#620
1"
1G
1C
b111 @!
1U
b1111000 D!
b100 A!
1:!
0A
1?
1>
1=
1<
1N
#630
0"
0G
0C
#640
1"
1G
1C
b1 |
b100 @!
1i
1\
0U
0T
b11001 D!
b1111001 B!
0:!
14
11
10
1/
1B
0=
0<
0N
#650
0"
0G
0C
#660
1"
1G
1C
b10 ~
0m
1l
0*!
0/!
0.!
0-!
0,!
0+!
1%!
0W
0`
1_
0-
b100100 C!
0;
19
08
07
05
#670
0"
0G
0C
#680
1"
1G
1C
#690
0"
0G
0C
#700
1"
1G
1C
#710
0"
0G
0C
#720
1"
1G
1C
#730
0"
0G
0C
#740
1"
1G
1C
#750
b0 %
0"
0M
0e
0E
0G
0C
#760
1"
1G
1C
0s
#770
0"
0G
0C
#780
1"
1G
1C
0t
#790
0"
0G
0C
#800
1"
1G
1C
#810
0"
0G
0C
#820
1"
1G
1C
#830
0"
0G
0C
#840
1"
1G
1C
#850
0"
0G
0C
#860
1"
1G
1C
#870
0"
0G
0C
#880
1"
1G
1C
#890
0"
0G
0C
#900
1"
1G
1C
#910
0"
0G
0C
#920
1"
1G
1C
#930
0"
0G
0C
#940
1"
1G
1C
#950
b100 F
0"
0G
0C
b10 %
1L
1e
1E
#960
1"
1G
1C
1s
1X
b101 A!
#970
0"
0G
0C
#980
1"
1G
1C
1t
b101 @!
0X
1U
b10010 D!
b110 A!
1<!
0B
1A
0?
1O
#990
0"
0G
0C
#1000
1"
1G
1C
b10 0!
b110 @!
0q
1p
0d
1c
1*!
1/!
1.!
1-!
1,!
1+!
0%!
0,
1+
0U
1T
1W
1-
b10 D!
b111 A!
0<!
0>
0O
#1010
0"
0G
0C
#1020
1"
1G
1C
b111 @!
1U
b1111000 D!
b100 A!
1:!
0A
1?
1>
1=
1<
1N
#1030
0"
0G
0C
#1040
1"
1G
1C
b10 |
b100 @!
0i
1h
0\
1[
0U
0T
b11001 D!
b100100 B!
0:!
04
12
01
00
0.
1B
0=
0<
0N
#1050
0"
0G
0C
#1060
1"
1G
1C
b100 ~
0l
1k
0)!
0.!
0-!
0,!
0+!
1%!
0W
0_
1^
0-
b11001 C!
1;
09
18
17
06
#1070
0"
0G
0C
#1080
1"
1G
1C
#1090
0"
0G
0C
#1100
1"
1G
1C
#1110
0"
0G
0C
#1120
1"
1G
1C
#1130
0"
0G
0C
#1140
1"
1G
1C
#1150
b0 %
0"
0L
0e
0E
0G
0C
#1160
1"
1G
1C
0s
#1170
0"
0G
0C
#1180
1"
1G
1C
0t
#1190
0"
0G
0C
#1200
1"
1G
1C
#1210
0"
0G
0C
#1220
1"
1G
1C
#1230
0"
0G
0C
#1240
1"
1G
1C
#1250
0"
0G
0C
#1260
1"
1G
1C
#1270
0"
0G
0C
#1280
1"
1G
1C
#1290
0"
0G
0C
#1300
1"
1G
1C
#1310
0"
0G
0C
#1320
1"
1G
1C
#1330
0"
0G
0C
#1340
1"
1G
1C
#1350
b101 F
0"
0G
0C
b100 %
1K
1e
1E
#1360
1"
1G
1C
1s
1X
b101 A!
#1370
0"
0G
0C
#1380
1"
1G
1C
1t
b101 @!
0X
1U
b10010 D!
b110 A!
1<!
0B
1A
0?
1O
#1390
0"
0G
0C
#1400
1"
1G
1C
b100 0!
b110 @!
0p
1o
0c
1b
1)!
1.!
1-!
1,!
1+!
0%!
0+
1*
0U
1T
1W
1-
b10 D!
b111 A!
0<!
0>
0O
#1410
0"
0G
0C
#1420
1"
1G
1C
b111 @!
1U
b1111000 D!
b100 A!
1:!
0A
1?
1>
1=
1<
1N
#1430
0"
0G
0C
#1440
1"
1G
1C
b11 |
b100 @!
1i
1\
0U
0T
b11001 D!
b110000 B!
0:!
02
10
1B
0=
0<
0N
#1450
0"
0G
0C
#1460
1"
1G
1C
b1000 ~
0k
1j
0(!
0-!
0,!
0+!
1%!
0W
0^
1]
0-
b0 C!
0;
08
07
#1470
0"
0G
0C
#1480
1"
1G
1C
#1490
0"
0G
0C
#1500
1"
1G
1C
#1510
0"
0G
0C
#1520
1"
1G
1C
#1530
0"
0G
0C
#1540
1"
1G
1C
#1550
b0 %
0"
0K
0e
0E
0G
0C
#1560
1"
1G
1C
0s
#1570
0"
0G
0C
#1580
1"
1G
1C
0t
#1590
0"
0G
0C
#1600
1"
1G
1C
#1610
0"
0G
0C
#1620
1"
1G
1C
#1630
0"
0G
0C
#1640
1"
1G
1C
#1650
0"
0G
0C
#1660
1"
1G
1C
#1670
0"
0G
0C
#1680
1"
1G
1C
#1690
0"
0G
0C
#1700
1"
1G
1C
#1710
0"
0G
0C
#1720
1"
1G
1C
#1730
0"
0G
0C
#1740
1"
1G
1C
#1750
b110 F
0"
0G
0C
b1 %
1M
1e
1E
#1760
1"
1G
1C
1s
1X
b101 A!
#1770
0"
0G
0C
#1780
1"
1G
1C
1t
b101 @!
0X
1U
b10010 D!
b110 A!
1<!
0B
1A
0?
1O
#1790
0"
0G
0C
#1800
1"
1G
1C
b1 0!
b110 @!
1q
0o
1d
0b
0*!
0)!
0/!
1-!
1,
0*
0U
1T
b10 D!
b1110 A!
0<!
0>
0O
#1810
0"
0G
0C
#1820
1"
1G
1C
b1110 @!
1R
b110 D!
1?!
1>!
1@
1(
1'
#1830
0"
0G
0C
#1840
1"
1G
1C
#1850
b0 %
0"
0M
0e
0E
0G
0C
#1860
1"
1G
1C
0s
#1870
0"
0G
0C
#1880
1"
1G
1C
0t
#1890
0"
0G
0C
#1900
1"
1G
1C
#1910
0"
0G
0C
#1920
1"
1G
1C
#1930
0"
0G
0C
#1940
1"
1G
1C
#1950
0"
0G
0C
#1960
1"
1G
1C
#1970
0"
0G
0C
#1980
1"
1G
1C
#1990
0"
0G
0C
#2000
1"
1G
1C
#2010
0"
0G
0C
#2020
1"
1G
1C
#2030
0"
0G
0C
#2040
1"
1G
1C
#2050
b111 F
0"
0G
0C
b1 %
1M
1e
1E
#2060
1"
1G
1C
1s
1X
#2070
0"
0G
0C
#2080
1"
1G
1C
1t
0X
#2090
0"
0G
0C
#2100
1"
1G
1C
#2110
0"
0G
0C
#2120
1"
1G
1C
#2130
0"
0G
0C
#2140
1"
1G
1C
#2150
b0 %
0"
0M
0e
0E
0G
0C
#2160
1"
1G
1C
0s
#2170
0"
0G
0C
#2180
1"
1G
1C
0t
#2190
0"
0G
0C
#2200
1"
1G
1C
#2210
0"
0G
0C
#2220
1"
1G
1C
#2230
0"
0G
0C
#2240
1"
1G
1C
#2250
0"
0G
0C
#2260
1"
1G
1C
#2270
0"
0G
0C
#2280
1"
1G
1C
#2290
0"
0G
0C
#2300
1"
1G
1C
#2310
0"
0G
0C
#2320
1"
1G
1C
#2330
0"
0G
0C
#2340
1"
1G
1C
#2350
b1000 F
0"
0G
0C
1#
1H
b0 @!
0T
0S
0R
b1000000 D!
b0 A!
19!
1;!
0?!
0>!
0A
0@
1<
1P
0(
0'
0u
1Q
b0 0!
0q
0d
1*!
1)!
1(!
0'!
1/!
0,
#2360
1"
1G
1C
b0 |
0i
0h
0\
0[
b1000000 B!
00
0/
1.
#2370
0#
0"
0H
0G
0C
#2380
1"
1G
1C
b1 ~
1m
0j
0*!
1'!
0/!
0.!
0-!
1`
0]
b1111001 C!
1;
18
17
16
15
#2390
0"
0G
0C
#2400
1"
1G
1C
#2410
0"
0G
0C
#2420
1"
1G
1C
#2430
0"
0G
0C
#2440
1"
1G
1C
#2450
0"
0G
0C
#2460
1"
1G
1C
#2470
0"
0G
0C
#2480
1"
1G
1C
#2490
0"
0G
0C
#2500
1"
1G
1C
#2510
0"
0G
0C
#2520
1"
1G
1C
#2530
0"
0G
0C
#2540
1"
1G
1C
#2550
0"
0G
0C
#2560
1"
1G
1C
#2570
b1001 F
1$
0"
1I
0G
0C
1D
b1 A!
#2580
1"
1G
1C
b1 @!
1U
b1111001 D!
b100 A!
0;!
1B
1?
1>
1=
0Q
#2590
0"
0G
0C
#2600
1"
1G
1C
b100 @!
0U
1S
b11001 D!
09!
0=
0<
0P
1u
#2610
0"
0G
0C
#2620
1"
1G
1C
#2630
0"
0G
0C
#2640
1"
1G
1C
#2650
0"
0G
0C
#2660
1"
1G
1C
#2670
0$
0"
0I
0G
0C
0D
#2680
1"
1G
1C
#2690
0"
0G
0C
#2700
1"
1G
1C
#2710
0"
0G
0C
#2720
1"
1G
1C
#2730
0"
0G
0C
#2740
1"
1G
1C
#2750
0"
0G
0C
#2760
1"
1G
1C
#2770
0"
0G
0C
#2780
1"
1G
1C
#2790
0"
0G
0C
#2800
1"
1G
1C
#2810
0"
0G
0C
#2820
1"
1G
1C
#2830
0"
0G
0C
#2840
1"
1G
1C
#2850
0"
0G
0C
#2860
1"
1G
1C
#2870
b1010 F
0"
0G
0C
b1 %
1M
1e
1E
#2880
1"
1G
1C
1s
1X
b101 A!
#2890
0"
0G
0C
#2900
1"
1G
1C
1t
b101 @!
0X
1U
b10010 D!
b110 A!
1<!
0B
1A
0?
1O
#2910
0"
0G
0C
#2920
1"
1G
1C
b1 0!
b110 @!
1q
1d
1*!
1/!
1.!
1-!
1,!
1+!
0%!
1,
0U
1T
1W
1-
b10 D!
b111 A!
0<!
0>
0O
#2930
0"
0G
0C
#2940
1"
1G
1C
b111 @!
1U
b1111000 D!
b100 A!
1:!
0A
1?
1>
1=
1<
1N
#2950
0"
0G
0C
#2960
1"
1G
1C
b1 |
b100 @!
1i
1\
0U
0T
b11001 D!
b1111001 B!
0:!
14
11
10
1/
1B
0=
0<
0N
#2970
0"
0G
0C
#2980
1"
1G
1C
b10 ~
0m
1l
0*!
0/!
0.!
0-!
0,!
0+!
1%!
0W
0`
1_
0-
b100100 C!
0;
19
08
07
05
#2990
0"
0G
0C
#3000
1"
1G
1C
#3010
0"
0G
0C
#3020
1"
1G
1C
#3030
0"
0G
0C
#3040
1"
1G
1C
#3050
0"
0G
0C
#3060
1"
1G
1C
#3070
b0 %
0"
0M
0e
0E
0G
0C
#3080
1"
1G
1C
0s
#3090
0"
0G
0C
#3100
1"
1G
1C
0t
#3110
0"
0G
0C
#3120
1"
1G
1C
#3130
0"
0G
0C
#3140
1"
1G
1C
#3150
0"
0G
0C
#3160
1"
1G
1C
#3170
0"
0G
0C
#3180
1"
1G
1C
#3190
0"
0G
0C
#3200
1"
1G
1C
#3210
0"
0G
0C
#3220
1"
1G
1C
#3230
0"
0G
0C
#3240
1"
1G
1C
#3250
0"
0G
0C
#3260
1"
1G
1C
#3270
b1011 F
0"
0G
0C
b10 %
1L
1e
1E
#3280
1"
1G
1C
1s
1X
b101 A!
#3290
0"
0G
0C
#3300
1"
1G
1C
1t
b101 @!
0X
1U
b10010 D!
b110 A!
1<!
0B
1A
0?
1O
#3310
0"
0G
0C
#3320
1"
1G
1C
b10 0!
b110 @!
0q
1p
0d
1c
1*!
1/!
1.!
1-!
1,!
1+!
0%!
0,
1+
0U
1T
1W
1-
b10 D!
b111 A!
0<!
0>
0O
#3330
0"
0G
0C
#3340
1"
1G
1C
b111 @!
1U
b1111000 D!
b100 A!
1:!
0A
1?
1>
1=
1<
1N
#3350
0"
0G
0C
#3360
1"
1G
1C
b10 |
b100 @!
0i
1h
0\
1[
0U
0T
b11001 D!
b100100 B!
0:!
04
12
01
00
0.
1B
0=
0<
0N
#3370
0"
0G
0C
#3380
1"
1G
1C
b100 ~
0l
1k
0)!
0.!
0-!
0,!
0+!
1%!
0W
0_
1^
0-
b11001 C!
1;
09
18
17
06
#3390
0"
0G
0C
#3400
1"
1G
1C
#3410
0"
0G
0C
#3420
1"
1G
1C
#3430
0"
0G
0C
#3440
1"
1G
1C
#3450
0"
0G
0C
#3460
1"
1G
1C
#3470
b0 %
0"
0L
0e
0E
0G
0C
#3480
1"
1G
1C
0s
#3490
0"
0G
0C
#3500
1"
1G
1C
0t
#3510
0"
0G
0C
#3520
1"
1G
1C
#3530
0"
0G
0C
#3540
1"
1G
1C
#3550
0"
0G
0C
#3560
1"
1G
1C
#3570
0"
0G
0C
#3580
1"
1G
1C
#3590
0"
0G
0C
#3600
1"
1G
1C
#3610
0"
0G
0C
#3620
1"
1G
1C
#3630
0"
0G
0C
#3640
1"
1G
1C
#3650
0"
0G
0C
#3660
1"
1G
1C
#3670
b1100 F
0"
0G
0C
b100 %
1K
1e
1E
#3680
1"
1G
1C
1s
1X
b101 A!
#3690
0"
0G
0C
#3700
1"
1G
1C
1t
b101 @!
0X
1U
b10010 D!
b110 A!
1<!
0B
1A
0?
1O
#3710
0"
0G
0C
#3720
1"
1G
1C
b100 0!
b110 @!
0p
1o
0c
1b
1)!
1.!
1-!
1,!
1+!
0%!
0+
1*
0U
1T
1W
1-
b10 D!
b111 A!
0<!
0>
0O
#3730
0"
0G
0C
#3740
1"
1G
1C
b111 @!
1U
b1111000 D!
b100 A!
1:!
0A
1?
1>
1=
1<
1N
#3750
0"
0G
0C
#3760
1"
1G
1C
b11 |
b100 @!
1i
1\
0U
0T
b11001 D!
b110000 B!
0:!
02
10
1B
0=
0<
0N
#3770
0"
0G
0C
#3780
1"
1G
1C
b1000 ~
0k
1j
0(!
0-!
0,!
0+!
1%!
0W
0^
1]
0-
b0 C!
0;
08
07
#3790
0"
0G
0C
#3800
1"
1G
1C
#3810
0"
0G
0C
#3820
1"
1G
1C
#3830
0"
0G
0C
#3840
1"
1G
1C
#3850
0"
0G
0C
#3860
1"
1G
1C
#3870
b0 %
0"
0K
0e
0E
0G
0C
#3880
1"
1G
1C
0s
#3890
0"
0G
0C
#3900
1"
1G
1C
0t
#3910
0"
0G
0C
#3920
1"
1G
1C
#3930
0"
0G
0C
#3940
1"
1G
1C
#3950
0"
0G
0C
#3960
1"
1G
1C
#3970
0"
0G
0C
#3980
1"
1G
1C
#3990
0"
0G
0C
#4000
1"
1G
1C
#4010
0"
0G
0C
#4020
1"
1G
1C
#4030
0"
0G
0C
#4040
1"
1G
1C
#4050
0"
0G
0C
#4060
1"
1G
1C
#4070
b1101 F
0"
0G
0C
b1000 %
1J
1e
1E
#4080
1"
1G
1C
1s
1X
b101 A!
#4090
0"
0G
0C
#4100
1"
1G
1C
1t
b101 @!
0X
1U
b10010 D!
b110 A!
1<!
0B
1A
0?
1O
#4110
0"
0G
0C
#4120
1"
1G
1C
b1000 0!
b110 @!
0o
1n
0b
1a
1(!
1-!
1,!
1+!
0%!
0*
1)
0U
1T
1W
1-
b10 D!
b111 A!
0<!
0>
0O
#4130
0"
0G
0C
#4140
1"
1G
1C
b111 @!
1U
b1111000 D!
b100 A!
1:!
0A
1?
1>
1=
1<
1N
#4150
0"
0G
0C
#4160
1"
1G
1C
b100 |
b100 @!
0i
0h
1g
0\
0[
1Z
0U
0T
b11001 D!
b11001 B!
0:!
14
11
0/
1B
0=
0<
0N
#4170
0"
0G
0C
#4180
1"
1G
1C
b100 ~
1k
0j
0(!
0'!
0&!
0-!
1$!
0W
1^
0]
0-
b11001 C!
1;
18
17
#4190
0"
0G
0C
#4200
1"
1G
1C
#4210
0"
0G
0C
#4220
1"
1G
1C
#4230
0"
0G
0C
#4240
1"
1G
1C
#4250
0"
0G
0C
#4260
1"
1G
1C
#4270
b0 %
0"
0J
0e
0E
0G
0C
#4280
1"
1G
1C
0s
#4290
0"
0G
0C
#4300
1"
1G
1C
0t
#4310
0"
0G
0C
#4320
1"
1G
1C
#4330
0"
0G
0C
#4340
1"
1G
1C
#4350
0"
0G
0C
#4360
1"
1G
1C
#4370
0"
0G
0C
#4380
1"
1G
1C
#4390
0"
0G
0C
#4400
1"
1G
1C
#4410
0"
0G
0C
#4420
1"
1G
1C
#4430
0"
0G
0C
#4440
1"
1G
1C
#4450
0"
0G
0C
#4460
1"
1G
1C
#4470
b1110 F
0"
0G
0C
b100 %
1K
1e
1E
#4480
1"
1G
1C
1s
1X
b101 A!
#4490
0"
0G
0C
#4500
1"
1G
1C
1t
b101 @!
0X
1U
b10010 D!
b110 A!
1<!
0B
1A
0?
1O
#4510
0"
0G
0C
#4520
1"
1G
1C
b100 0!
b110 @!
1o
0n
1b
0a
1(!
1'!
1&!
1-!
0$!
1*
0)
0U
1T
1W
1-
b10 D!
b111 A!
0<!
0>
0O
#4530
0"
0G
0C
#4540
1"
1G
1C
b111 @!
1U
b1111000 D!
b100 A!
1:!
0A
1?
1>
1=
1<
1N
#4550
0"
0G
0C
#4560
1"
1G
1C
b101 |
b100 @!
1i
1\
0U
0T
b11001 D!
b10010 B!
0:!
04
13
01
1B
0=
0<
0N
#4570
0"
0G
0C
#4580
1"
1G
1C
b10 ~
1l
0k
0)!
0(!
0'!
0&!
0.!
1$!
0W
1_
0^
0-
b100100 C!
0;
19
08
07
16
#4590
0"
0G
0C
#4600
1"
1G
1C
#4610
0"
0G
0C
#4620
1"
1G
1C
#4630
0"
0G
0C
#4640
1"
1G
1C
#4650
0"
0G
0C
#4660
1"
1G
1C
#4670
b0 %
0"
0K
0e
0E
0G
0C
#4680
1"
1G
1C
0s
#4690
0"
0G
0C
#4700
1"
1G
1C
0t
#4710
0"
0G
0C
#4720
1"
1G
1C
#4730
0"
0G
0C
#4740
1"
1G
1C
#4750
0"
0G
0C
#4760
1"
1G
1C
#4770
0"
0G
0C
#4780
1"
1G
1C
#4790
0"
0G
0C
#4800
1"
1G
1C
#4810
0"
0G
0C
#4820
1"
1G
1C
#4830
0"
0G
0C
#4840
1"
1G
1C
#4850
0"
0G
0C
#4860
1"
1G
1C
#4870
b1111 F
0"
0G
0C
b10 %
1L
1e
1E
#4880
1"
1G
1C
1s
1X
b101 A!
#4890
0"
0G
0C
