waveforms.vcd
$date
	Sun Feb  4 19:26:57 2024
$end
$version
	ModelSim Version 2020.1
$end
$timescale
	1ns
$end

$scope module circuito_exp5_tb $end
$var parameter 32 ! clockPeriod $end
$var reg 1 " clock_in $end
$var reg 1 # reset_in $end
$var reg 1 $ iniciar_in $end
$var reg 4 % chaves_in [3:0] $end
$var reg 1 & nivel_in $end
$var wire 1 ' acertou_out $end
$var wire 1 ( errou_out $end
$var wire 1 ) pronto_out $end
$var wire 1 * leds_out [3] $end
$var wire 1 + leds_out [2] $end
$var wire 1 , leds_out [1] $end
$var wire 1 - leds_out [0] $end
$var wire 1 . db_igual $end
$var wire 1 / db_contagem [6] $end
$var wire 1 0 db_contagem [5] $end
$var wire 1 1 db_contagem [4] $end
$var wire 1 2 db_contagem [3] $end
$var wire 1 3 db_contagem [2] $end
$var wire 1 4 db_contagem [1] $end
$var wire 1 5 db_contagem [0] $end
$var wire 1 6 db_memoria [6] $end
$var wire 1 7 db_memoria [5] $end
$var wire 1 8 db_memoria [4] $end
$var wire 1 9 db_memoria [3] $end
$var wire 1 : db_memoria [2] $end
$var wire 1 ; db_memoria [1] $end
$var wire 1 < db_memoria [0] $end
$var wire 1 = db_estado [6] $end
$var wire 1 > db_estado [5] $end
$var wire 1 ? db_estado [4] $end
$var wire 1 @ db_estado [3] $end
$var wire 1 A db_estado [2] $end
$var wire 1 B db_estado [1] $end
$var wire 1 C db_estado [0] $end
$var wire 1 D db_clock $end
$var wire 1 E db_iniciar $end
$var wire 1 F db_tem_jogada $end
$var wire 1 G db_nivel $end
$var reg 32 H caso [31:0] $end

$scope module DUT $end
$var wire 1 I clock $end
$var wire 1 J reset $end
$var wire 1 K iniciar $end
$var wire 1 L chaves [3] $end
$var wire 1 M chaves [2] $end
$var wire 1 N chaves [1] $end
$var wire 1 O chaves [0] $end
$var wire 1 P nivel $end
$var wire 1 ' acertou $end
$var wire 1 ( errou $end
$var wire 1 ) pronto $end
$var wire 1 * leds [3] $end
$var wire 1 + leds [2] $end
$var wire 1 , leds [1] $end
$var wire 1 - leds [0] $end
$var wire 1 . db_igual $end
$var wire 1 / db_contagem [6] $end
$var wire 1 0 db_contagem [5] $end
$var wire 1 1 db_contagem [4] $end
$var wire 1 2 db_contagem [3] $end
$var wire 1 3 db_contagem [2] $end
$var wire 1 4 db_contagem [1] $end
$var wire 1 5 db_contagem [0] $end
$var wire 1 6 db_memoria [6] $end
$var wire 1 7 db_memoria [5] $end
$var wire 1 8 db_memoria [4] $end
$var wire 1 9 db_memoria [3] $end
$var wire 1 : db_memoria [2] $end
$var wire 1 ; db_memoria [1] $end
$var wire 1 < db_memoria [0] $end
$var wire 1 = db_estado [6] $end
$var wire 1 > db_estado [5] $end
$var wire 1 ? db_estado [4] $end
$var wire 1 @ db_estado [3] $end
$var wire 1 A db_estado [2] $end
$var wire 1 B db_estado [1] $end
$var wire 1 C db_estado [0] $end
$var wire 1 G db_nivel $end
$var wire 1 D db_clock $end
$var wire 1 E db_iniciar $end
$var wire 1 F db_tem_jogada $end
$var wire 1 Q contaC $end
$var wire 1 R registraR $end
$var wire 1 S registraN $end
$var wire 1 T zeraC $end
$var wire 1 U zeraR $end
$var wire 1 V fimC $end
$var wire 1 W igual $end
$var wire 1 X jogada_feita $end
$var wire 1 Y nivel_reg $end
$var wire 1 Z meioC $end
$var wire 1 [ s_jogada [3] $end
$var wire 1 \ s_jogada [2] $end
$var wire 1 ] s_jogada [1] $end
$var wire 1 ^ s_jogada [0] $end
$var wire 1 _ s_db_contagem [3] $end
$var wire 1 ` s_db_contagem [2] $end
$var wire 1 a s_db_contagem [1] $end
$var wire 1 b s_db_contagem [0] $end
$var wire 1 c s_db_memoria [3] $end
$var wire 1 d s_db_memoria [2] $end
$var wire 1 e s_db_memoria [1] $end
$var wire 1 f s_db_memoria [0] $end
$var wire 1 g s_db_jogada [3] $end
$var wire 1 h s_db_jogada [2] $end
$var wire 1 i s_db_jogada [1] $end
$var wire 1 j s_db_jogada [0] $end
$var wire 1 k s_db_estado [3] $end
$var wire 1 l s_db_estado [2] $end
$var wire 1 m s_db_estado [1] $end
$var wire 1 n s_db_estado [0] $end

$scope module exp5_fluxo_dados $end
$var wire 1 I clock $end
$var wire 1 L chaves [3] $end
$var wire 1 M chaves [2] $end
$var wire 1 N chaves [1] $end
$var wire 1 O chaves [0] $end
$var wire 1 P nivel $end
$var wire 1 U zeraR $end
$var wire 1 R registraR $end
$var wire 1 T zeraC $end
$var wire 1 Q contaC $end
$var wire 1 S registraN $end
$var wire 1 W igual $end
$var wire 1 X jogada_feita $end
$var wire 1 Y nivel_reg $end
$var wire 1 V fimC $end
$var wire 1 Z meioC $end
$var wire 1 [ jogada [3] $end
$var wire 1 \ jogada [2] $end
$var wire 1 ] jogada [1] $end
$var wire 1 ^ jogada [0] $end
$var wire 1 F db_tem_jogada $end
$var wire 1 c db_memoria [3] $end
$var wire 1 d db_memoria [2] $end
$var wire 1 e db_memoria [1] $end
$var wire 1 f db_memoria [0] $end
$var wire 1 _ db_contagem [3] $end
$var wire 1 ` db_contagem [2] $end
$var wire 1 a db_contagem [1] $end
$var wire 1 b db_contagem [0] $end
$var wire 1 o valor_memoria [3] $end
$var wire 1 p valor_memoria [2] $end
$var wire 1 q valor_memoria [1] $end
$var wire 1 r valor_memoria [0] $end
$var wire 1 s contagem [3] $end
$var wire 1 t contagem [2] $end
$var wire 1 u contagem [1] $end
$var wire 1 v contagem [0] $end
$var wire 1 w tem_jogada $end

$scope module reg_nivel $end
$var parameter 32 x SIZE $end
$var wire 1 I clock $end
$var wire 1 U clear $end
$var wire 1 S enable $end
$var wire 1 P D [0] $end
$var wire 1 Y Q [0] $end
$var reg 1 y IQ [0:0] $end
$upscope $end

$scope module edge_detector $end
$var wire 1 I clock $end
$var wire 1 z reset $end
$var wire 1 w sinal $end
$var wire 1 X pulso $end
$var reg 1 { reg0 $end
$var reg 1 | reg1 $end
$upscope $end

$scope module contador_m $end
$var parameter 32 } M $end
$var parameter 32 ~ N $end
$var wire 1 I clock $end
$var wire 1 T zera_as $end
$var wire 1 !! zera_s $end
$var wire 1 Q conta $end
$var reg 4 "! Q [3:0] $end
$var reg 1 #! fim $end
$var reg 1 $! meio $end
$upscope $end

$scope module sync_rom_16x4 $end
$var wire 1 I clock $end
$var wire 1 s address [3] $end
$var wire 1 t address [2] $end
$var wire 1 u address [1] $end
$var wire 1 v address [0] $end
$var reg 4 %! data_out [3:0] $end
$upscope $end

$scope module comparador_85 $end
$var wire 1 o A [3] $end
$var wire 1 p A [2] $end
$var wire 1 q A [1] $end
$var wire 1 r A [0] $end
$var wire 1 [ B [3] $end
$var wire 1 \ B [2] $end
$var wire 1 ] B [1] $end
$var wire 1 ^ B [0] $end
$var wire 1 &! ALBi $end
$var wire 1 '! AGBi $end
$var wire 1 (! AEBi $end
$var wire 1 )! ALBo $end
$var wire 1 *! AGBo $end
$var wire 1 W AEBo $end
$var wire 1 +! CSL [4] $end
$var wire 1 ,! CSL [3] $end
$var wire 1 -! CSL [2] $end
$var wire 1 .! CSL [1] $end
$var wire 1 /! CSL [0] $end
$var wire 1 0! CSG [4] $end
$var wire 1 1! CSG [3] $end
$var wire 1 2! CSG [2] $end
$var wire 1 3! CSG [1] $end
$var wire 1 4! CSG [0] $end
$upscope $end

$scope module registrador_4 $end
$var parameter 32 5! SIZE $end
$var wire 1 I clock $end
$var wire 1 U clear $end
$var wire 1 R enable $end
$var wire 1 L D [3] $end
$var wire 1 M D [2] $end
$var wire 1 N D [1] $end
$var wire 1 O D [0] $end
$var wire 1 [ Q [3] $end
$var wire 1 \ Q [2] $end
$var wire 1 ] Q [1] $end
$var wire 1 ^ Q [0] $end
$var reg 4 6! IQ [3:0] $end
$upscope $end
$upscope $end

$scope module exp5_unidade_controle $end
$var parameter 4 7! inicial $end
$var parameter 4 8! inicializa_elementos $end
$var parameter 4 9! espera_jogada $end
$var parameter 4 :! registra $end
$var parameter 4 ;! compara $end
$var parameter 4 <! proximo $end
$var parameter 4 =! fim_acertos $end
$var parameter 4 >! fim_erro $end
$var wire 1 I clock $end
$var wire 1 J reset $end
$var wire 1 K iniciar $end
$var wire 1 V fim $end
$var wire 1 Z meio $end
$var wire 1 X jogada $end
$var wire 1 W igual $end
$var wire 1 Y nivel $end
$var reg 1 ?! zeraC $end
$var reg 1 @! contaC $end
$var reg 1 A! zeraR $end
$var reg 1 B! registraR $end
$var reg 1 C! registraN $end
$var reg 1 D! acertou $end
$var reg 1 E! errou $end
$var reg 1 F! pronto $end
$var wire 1 k db_estado [3] $end
$var wire 1 l db_estado [2] $end
$var wire 1 m db_estado [1] $end
$var wire 1 n db_estado [0] $end
$var reg 4 G! Eatual [3:0] $end
$var reg 4 H! Eprox [3:0] $end
$upscope $end

$scope module HEX0 $end
$var wire 1 _ hexa [3] $end
$var wire 1 ` hexa [2] $end
$var wire 1 a hexa [1] $end
$var wire 1 b hexa [0] $end
$var reg 7 I! display [6:0] $end
$upscope $end

$scope module HEX1 $end
$var wire 1 c hexa [3] $end
$var wire 1 d hexa [2] $end
$var wire 1 e hexa [1] $end
$var wire 1 f hexa [0] $end
$var reg 7 J! display [6:0] $end
$upscope $end

$scope module HEX3 $end
$var wire 1 k hexa [3] $end
$var wire 1 l hexa [2] $end
$var wire 1 m hexa [1] $end
$var wire 1 n hexa [0] $end
$var reg 7 K! display [6:0] $end
$upscope $end
$upscope $end
$upscope $end
$enddefinitions $end
#0
$dumpvars
1"
0#
0$
b0 %
0&
b0 H
b0 y
0{
x|
b0 "!
0#!
0$!
bx %!
b0 6!
1?!
0@!
1A!
0B!
0C!
0D!
0E!
0F!
b0 G!
b0 H!
b1000000 I!
bx J!
b1000000 K!
b10100 !
b1 x
b10000 }
b100 ~
b100 5!
b0 7!
b1 8!
b100 9!
b101 :!
b110 ;!
b111 <!
b1100 =!
b1110 >!
0'
0(
0)
0-
0,
0+
0*
x.
05
04
03
02
01
00
1/
x<
x;
x:
x9
x8
x7
x6
0C
0B
0A
0@
0?
0>
1=
1D
0E
0F
0G
0Q
0R
0S
1T
1U
0V
xW
0X
0Y
0Z
0^
0]
0\
0[
0b
0a
0`
0_
xf
xe
xd
xc
zj
zi
zh
zg
0n
0m
0l
0k
xr
xq
xp
xo
0v
0u
0t
0s
0w
x/!
x.!
x-!
x,!
x+!
x4!
x3!
x2!
x1!
x0!
0O
0N
0M
0L
0P
0K
0J
1I
0&!
0'!
1(!
0!!
0z
x)!
x*!
$end
#10
0"
0I
0D
#20
b1 H
1"
1I
1D
b1 %!
1r
0q
0p
0o
0/!
1.!
1-!
1,!
1+!
04!
03!
02!
01!
00!
1*!
0)!
0W
1f
0e
0d
0c
0.
b1111001 J!
1<
0;
0:
19
18
17
16
0|
#30
0"
0I
0D
1#
1J
#40
1"
1I
1D
#50
0#
0"
0J
0I
0D
#60
1"
1I
1D
#70
0"
0I
0D
#80
1"
1I
1D
#90
0"
0I
0D
#100
1"
1I
1D
#110
0"
0I
0D
#120
1"
1I
1D
#130
0"
0I
0D
#140
1"
1I
1D
#150
0"
0I
0D
#160
1"
1I
1D
#170
0"
0I
0D
#180
1"
1I
1D
#190
0"
0I
0D
#200
1"
1I
1D
#210
0"
0I
0D
#220
1"
1I
1D
#230
0"
0I
0D
#240
1"
1I
1D
#250
b10 H
1$
1&
0"
1P
1K
0I
0D
1E
b1 H!
#260
1"
1I
1D
b1 G!
1n
b1111001 K!
b100 H!
0A!
1C!
1C
1@
1?
1>
1S
0U
#270
0"
0I
0D
#280
1"
1I
1D
b1 y
b100 G!
0n
1l
1Y
1G
b11001 K!
0?!
0C!
0>
0=
0S
0T
#290
0"
0I
0D
#300
1"
1I
1D
#310
0"
0I
0D
#320
1"
1I
1D
#330
0"
0I
0D
#340
1"
1I
1D
#350
0$
0"
0K
0I
0D
0E
#360
1"
1I
1D
#370
0"
0I
0D
#380
1"
1I
1D
#390
0"
0I
0D
#400
1"
1I
1D
#410
0"
0I
0D
#420
1"
1I
1D
#430
0"
0I
0D
#440
1"
1I
1D
#450
0"
0I
0D
#460
1"
1I
1D
#470
0"
0I
0D
#480
1"
1I
1D
#490
0"
0I
0D
#500
1"
1I
1D
#510
0"
0I
0D
#520
1"
1I
1D
#530
0"
0I
0D
#540
1"
1I
1D
#550
b11 H
b1 %
0"
1O
1w
1F
0I
0D
#560
1"
1I
1D
1{
1X
b101 H!
#570
0"
0I
0D
#580
1"
1I
1D
1|
b101 G!
0X
1n
b10010 K!
b110 H!
1B!
0C
1B
0@
1R
#590
0"
0I
0D
#600
1"
1I
1D
b1 6!
b110 G!
1^
1-
1/!
14!
13!
12!
11!
10!
0*!
0n
1m
1W
1.
b10 K!
b111 H!
0B!
0?
0R
#610
b0 %
0"
0O
0w
0F
0I
0D
#620
1"
1I
1D
0{
b111 G!
1n
b1111000 K!
b100 H!
1@!
0B
1@
1?
1>
1=
1Q
#630
0"
0I
0D
#640
1"
1I
1D
0|
b1 "!
b100 G!
1v
1b
0n
0m
b11001 K!
b1111001 I!
0@!
15
12
11
10
1C
0>
0=
0Q
#650
0"
0I
0D
#660
1"
1I
1D
b10 %!
0r
1q
0/!
04!
03!
02!
01!
00!
1*!
0W
0f
1e
0.
b100100 J!
0<
1:
09
08
06
#670
0"
0I
0D
#680
1"
1I
1D
#690
0"
0I
0D
#700
1"
1I
1D
#710
0"
0I
0D
#720
1"
1I
1D
#730
0"
0I
0D
#740
1"
1I
1D
#750
0"
0I
0D
#760
1"
1I
1D
#770
0"
0I
0D
#780
1"
1I
1D
#790
0"
0I
0D
#800
1"
1I
1D
#810
b100 H
b10 %
0"
1N
1w
1F
0I
0D
#820
1"
1I
1D
1{
1X
b101 H!
#830
0"
0I
0D
#840
1"
1I
1D
1|
b101 G!
0X
1n
b10010 K!
b110 H!
1B!
0C
1B
0@
1R
#850
0"
0I
0D
#860
1"
1I
1D
b10 6!
b110 G!
0^
1]
0-
1,
1/!
14!
13!
12!
11!
10!
0*!
0n
1m
1W
1.
b10 K!
b111 H!
0B!
0?
0R
#870
b0 %
0"
0N
0w
0F
0I
0D
#880
1"
1I
1D
0{
b111 G!
1n
b1111000 K!
b100 H!
1@!
0B
1@
1?
1>
1=
1Q
#890
0"
0I
0D
#900
1"
1I
1D
0|
b10 "!
b100 G!
0v
1u
0b
1a
0n
0m
b11001 K!
b100100 I!
0@!
05
13
02
01
0/
1C
0>
0=
0Q
#910
0"
0I
0D
#920
1"
1I
1D
b100 %!
0q
1p
0.!
03!
02!
01!
00!
1*!
0W
0e
1d
0.
b11001 J!
1<
0:
19
18
07
#930
0"
0I
0D
#940
1"
1I
1D
#950
0"
0I
0D
#960
1"
1I
1D
#970
0"
0I
0D
#980
1"
1I
1D
#990
0"
0I
0D
#1000
1"
1I
1D
#1010
0"
0I
0D
#1020
1"
1I
1D
#1030
0"
0I
0D
#1040
1"
1I
1D
#1050
0"
0I
0D
#1060
1"
1I
1D
#1070
b101 H
b100 %
0"
1M
1w
1F
0I
0D
#1080
1"
1I
1D
1{
1X
b101 H!
#1090
0"
0I
0D
#1100
1"
1I
1D
1|
b101 G!
0X
1n
b10010 K!
b110 H!
1B!
0C
1B
0@
1R
#1110
0"
0I
0D
#1120
1"
1I
1D
b100 6!
b110 G!
0]
1\
0,
1+
1.!
13!
12!
11!
10!
0*!
0n
1m
1W
1.
b10 K!
b111 H!
0B!
0?
0R
#1130
b0 %
0"
0M
0w
0F
0I
0D
#1140
1"
1I
1D
0{
b111 G!
1n
b1111000 K!
b100 H!
1@!
0B
1@
1?
1>
1=
1Q
#1150
0"
0I
0D
#1160
1"
1I
1D
0|
b11 "!
b100 G!
1v
1b
0n
0m
b11001 K!
b110000 I!
0@!
03
11
1C
0>
0=
0Q
#1170
0"
0I
0D
#1180
1"
1I
1D
b1000 %!
0p
1o
0-!
02!
01!
00!
1*!
0W
0d
1c
0.
b0 J!
0<
09
08
#1190
0"
0I
0D
#1200
1"
1I
1D
#1210
0"
0I
0D
#1220
1"
1I
1D
#1230
0"
0I
0D
#1240
1"
1I
1D
#1250
0"
0I
0D
#1260
1"
1I
1D
#1270
0"
0I
0D
#1280
1"
1I
1D
#1290
0"
0I
0D
#1300
1"
1I
1D
#1310
0"
0I
0D
#1320
1"
1I
1D
#1330
b110 H
b1000 %
0"
1L
1w
1F
0I
0D
#1340
1"
1I
1D
1{
1X
b101 H!
#1350
0"
0I
0D
#1360
1"
1I
1D
1|
b101 G!
0X
1n
b10010 K!
b110 H!
1B!
0C
1B
0@
1R
#1370
0"
0I
0D
#1380
1"
1I
1D
b1000 6!
b110 G!
0\
1[
0+
1*
1-!
12!
11!
10!
0*!
0n
1m
1W
1.
b10 K!
b111 H!
0B!
0?
0R
#1390
b0 %
0"
0L
0w
0F
0I
0D
#1400
1"
1I
1D
0{
b111 G!
1n
b1111000 K!
b100 H!
1@!
0B
1@
1?
1>
1=
1Q
#1410
0"
0I
0D
#1420
1"
1I
1D
0|
b100 "!
b100 G!
0v
0u
1t
0b
0a
1`
0n
0m
b11001 K!
b11001 I!
0@!
15
12
00
1C
0>
0=
0Q
#1430
0"
0I
0D
#1440
1"
1I
1D
b100 %!
1p
0o
0-!
0,!
0+!
02!
1)!
0W
1d
0c
0.
b11001 J!
1<
19
18
#1450
0"
0I
0D
#1460
1"
1I
1D
#1470
0"
0I
0D
#1480
1"
1I
1D
#1490
0"
0I
0D
#1500
1"
1I
1D
#1510
0"
0I
0D
#1520
1"
1I
1D
#1530
0"
0I
0D
#1540
1"
1I
1D
#1550
0"
0I
0D
#1560
1"
1I
1D
#1570
0"
0I
0D
#1580
1"
1I
1D
#1590
b111 H
b100 %
0"
1M
1w
1F
0I
0D
#1600
1"
1I
1D
1{
1X
b101 H!
#1610
0"
0I
0D
#1620
1"
1I
1D
1|
b101 G!
0X
1n
b10010 K!
b110 H!
1B!
0C
1B
0@
1R
#1630
0"
0I
0D
#1640
1"
1I
1D
b100 6!
b110 G!
1\
0[
1+
0*
1-!
1,!
1+!
12!
0)!
0n
1m
1W
1.
b10 K!
b111 H!
0B!
0?
0R
#1650
b0 %
0"
0M
0w
0F
0I
0D
#1660
1"
1I
1D
0{
b111 G!
1n
b1111000 K!
b100 H!
1@!
0B
1@
1?
1>
1=
1Q
#1670
0"
0I
0D
#1680
1"
1I
1D
0|
b101 "!
b100 G!
1v
1b
0n
0m
b11001 K!
b10010 I!
0@!
05
14
02
1C
0>
0=
0Q
#1690
0"
0I
0D
#1700
1"
1I
1D
b10 %!
1q
0p
0.!
0-!
0,!
0+!
03!
1)!
0W
1e
0d
0.
b100100 J!
0<
1:
09
08
17
#1710
0"
0I
0D
#1720
1"
1I
1D
#1730
0"
0I
0D
#1740
1"
1I
1D
#1750
0"
0I
0D
#1760
1"
1I
1D
#1770
0"
0I
0D
#1780
1"
1I
1D
#1790
0"
0I
0D
#1800
1"
1I
1D
#1810
0"
0I
0D
#1820
1"
1I
1D
#1830
0"
0I
0D
#1840
1"
1I
1D
#1850
b1000 H
b10 %
0"
1N
1w
1F
0I
0D
#1860
1"
1I
1D
1{
1X
b101 H!
#1870
0"
0I
0D
#1880
1"
1I
1D
1|
b101 G!
0X
1n
b10010 K!
b110 H!
1B!
0C
1B
0@
1R
#1890
0"
0I
0D
#1900
1"
1I
1D
b10 6!
b110 G!
1]
0\
1,
0+
1.!
1-!
1,!
1+!
13!
0)!
0n
1m
1W
1.
b10 K!
b111 H!
0B!
0?
0R
#1910
b0 %
0"
0N
0w
0F
0I
0D
#1920
1"
1I
1D
0{
b111 G!
1n
b1111000 K!
b100 H!
1@!
0B
1@
1?
1>
1=
1Q
#1930
0"
0I
0D
#1940
1"
1I
1D
0|
b110 "!
b100 G!
0v
1u
0b
1a
0n
0m
b11001 K!
b10 I!
0@!
01
1C
0>
0=
0Q
#1950
0"
0I
0D
#1960
1"
1I
1D
b1 %!
1r
0q
0/!
0.!
0-!
0,!
0+!
04!
1)!
0W
1f
0e
0.
b1111001 J!
1<
0:
19
18
16
#1970
0"
0I
0D
#1980
1"
1I
1D
#1990
0"
0I
0D
#2000
1"
1I
1D
#2010
0"
0I
0D
#2020
1"
1I
1D
#2030
0"
0I
0D
#2040
1"
1I
1D
#2050
0"
0I
0D
#2060
1"
1I
1D
#2070
0"
0I
0D
#2080
1"
1I
1D
#2090
0"
0I
0D
#2100
1"
1I
1D
#2110
b1001 H
b1 %
0"
1O
1w
1F
0I
0D
#2120
1"
1I
1D
1{
1X
b101 H!
#2130
0"
0I
0D
#2140
1"
1I
1D
1|
b101 G!
0X
1n
b10010 K!
b110 H!
1B!
0C
1B
0@
1R
#2150
0"
0I
0D
#2160
1"
1I
1D
b1 6!
b110 G!
1^
0]
1-
0,
1/!
1.!
1-!
1,!
1+!
14!
0)!
0n
1m
1W
1.
b10 K!
b111 H!
0B!
0?
0R
#2170
b0 %
0"
0O
0w
0F
0I
0D
#2180
1"
1I
1D
0{
b111 G!
1n
b1111000 K!
b100 H!
1@!
0B
1@
1?
1>
1=
1Q
#2190
0"
0I
0D
#2200
1"
1I
1D
0|
b111 "!
b100 G!
1v
1b
0n
0m
b11001 K!
b1111000 I!
0@!
1$!
04
12
11
10
1/
1C
0>
0=
0Q
1Z
#2210
0"
0I
0D
#2220
1"
1I
1D
#2230
0"
0I
0D
#2240
1"
1I
1D
#2250
0"
0I
0D
#2260
1"
1I
1D
#2270
0"
0I
0D
#2280
1"
1I
1D
#2290
0"
0I
0D
#2300
1"
1I
1D
#2310
0"
0I
0D
#2320
1"
1I
1D
#2330
0"
0I
0D
#2340
1"
1I
1D
#2350
0"
0I
0D
#2360
1"
1I
1D
#2370
b1010 H
b1 %
0"
1O
1w
1F
0I
0D
#2380
1"
1I
1D
1{
1X
b101 H!
#2390
0"
0I
0D
#2400
1"
1I
1D
1|
b101 G!
0X
1n
b10010 K!
b110 H!
1B!
0C
1B
0@
1R
#2410
0"
0I
0D
#2420
1"
1I
1D
b110 G!
0n
1m
b10 K!
b111 H!
0B!
0?
0R
#2430
b0 %
0"
0O
0w
0F
0I
0D
#2440
1"
1I
1D
0{
b111 G!
1n
b1111000 K!
b100 H!
1@!
0B
1@
1?
1>
1=
1Q
#2450
0"
0I
0D
#2460
1"
1I
1D
0|
b1000 "!
b100 G!
0v
0u
0t
1s
0b
0a
0`
1_
0n
0m
b11001 K!
b0 I!
0@!
0$!
02
01
00
0/
1C
0>
0=
0Q
0Z
#2470
0"
0I
0D
#2480
1"
1I
1D
b10 %!
0r
1q
0/!
04!
03!
02!
01!
00!
1*!
0W
0f
1e
0.
b100100 J!
0<
1:
09
08
06
#2490
0"
0I
0D
#2500
1"
1I
1D
#2510
0"
0I
0D
#2520
1"
1I
1D
#2530
0"
0I
0D
#2540
1"
1I
1D
#2550
0"
0I
0D
#2560
1"
1I
1D
#2570
0"
0I
0D
#2580
1"
1I
1D
#2590
0"
0I
0D
#2600
1"
1I
1D
#2610
0"
0I
0D
#2620
1"
1I
1D
#2630
b1011 H
b1000 %
0"
1L
1w
1F
0I
0D
#2640
1"
1I
1D
1{
1X
b101 H!
#2650
0"
0I
0D
#2660
1"
1I
1D
1|
b101 G!
0X
1n
b10010 K!
b110 H!
1B!
0C
1B
0@
1R
#2670
0"
0I
0D
#2680
1"
1I
1D
b1000 6!
b110 G!
0^
1[
0-
1*
1/!
0.!
0,!
0+!
14!
11!
10!
0*!
1)!
0n
1m
b10 K!
b1110 H!
0B!
0?
0R
#2690
b0 %
0"
0L
0w
0F
0I
0D
#2700
1"
1I
1D
0{
b1110 G!
1k
b110 K!
1F!
1E!
1A
1)
1(
#2710
0"
0I
0D
#2720
1"
1I
1D
0|
#2730
0"
0I
0D
#2740
1"
1I
1D
#2750
0"
0I
0D
#2760
1"
1I
1D
#2770
0"
0I
0D
#2780
1"
1I
1D
#2790
0"
0I
0D
#2800
1"
1I
1D
#2810
0"
0I
0D
#2820
1"
1I
1D
#2830
0"
0I
0D
#2840
1"
1I
1D
#2850
0"
0I
0D
#2860
1"
1I
1D
#2870
0"
0I
0D
#2880
1"
1I
1D
#2890
b1101 H
1$
0"
1K
0I
0D
1E
b1 H!
#2900
1"
1I
1D
b1 G!
1n
0m
0l
0k
b1111001 K!
b100 H!
1?!
0F!
0E!
1C!
1C
0B
0A
1@
1?
1>
1=
0)
0(
1S
1T
b0 "!
0s
0_
b1000000 I!
1/
#2910
0"
0I
0D
#2920
1"
1I
1D
b1 %!
1r
0q
0/!
1.!
04!
1f
0e
b1111001 J!
1<
0:
19
18
16
b100 G!
0n
1l
b11001 K!
0?!
0C!
0>
0=
0S
0T
#2930
0"
0I
0D
#2940
1"
1I
1D
#2950
0"
0I
0D
#2960
1"
1I
1D
#2970
0"
0I
0D
#2980
1"
1I
1D
#2990
0$
0"
0K
0I
0D
0E
#3000
1"
1I
1D
#3010
0"
0I
0D
#3020
1"
1I
1D
#3030
0"
0I
0D
#3040
1"
1I
1D
#3050
0"
0I
0D
#3060
1"
1I
1D
#3070
0"
0I
0D
#3080
1"
1I
1D
#3090
0"
0I
0D
#3100
1"
1I
1D
#3110
0"
0I
0D
#3120
1"
1I
1D
#3130
0"
0I
0D
#3140
1"
1I
1D
#3150
0"
0I
0D
#3160
1"
1I
1D
#3170
0"
0I
0D
#3180
1"
1I
1D
#3190
b1110 H
b1 %
0"
1O
1w
1F
0I
0D
#3200
1"
1I
1D
1{
1X
b101 H!
#3210
0"
0I
0D
#3220
1"
1I
1D
1|
b101 G!
0X
1n
b10010 K!
b110 H!
1B!
0C
1B
0@
1R
#3230
0"
0I
0D
#3240
1"
1I
1D
b1 6!
b110 G!
1^
0[
1-
0*
1/!
1,!
1+!
14!
13!
12!
0)!
0n
1m
1W
1.
b10 K!
b111 H!
0B!
0?
0R
#3250
b0 %
0"
0O
0w
0F
0I
0D
#3260
1"
1I
1D
0{
b111 G!
1n
b1111000 K!
b100 H!
1@!
0B
1@
1?
1>
1=
1Q
#3270
0"
0I
0D
#3280
1"
1I
1D
0|
b1 "!
b100 G!
1v
1b
0n
0m
b11001 K!
b1111001 I!
0@!
15
12
11
10
1C
0>
0=
0Q
#3290
0"
0I
0D
#3300
1"
1I
1D
b10 %!
0r
1q
0/!
04!
03!
02!
01!
00!
1*!
0W
0f
1e
0.
b100100 J!
0<
1:
09
08
06
#3310
0"
0I
0D
#3320
1"
1I
1D
#3330
0"
0I
0D
#3340
1"
1I
1D
#3350
0"
0I
0D
#3360
1"
1I
1D
#3370
0"
0I
0D
#3380
1"
1I
1D
#3390
0"
0I
0D
#3400
1"
1I
1D
#3410
0"
0I
0D
#3420
1"
1I
1D
#3430
0"
0I
0D
#3440
1"
1I
1D
#3450
b1111 H
b10 %
0"
1N
1w
1F
0I
0D
#3460
1"
1I
1D
1{
1X
b101 H!
#3470
0"
0I
0D
#3480
1"
1I
1D
1|
b101 G!
0X
1n
b10010 K!
b110 H!
1B!
0C
1B
0@
1R
#3490
0"
0I
0D
#3500
1"
1I
1D
b10 6!
b110 G!
0^
1]
0-
1,
1/!
14!
13!
12!
11!
10!
0*!
0n
1m
1W
1.
b10 K!
b111 H!
0B!
0?
0R
#3510
b0 %
0"
0N
0w
0F
0I
0D
#3520
1"
1I
1D
0{
b111 G!
1n
b1111000 K!
b100 H!
1@!
0B
1@
1?
1>
1=
1Q
#3530
0"
0I
0D
#3540
1"
1I
1D
0|
b10 "!
b100 G!
0v
1u
0b
1a
0n
0m
b11001 K!
b100100 I!
0@!
05
13
02
01
0/
1C
0>
0=
0Q
#3550
0"
0I
0D
#3560
1"
1I
1D
b100 %!
0q
1p
0.!
03!
02!
01!
00!
1*!
0W
0e
1d
0.
b11001 J!
1<
0:
19
18
07
#3570
0"
0I
0D
#3580
1"
1I
1D
#3590
0"
0I
0D
#3600
1"
1I
1D
#3610
0"
0I
0D
#3620
1"
1I
1D
#3630
0"
0I
0D
#3640
1"
1I
1D
#3650
0"
0I
0D
#3660
1"
1I
1D
#3670
0"
0I
0D
#3680
1"
1I
1D
#3690
0"
0I
0D
#3700
1"
1I
1D
#3710
b10000 H
b100 %
0"
1M
1w
1F
0I
0D
#3720
1"
1I
1D
1{
1X
b101 H!
#3730
0"
0I
0D
#3740
1"
1I
1D
1|
b101 G!
0X
1n
b10010 K!
b110 H!
1B!
0C
1B
0@
1R
#3750
0"
0I
0D
#3760
1"
1I
1D
b100 6!
b110 G!
0]
1\
0,
1+
1.!
13!
12!
11!
10!
0*!
0n
1m
1W
1.
b10 K!
b111 H!
0B!
0?
0R
#3770
b0 %
0"
0M
0w
0F
0I
0D
#3780
1"
1I
1D
0{
b111 G!
1n
b1111000 K!
b100 H!
1@!
0B
1@
1?
1>
1=
1Q
#3790
0"
0I
0D
#3800
1"
1I
1D
0|
b11 "!
b100 G!
1v
1b
0n
0m
b11001 K!
b110000 I!
0@!
03
11
1C
0>
0=
0Q
#3810
0"
0I
0D
#3820
1"
1I
1D
b1000 %!
0p
1o
0-!
02!
01!
00!
1*!
0W
0d
1c
0.
b0 J!
0<
09
08
#3830
0"
0I
0D
#3840
1"
1I
1D
#3850
0"
0I
0D
#3860
1"
1I
1D
#3870
0"
0I
0D
#3880
1"
1I
1D
#3890
0"
0I
0D
#3900
1"
1I
1D
#3910
0"
0I
0D
#3920
1"
1I
1D
#3930
0"
0I
0D
#3940
1"
1I
1D
#3950
0"
0I
0D
#3960
1"
1I
1D
#3970
b10001 H
b1000 %
0"
1L
1w
1F
0I
0D
#3980
1"
1I
1D
1{
1X
b101 H!
#3990
0"
0I
0D
#4000
1"
1I
1D
1|
b101 G!
0X
1n
b10010 K!
b110 H!
1B!
0C
1B
0@
1R
#4010
0"
0I
0D
