waveforms.vcd
$date
	Tue Feb 13 10:21:49 2024
$end
$version
	ModelSim Version 2020.1
$end
$timescale
	1ns
$end

$scope module circuito_exp6_tb $end
$var parameter 32 ! clockPeriod $end
$var reg 1 " clock_in $end
$var reg 1 # reset_in $end
$var reg 1 $ iniciar_in $end
$var reg 4 % chaves_in [3:0] $end
$var reg 1 & nivel_jogadas_in $end
$var reg 1 ' nivel_tempo_in $end
$var wire 1 ( acertou_out $end
$var wire 1 ) errou_out $end
$var wire 1 * pronto_out $end
$var wire 1 + vez_jogador_out $end
$var wire 1 , timeout_out $end
$var wire 1 - leds_out [3] $end
$var wire 1 . leds_out [2] $end
$var wire 1 / leds_out [1] $end
$var wire 1 0 leds_out [0] $end
$var wire 1 1 db_igual $end
$var wire 1 2 db_contagem [6] $end
$var wire 1 3 db_contagem [5] $end
$var wire 1 4 db_contagem [4] $end
$var wire 1 5 db_contagem [3] $end
$var wire 1 6 db_contagem [2] $end
$var wire 1 7 db_contagem [1] $end
$var wire 1 8 db_contagem [0] $end
$var wire 1 9 db_memoria [6] $end
$var wire 1 : db_memoria [5] $end
$var wire 1 ; db_memoria [4] $end
$var wire 1 < db_memoria [3] $end
$var wire 1 = db_memoria [2] $end
$var wire 1 > db_memoria [1] $end
$var wire 1 ? db_memoria [0] $end
$var wire 1 @ db_estado [6] $end
$var wire 1 A db_estado [5] $end
$var wire 1 B db_estado [4] $end
$var wire 1 C db_estado [3] $end
$var wire 1 D db_estado [2] $end
$var wire 1 E db_estado [1] $end
$var wire 1 F db_estado [0] $end
$var wire 1 G db_jogada [6] $end
$var wire 1 H db_jogada [5] $end
$var wire 1 I db_jogada [4] $end
$var wire 1 J db_jogada [3] $end
$var wire 1 K db_jogada [2] $end
$var wire 1 L db_jogada [1] $end
$var wire 1 M db_jogada [0] $end
$var wire 1 N db_nivel_jogadas $end
$var wire 1 O db_nivel_tempo $end
$var wire 1 P db_clock $end
$var wire 1 Q db_iniciar $end
$var wire 1 R db_tem_jogada $end
$var reg 32 S caso [31:0] $end

$scope task pressChaves $end
$var reg 4 T valor [3:0] $end
$upscope $end

$scope module DUT $end
$var wire 1 U clock $end
$var wire 1 V reset $end
$var wire 1 W iniciar $end
$var wire 1 X chaves [3] $end
$var wire 1 Y chaves [2] $end
$var wire 1 Z chaves [1] $end
$var wire 1 [ chaves [0] $end
$var wire 1 \ nivel_jogadas $end
$var wire 1 ] nivel_tempo $end
$var wire 1 ( acertou $end
$var wire 1 ) errou $end
$var wire 1 * pronto $end
$var wire 1 + vez_jogador $end
$var wire 1 , timeout $end
$var wire 1 - leds [3] $end
$var wire 1 . leds [2] $end
$var wire 1 / leds [1] $end
$var wire 1 0 leds [0] $end
$var wire 1 1 db_igual $end
$var wire 1 2 db_contagem [6] $end
$var wire 1 3 db_contagem [5] $end
$var wire 1 4 db_contagem [4] $end
$var wire 1 5 db_contagem [3] $end
$var wire 1 6 db_contagem [2] $end
$var wire 1 7 db_contagem [1] $end
$var wire 1 8 db_contagem [0] $end
$var wire 1 9 db_memoria [6] $end
$var wire 1 : db_memoria [5] $end
$var wire 1 ; db_memoria [4] $end
$var wire 1 < db_memoria [3] $end
$var wire 1 = db_memoria [2] $end
$var wire 1 > db_memoria [1] $end
$var wire 1 ? db_memoria [0] $end
$var wire 1 @ db_estado [6] $end
$var wire 1 A db_estado [5] $end
$var wire 1 B db_estado [4] $end
$var wire 1 C db_estado [3] $end
$var wire 1 D db_estado [2] $end
$var wire 1 E db_estado [1] $end
$var wire 1 F db_estado [0] $end
$var wire 1 G db_jogada [6] $end
$var wire 1 H db_jogada [5] $end
$var wire 1 I db_jogada [4] $end
$var wire 1 J db_jogada [3] $end
$var wire 1 K db_jogada [2] $end
$var wire 1 L db_jogada [1] $end
$var wire 1 M db_jogada [0] $end
$var wire 1 N db_nivel_jogadas $end
$var wire 1 O db_nivel_tempo $end
$var wire 1 P db_clock $end
$var wire 1 Q db_iniciar $end
$var wire 1 R db_tem_jogada $end
$var wire 1 ^ contaC $end
$var wire 1 _ contaTempo $end
$var wire 1 ` contaTM $end
$var wire 1 a contaCR $end
$var wire 1 b registraR $end
$var wire 1 c registraN $end
$var wire 1 d zeraC $end
$var wire 1 e zeraR $end
$var wire 1 f zeraCR $end
$var wire 1 g zeraTM $end
$var wire 1 h zeraTempo $end
$var wire 1 i ativa_leds $end
$var wire 1 j fimC $end
$var wire 1 k fimCR $end
$var wire 1 l fimTM $end
$var wire 1 m fimTempo $end
$var wire 1 n meioCR $end
$var wire 1 o meioTempo $end
$var wire 1 p enderecoIgualRodada $end
$var wire 1 q jogada_feita $end
$var wire 1 r jogada_correta $end
$var wire 1 s nivel_jogadas_reg $end
$var wire 1 t nivel_tempo_reg $end
$var wire 1 u s_db_contagem [3] $end
$var wire 1 v s_db_contagem [2] $end
$var wire 1 w s_db_contagem [1] $end
$var wire 1 x s_db_contagem [0] $end
$var wire 1 y s_db_jogada [3] $end
$var wire 1 z s_db_jogada [2] $end
$var wire 1 { s_db_jogada [1] $end
$var wire 1 | s_db_jogada [0] $end
$var wire 1 } s_db_memoria [3] $end
$var wire 1 ~ s_db_memoria [2] $end
$var wire 1 !! s_db_memoria [1] $end
$var wire 1 "! s_db_memoria [0] $end
$var wire 1 #! s_db_estado [3] $end
$var wire 1 $! s_db_estado [2] $end
$var wire 1 %! s_db_estado [1] $end
$var wire 1 &! s_db_estado [0] $end

$scope module fluxo_dados $end
$var wire 1 U clock $end
$var wire 1 X chaves [3] $end
$var wire 1 Y chaves [2] $end
$var wire 1 Z chaves [1] $end
$var wire 1 [ chaves [0] $end
$var wire 1 \ nivel_jogadas $end
$var wire 1 ] nivel_tempo $end
$var wire 1 e zeraR $end
$var wire 1 b registraR $end
$var wire 1 d zeraC $end
$var wire 1 ^ contaC $end
$var wire 1 c registraN $end
$var wire 1 _ contaTempo $end
$var wire 1 f zeraCR $end
$var wire 1 h zeraTempo $end
$var wire 1 a contaCR $end
$var wire 1 g zeraTM $end
$var wire 1 ` contaTM $end
$var wire 1 i ativa_leds $end
$var wire 1 r jogada_correta $end
$var wire 1 q jogada_feita $end
$var wire 1 s nivel_jogadas_reg $end
$var wire 1 t nivel_tempo_reg $end
$var wire 1 j fimC $end
$var wire 1 n meioCR $end
$var wire 1 m fimTempo $end
$var wire 1 o meioTempo $end
$var wire 1 p enderecoIgualRodada $end
$var wire 1 k fimCR $end
$var wire 1 l fimTM $end
$var wire 1 - leds [3] $end
$var wire 1 . leds [2] $end
$var wire 1 / leds [1] $end
$var wire 1 0 leds [0] $end
$var wire 1 R db_tem_jogada $end
$var wire 1 u db_contagem [3] $end
$var wire 1 v db_contagem [2] $end
$var wire 1 w db_contagem [1] $end
$var wire 1 x db_contagem [0] $end
$var wire 1 y db_jogada [3] $end
$var wire 1 z db_jogada [2] $end
$var wire 1 { db_jogada [1] $end
$var wire 1 | db_jogada [0] $end
$var wire 1 } db_memoria [3] $end
$var wire 1 ~ db_memoria [2] $end
$var wire 1 !! db_memoria [1] $end
$var wire 1 "! db_memoria [0] $end
$var wire 1 '! tem_jogada $end
$var wire 1 (! s_memoria [3] $end
$var wire 1 )! s_memoria [2] $end
$var wire 1 *! s_memoria [1] $end
$var wire 1 +! s_memoria [0] $end
$var wire 1 ,! s_endereco [3] $end
$var wire 1 -! s_endereco [2] $end
$var wire 1 .! s_endereco [1] $end
$var wire 1 /! s_endereco [0] $end
$var wire 1 0! s_rodada [3] $end
$var wire 1 1! s_rodada [2] $end
$var wire 1 2! s_rodada [1] $end
$var wire 1 3! s_rodada [0] $end
$var wire 1 4! s_jogada [3] $end
$var wire 1 5! s_jogada [2] $end
$var wire 1 6! s_jogada [1] $end
$var wire 1 7! s_jogada [0] $end

$scope module RegNvlJog $end
$var parameter 32 8! SIZE $end
$var wire 1 U clock $end
$var wire 1 e clear $end
$var wire 1 c enable $end
$var wire 1 \ D [0] $end
$var wire 1 s Q [0] $end
$var reg 1 9! IQ [0:0] $end
$upscope $end

$scope module RegNvlTime $end
$var parameter 32 :! SIZE $end
$var wire 1 U clock $end
$var wire 1 e clear $end
$var wire 1 c enable $end
$var wire 1 ] D [0] $end
$var wire 1 t Q [0] $end
$var reg 1 ;! IQ [0:0] $end
$upscope $end

$scope module EdgeDetector $end
$var wire 1 U clock $end
$var wire 1 <! reset $end
$var wire 1 '! sinal $end
$var wire 1 q pulso $end
$var reg 1 =! reg0 $end
$var reg 1 >! reg1 $end
$upscope $end

$scope module ContEnd $end
$var wire 1 U clock $end
$var wire 1 ?! clr $end
$var wire 1 @! ld $end
$var wire 1 A! ent $end
$var wire 1 ^ enp $end
$var wire 1 B! D [3] $end
$var wire 1 C! D [2] $end
$var wire 1 D! D [1] $end
$var wire 1 E! D [0] $end
$var reg 4 F! Q [3:0] $end
$var reg 1 G! rco $end
$upscope $end

$scope module ContRod $end
$var parameter 32 H! M $end
$var parameter 32 I! N $end
$var wire 1 U clock $end
$var wire 1 J! zera_as $end
$var wire 1 f zera_s $end
$var wire 1 a conta $end
$var reg 4 K! Q [3:0] $end
$var reg 1 L! fim $end
$var reg 1 M! meio $end
$upscope $end

$scope module ContMostra $end
$var parameter 32 N! M $end
$var parameter 32 O! N $end
$var wire 1 U clock $end
$var wire 1 P! zera_as $end
$var wire 1 g zera_s $end
$var wire 1 ` conta $end
$var reg 10 Q! Q [9:0] $end
$var reg 1 R! fim $end
$var reg 1 S! meio $end
$upscope $end

$scope module TimerTimeout $end
$var parameter 32 T! M $end
$var parameter 32 U! N $end
$var wire 1 U clock $end
$var wire 1 q zera_as $end
$var wire 1 h zera_s $end
$var wire 1 _ conta $end
$var reg 12 V! Q [11:0] $end
$var reg 1 W! fim $end
$var reg 1 X! meio $end
$upscope $end

$scope module MemJog $end
$var wire 1 U clock $end
$var wire 1 ,! address [3] $end
$var wire 1 -! address [2] $end
$var wire 1 .! address [1] $end
$var wire 1 /! address [0] $end
$var reg 4 Y! data_out [3:0] $end
$upscope $end

$scope module CompJog $end
$var wire 1 (! A [3] $end
$var wire 1 )! A [2] $end
$var wire 1 *! A [1] $end
$var wire 1 +! A [0] $end
$var wire 1 4! B [3] $end
$var wire 1 5! B [2] $end
$var wire 1 6! B [1] $end
$var wire 1 7! B [0] $end
$var wire 1 Z! ALBi $end
$var wire 1 [! AGBi $end
$var wire 1 \! AEBi $end
$var wire 1 ]! ALBo $end
$var wire 1 ^! AGBo $end
$var wire 1 r AEBo $end
$var wire 1 _! CSL [4] $end
$var wire 1 `! CSL [3] $end
$var wire 1 a! CSL [2] $end
$var wire 1 b! CSL [1] $end
$var wire 1 c! CSL [0] $end
$var wire 1 d! CSG [4] $end
$var wire 1 e! CSG [3] $end
$var wire 1 f! CSG [2] $end
$var wire 1 g! CSG [1] $end
$var wire 1 h! CSG [0] $end
$upscope $end

$scope module CompEnd $end
$var wire 1 0! A [3] $end
$var wire 1 1! A [2] $end
$var wire 1 2! A [1] $end
$var wire 1 3! A [0] $end
$var wire 1 ,! B [3] $end
$var wire 1 -! B [2] $end
$var wire 1 .! B [1] $end
$var wire 1 /! B [0] $end
$var wire 1 i! ALBi $end
$var wire 1 j! AGBi $end
$var wire 1 k! AEBi $end
$var wire 1 l! ALBo $end
$var wire 1 m! AGBo $end
$var wire 1 p AEBo $end
$var wire 1 n! CSL [4] $end
$var wire 1 o! CSL [3] $end
$var wire 1 p! CSL [2] $end
$var wire 1 q! CSL [1] $end
$var wire 1 r! CSL [0] $end
$var wire 1 s! CSG [4] $end
$var wire 1 t! CSG [3] $end
$var wire 1 u! CSG [2] $end
$var wire 1 v! CSG [1] $end
$var wire 1 w! CSG [0] $end
$upscope $end

$scope module RegChv $end
$var parameter 32 x! SIZE $end
$var wire 1 U clock $end
$var wire 1 e clear $end
$var wire 1 b enable $end
$var wire 1 X D [3] $end
$var wire 1 Y D [2] $end
$var wire 1 Z D [1] $end
$var wire 1 [ D [0] $end
$var wire 1 4! Q [3] $end
$var wire 1 5! Q [2] $end
$var wire 1 6! Q [1] $end
$var wire 1 7! Q [0] $end
$var reg 4 y! IQ [3:0] $end
$upscope $end
$upscope $end

$scope module unidade_controle $end
$var parameter 4 z! inicial $end
$var parameter 4 {! inicializa_elementos $end
$var parameter 4 |! inicio_rodada $end
$var parameter 4 }! mostra $end
$var parameter 4 ~! espera_mostra $end
$var parameter 4 !" mostra_proximo $end
$var parameter 4 "" inicio_jogada $end
$var parameter 4 #" espera_jogada $end
$var parameter 4 $" registra $end
$var parameter 4 %" compara $end
$var parameter 4 &" ganhou $end
$var parameter 4 '" proxima_jogada $end
$var parameter 4 (" proxima_rodada $end
$var parameter 4 )" perdeu $end
$var parameter 4 *" estado_timeout $end
$var wire 1 U clock $end
$var wire 1 V reset $end
$var wire 1 W iniciar $end
$var wire 1 j fimC $end
$var wire 1 l fimTM $end
$var wire 1 k fimCR $end
$var wire 1 n meioCR $end
$var wire 1 q jogada_feita $end
$var wire 1 r jogada_correta $end
$var wire 1 p enderecoIgualRodada $end
$var wire 1 t nivel_tempo $end
$var wire 1 s nivel_jogadas $end
$var wire 1 m fimTempo $end
$var wire 1 o meioTempo $end
$var wire 1 d zeraC $end
$var wire 1 ^ contaC $end
$var wire 1 g zeraTM $end
$var wire 1 ` contaTM $end
$var wire 1 a contaCR $end
$var wire 1 f zeraCR $end
$var wire 1 _ contaTempo $end
$var wire 1 h zeraTempo $end
$var wire 1 b registraR $end
$var wire 1 e zeraR $end
$var wire 1 c registraN $end
$var wire 1 i ativa_leds $end
$var wire 1 ( acertou $end
$var wire 1 ) errou $end
$var wire 1 * pronto $end
$var wire 1 , timeout $end
$var wire 1 + vez_jogador $end
$var wire 1 #! db_estado [3] $end
$var wire 1 $! db_estado [2] $end
$var wire 1 %! db_estado [1] $end
$var wire 1 &! db_estado [0] $end
$var reg 4 +" Eatual [3:0] $end
$var reg 4 ," Eprox [3:0] $end
$upscope $end

$scope module display_contagem $end
$var wire 1 u hexa [3] $end
$var wire 1 v hexa [2] $end
$var wire 1 w hexa [1] $end
$var wire 1 x hexa [0] $end
$var reg 7 -" display [6:0] $end
$upscope $end

$scope module display_memoria $end
$var wire 1 } hexa [3] $end
$var wire 1 ~ hexa [2] $end
$var wire 1 !! hexa [1] $end
$var wire 1 "! hexa [0] $end
$var reg 7 ." display [6:0] $end
$upscope $end

$scope module display_estado $end
$var wire 1 #! hexa [3] $end
$var wire 1 $! hexa [2] $end
$var wire 1 %! hexa [1] $end
$var wire 1 &! hexa [0] $end
$var reg 7 /" display [6:0] $end
$upscope $end

$scope module display_jogada $end
$var wire 1 y hexa [3] $end
$var wire 1 z hexa [2] $end
$var wire 1 { hexa [1] $end
$var wire 1 | hexa [0] $end
$var reg 7 0" display [6:0] $end
$upscope $end
$upscope $end
$upscope $end
$enddefinitions $end
#0
$dumpvars
1"
0#
0$
b0 %
0&
0'
b0 S
b0 9!
b0 ;!
0=!
x>!
bx F!
0G!
bx K!
xL!
xM!
bx Q!
xR!
xS!
bx V!
xW!
xX!
bx Y!
b0 y!
b0 +"
b0 ,"
bx -"
bx ."
b1000000 /"
b1000000 0"
bx T
b10100 !
b1 8!
b1 :!
b10000 H!
b100 I!
b1111101000 N!
b1010 O!
b101110111000 T!
b1100 U!
b100 x!
b0 z!
b1 {!
b10 |!
b11 }!
b100 ~!
b101 !"
b110 ""
b111 #"
b1000 $"
b1001 %"
b1010 &"
b1011 '"
b1100 ("
b1110 )"
b1111 *"
0(
0)
0*
0+
0,
00
0/
0.
0-
x1
x8
x7
x6
x5
x4
x3
x2
x?
x>
x=
x<
x;
x:
x9
0F
0E
0D
0C
0B
0A
1@
0M
0L
0K
0J
0I
0H
1G
0N
0O
1P
0Q
0R
0^
0_
0`
0a
0b
0c
0d
1e
0f
0g
0h
0i
0j
xk
xl
xm
xn
xo
xp
0q
xr
0s
0t
xx
xw
xv
xu
0|
0{
0z
0y
x"!
x!!
x~
x}
0&!
0%!
0$!
0#!
0'!
x+!
x*!
x)!
x(!
x/!
x.!
x-!
x,!
x3!
x2!
x1!
x0!
07!
06!
05!
04!
xc!
xb!
xa!
x`!
x_!
xh!
xg!
xf!
xe!
xd!
xr!
xq!
xp!
xo!
xn!
xw!
xv!
xu!
xt!
xs!
0]
0\
0[
0Z
0Y
0X
0W
0V
1U
0i!
0j!
1k!
0Z!
0[!
1\!
0P!
1A!
1?!
0<!
z@!
zE!
zD!
zC!
zB!
zJ!
x]!
x^!
xl!
xm!
$end
#10
0"
0U
0P
#20
1"
1U
1P
0>!
#30
0"
0U
0P
1#
1V
#40
1"
1U
1P
#50
0#
b1 S
1$
0"
0V
1W
0U
0P
1Q
b1 ,"
#60
1"
1U
1P
b1 +"
1c
1h
1f
1&!
0e
b1111001 /"
b10 ,"
1F
1C
1B
1A
#70
0"
0U
0P
#80
1"
1U
1P
b0 K!
b0 V!
b10 +"
03!
02!
01!
00!
0c
0h
1d
0f
0?!
0&!
1%!
b100100 /"
b11 ,"
0W!
0X!
0L!
0M!
0F
1D
0C
0B
0@
0m
0o
0k
0n
#90
0"
0U
0P
#100
1"
1U
1P
b0 F!
b11 +"
0/!
0.!
0-!
0,!
1g
0d
1?!
1r!
1q!
1p!
1o!
1n!
1w!
1v!
1u!
1t!
1s!
0m!
0l!
1p
0x
0w
0v
0u
1&!
b110000 /"
b1000000 -"
b100 ,"
08
07
06
05
04
03
12
0D
1B
#110
0"
0U
0P
#120
1"
1U
1P
b1 Y!
1+!
0*!
0)!
0(!
0c!
1b!
1a!
1`!
1_!
0h!
0g!
0f!
0e!
0d!
1^!
0]!
0r
1"!
0!!
0~
0}
01
b1111001 ."
1?
0>
0=
1<
1;
1:
19
b0 Q!
b100 +"
1i
1`
0g
10
0&!
0%!
1$!
b11001 /"
b1x0 ,"
0R!
0S!
1F
1C
0A
0l
b100 ,"
#130
0$
0"
0W
0U
0P
0Q
#140
1"
1U
1P
b1 Q!
#150
0"
0U
0P
#160
1"
1U
1P
b10 Q!
#170
0"
0U
0P
#180
1"
1U
1P
b11 Q!
#190
0"
0U
0P
#200
1"
1U
1P
b100 Q!
#210
0"
0U
0P
#220
1"
1U
1P
b101 Q!
#230
0"
0U
0P
#240
1"
1U
1P
b110 Q!
#250
0"
0U
0P
#260
1"
1U
1P
b111 Q!
#270
0"
0U
0P
#280
1"
1U
1P
b1000 Q!
#290
0"
0U
0P
#300
1"
1U
1P
b1001 Q!
#310
0"
0U
0P
#320
1"
1U
1P
b1010 Q!
#330
0"
0U
0P
#340
1"
1U
1P
b1011 Q!
#350
0"
0U
0P
#360
1"
1U
1P
b1100 Q!
#370
0"
0U
0P
#380
1"
1U
1P
b1101 Q!
#390
0"
0U
0P
#400
1"
1U
1P
b1110 Q!
#410
0"
0U
0P
#420
1"
1U
1P
b1111 Q!
#430
0"
0U
0P
#440
1"
1U
1P
b10000 Q!
#450
0"
0U
0P
#460
1"
1U
1P
b10001 Q!
#470
0"
0U
0P
#480
1"
1U
1P
b10010 Q!
#490
0"
0U
0P
#500
1"
1U
1P
b10011 Q!
#510
0"
0U
0P
#520
1"
1U
1P
b10100 Q!
#530
0"
0U
0P
#540
1"
1U
1P
b10101 Q!
#550
0"
0U
0P
#560
1"
1U
1P
b10110 Q!
#570
0"
0U
0P
#580
1"
1U
1P
b10111 Q!
#590
0"
0U
0P
#600
1"
1U
1P
b11000 Q!
#610
0"
0U
0P
#620
1"
1U
1P
b11001 Q!
#630
0"
0U
0P
#640
1"
1U
1P
b11010 Q!
#650
0"
0U
0P
#660
1"
1U
1P
b11011 Q!
#670
0"
0U
0P
#680
1"
1U
1P
b11100 Q!
#690
0"
0U
0P
#700
1"
1U
1P
b11101 Q!
#710
0"
0U
0P
#720
1"
1U
1P
b11110 Q!
#730
0"
0U
0P
#740
1"
1U
1P
b11111 Q!
#750
0"
0U
0P
#760
1"
1U
1P
b100000 Q!
#770
0"
0U
0P
#780
1"
1U
1P
b100001 Q!
#790
0"
0U
0P
#800
1"
1U
1P
b100010 Q!
#810
0"
0U
0P
#820
1"
1U
1P
b100011 Q!
#830
0"
0U
0P
#840
1"
1U
1P
b100100 Q!
#850
0"
0U
0P
#860
1"
1U
1P
b100101 Q!
#870
0"
0U
0P
#880
1"
1U
1P
b100110 Q!
#890
0"
0U
0P
#900
1"
1U
1P
b100111 Q!
#910
0"
0U
0P
#920
1"
1U
1P
b101000 Q!
#930
0"
0U
0P
#940
1"
1U
1P
b101001 Q!
#950
0"
0U
0P
#960
1"
1U
1P
b101010 Q!
#970
0"
0U
0P
#980
1"
1U
1P
b101011 Q!
#990
0"
0U
0P
#1000
1"
1U
1P
b101100 Q!
#1010
0"
0U
0P
#1020
1"
1U
1P
b101101 Q!
#1030
0"
0U
0P
#1040
1"
1U
1P
b101110 Q!
#1050
0"
0U
0P
#1060
1"
1U
1P
b101111 Q!
#1070
0"
0U
0P
#1080
1"
1U
1P
b110000 Q!
#1090
0"
0U
0P
#1100
1"
1U
1P
b110001 Q!
#1110
0"
0U
0P
#1120
1"
1U
1P
b110010 Q!
#1130
0"
0U
0P
#1140
1"
1U
1P
b110011 Q!
#1150
0"
0U
0P
#1160
1"
1U
1P
b110100 Q!
#1170
0"
0U
0P
#1180
1"
1U
1P
b110101 Q!
#1190
0"
0U
0P
#1200
1"
1U
1P
b110110 Q!
#1210
0"
0U
0P
#1220
1"
1U
1P
b110111 Q!
#1230
0"
0U
0P
#1240
1"
1U
1P
b111000 Q!
#1250
0"
0U
0P
#1260
1"
1U
1P
b111001 Q!
#1270
0"
0U
0P
#1280
1"
1U
1P
b111010 Q!
#1290
0"
0U
0P
#1300
1"
1U
1P
b111011 Q!
#1310
0"
0U
0P
#1320
1"
1U
1P
b111100 Q!
#1330
0"
0U
0P
#1340
1"
1U
1P
b111101 Q!
#1350
0"
0U
0P
#1360
1"
1U
1P
b111110 Q!
#1370
0"
0U
0P
#1380
1"
1U
1P
b111111 Q!
#1390
0"
0U
0P
#1400
1"
1U
1P
b1000000 Q!
#1410
0"
0U
0P
#1420
1"
1U
1P
b1000001 Q!
#1430
0"
0U
0P
#1440
1"
1U
1P
b1000010 Q!
#1450
0"
0U
0P
#1460
1"
1U
1P
b1000011 Q!
#1470
0"
0U
0P
#1480
1"
1U
1P
b1000100 Q!
#1490
0"
0U
0P
#1500
1"
1U
1P
b1000101 Q!
#1510
0"
0U
0P
#1520
1"
1U
1P
b1000110 Q!
#1530
0"
0U
0P
#1540
1"
1U
1P
b1000111 Q!
#1550
0"
0U
0P
#1560
1"
1U
1P
b1001000 Q!
#1570
0"
0U
0P
#1580
1"
1U
1P
b1001001 Q!
#1590
0"
0U
0P
#1600
1"
1U
1P
b1001010 Q!
#1610
0"
0U
0P
#1620
1"
1U
1P
b1001011 Q!
#1630
0"
0U
0P
#1640
1"
1U
1P
b1001100 Q!
#1650
0"
0U
0P
#1660
1"
1U
1P
b1001101 Q!
#1670
0"
0U
0P
#1680
1"
1U
1P
b1001110 Q!
#1690
0"
0U
0P
#1700
1"
1U
1P
b1001111 Q!
#1710
0"
0U
0P
#1720
1"
1U
1P
b1010000 Q!
#1730
0"
0U
0P
#1740
1"
1U
1P
b1010001 Q!
#1750
0"
0U
0P
#1760
1"
1U
1P
b1010010 Q!
#1770
0"
0U
0P
#1780
1"
1U
1P
b1010011 Q!
#1790
0"
0U
0P
#1800
1"
1U
1P
b1010100 Q!
#1810
0"
0U
0P
#1820
1"
1U
1P
b1010101 Q!
#1830
0"
0U
0P
#1840
1"
1U
1P
b1010110 Q!
#1850
0"
0U
0P
#1860
1"
1U
1P
b1010111 Q!
#1870
0"
0U
0P
#1880
1"
1U
1P
b1011000 Q!
#1890
0"
0U
0P
#1900
1"
1U
1P
b1011001 Q!
#1910
0"
0U
0P
#1920
1"
1U
1P
b1011010 Q!
#1930
0"
0U
0P
#1940
1"
1U
1P
b1011011 Q!
#1950
0"
0U
0P
#1960
1"
1U
1P
b1011100 Q!
#1970
0"
0U
0P
#1980
1"
1U
1P
b1011101 Q!
#1990
0"
0U
0P
#2000
1"
1U
1P
b1011110 Q!
#2010
0"
0U
0P
#2020
1"
1U
1P
b1011111 Q!
#2030
0"
0U
0P
#2040
1"
1U
1P
b1100000 Q!
#2050
0"
0U
0P
#2060
1"
1U
1P
b1100001 Q!
#2070
0"
0U
0P
#2080
1"
1U
1P
b1100010 Q!
#2090
0"
0U
0P
#2100
1"
1U
1P
b1100011 Q!
#2110
0"
0U
0P
#2120
1"
1U
1P
b1100100 Q!
#2130
0"
0U
0P
#2140
1"
1U
1P
b1100101 Q!
#2150
0"
0U
0P
#2160
1"
1U
1P
b1100110 Q!
#2170
0"
0U
0P
#2180
1"
1U
1P
b1100111 Q!
#2190
0"
0U
0P
#2200
1"
1U
1P
b1101000 Q!
#2210
0"
0U
0P
#2220
1"
1U
1P
b1101001 Q!
#2230
0"
0U
0P
#2240
1"
1U
1P
b1101010 Q!
#2250
0"
0U
0P
#2260
1"
1U
1P
b1101011 Q!
#2270
0"
0U
0P
#2280
1"
1U
1P
b1101100 Q!
#2290
0"
0U
0P
#2300
1"
1U
1P
b1101101 Q!
#2310
0"
0U
0P
#2320
1"
1U
1P
b1101110 Q!
#2330
0"
0U
0P
#2340
1"
1U
1P
b1101111 Q!
#2350
0"
0U
0P
#2360
1"
1U
1P
b1110000 Q!
#2370
0"
0U
0P
#2380
1"
1U
1P
b1110001 Q!
#2390
0"
0U
0P
#2400
1"
1U
1P
b1110010 Q!
#2410
0"
0U
0P
#2420
1"
1U
1P
b1110011 Q!
#2430
0"
0U
0P
#2440
1"
1U
1P
b1110100 Q!
#2450
0"
0U
0P
#2460
1"
1U
1P
b1110101 Q!
#2470
0"
0U
0P
#2480
1"
1U
1P
b1110110 Q!
#2490
0"
0U
0P
#2500
1"
1U
1P
b1110111 Q!
#2510
0"
0U
0P
#2520
1"
1U
1P
b1111000 Q!
#2530
0"
0U
0P
#2540
1"
1U
1P
b1111001 Q!
#2550
0"
0U
0P
#2560
1"
1U
1P
b1111010 Q!
#2570
0"
0U
0P
#2580
1"
1U
1P
b1111011 Q!
#2590
0"
0U
0P
#2600
1"
1U
1P
b1111100 Q!
#2610
0"
0U
0P
#2620
1"
1U
1P
b1111101 Q!
#2630
0"
0U
0P
#2640
1"
1U
1P
b1111110 Q!
#2650
0"
0U
0P
#2660
1"
1U
1P
b1111111 Q!
#2670
0"
0U
0P
#2680
1"
1U
1P
b10000000 Q!
#2690
0"
0U
0P
#2700
1"
1U
1P
b10000001 Q!
#2710
0"
0U
0P
#2720
1"
1U
1P
b10000010 Q!
#2730
0"
0U
0P
#2740
1"
1U
1P
b10000011 Q!
#2750
0"
0U
0P
#2760
1"
1U
1P
b10000100 Q!
#2770
0"
0U
0P
#2780
1"
1U
1P
b10000101 Q!
#2790
0"
0U
0P
#2800
1"
1U
1P
b10000110 Q!
#2810
0"
0U
0P
#2820
1"
1U
1P
b10000111 Q!
#2830
0"
0U
0P
#2840
1"
1U
1P
b10001000 Q!
#2850
0"
0U
0P
#2860
1"
1U
1P
b10001001 Q!
#2870
0"
0U
0P
#2880
1"
1U
1P
b10001010 Q!
#2890
0"
0U
0P
#2900
1"
1U
1P
b10001011 Q!
#2910
0"
0U
0P
#2920
1"
1U
1P
b10001100 Q!
#2930
0"
0U
0P
#2940
1"
1U
1P
b10001101 Q!
#2950
0"
0U
0P
#2960
1"
1U
1P
b10001110 Q!
#2970
0"
0U
0P
#2980
1"
1U
1P
b10001111 Q!
#2990
0"
0U
0P
#3000
1"
1U
1P
b10010000 Q!
#3010
0"
0U
0P
#3020
1"
1U
1P
b10010001 Q!
#3030
0"
0U
0P
#3040
1"
1U
1P
b10010010 Q!
#3050
0"
0U
0P
#3060
1"
1U
1P
b10010011 Q!
#3070
0"
0U
0P
#3080
1"
1U
1P
b10010100 Q!
#3090
0"
0U
0P
#3100
1"
1U
1P
b10010101 Q!
#3110
0"
0U
0P
#3120
1"
1U
1P
b10010110 Q!
#3130
0"
0U
0P
#3140
1"
1U
1P
b10010111 Q!
#3150
0"
0U
0P
#3160
1"
1U
1P
b10011000 Q!
#3170
0"
0U
0P
#3180
1"
1U
1P
b10011001 Q!
#3190
0"
0U
0P
#3200
1"
1U
1P
b10011010 Q!
#3210
0"
0U
0P
#3220
1"
1U
1P
b10011011 Q!
#3230
0"
0U
0P
#3240
1"
1U
1P
b10011100 Q!
#3250
0"
0U
0P
#3260
1"
1U
1P
b10011101 Q!
#3270
0"
0U
0P
#3280
1"
1U
1P
b10011110 Q!
#3290
0"
0U
0P
#3300
1"
1U
1P
b10011111 Q!
#3310
0"
0U
0P
#3320
1"
1U
1P
b10100000 Q!
#3330
0"
0U
0P
#3340
1"
1U
1P
b10100001 Q!
#3350
0"
0U
0P
#3360
1"
1U
1P
b10100010 Q!
#3370
0"
0U
0P
#3380
1"
1U
1P
b10100011 Q!
#3390
0"
0U
0P
#3400
1"
1U
1P
b10100100 Q!
#3410
0"
0U
0P
#3420
1"
1U
1P
b10100101 Q!
#3430
0"
0U
0P
#3440
1"
1U
1P
b10100110 Q!
#3450
0"
0U
0P
#3460
1"
1U
1P
b10100111 Q!
#3470
0"
0U
0P
#3480
1"
1U
1P
b10101000 Q!
#3490
0"
0U
0P
#3500
1"
1U
1P
b10101001 Q!
#3510
0"
0U
0P
#3520
1"
1U
1P
b10101010 Q!
#3530
0"
0U
0P
#3540
1"
1U
1P
b10101011 Q!
#3550
0"
0U
0P
#3560
1"
1U
1P
b10101100 Q!
#3570
0"
0U
0P
#3580
1"
1U
1P
b10101101 Q!
#3590
0"
0U
0P
#3600
1"
1U
1P
b10101110 Q!
#3610
0"
0U
0P
#3620
1"
1U
1P
b10101111 Q!
#3630
0"
0U
0P
#3640
1"
1U
1P
b10110000 Q!
